<?xml version="1.0" encoding="UTF-8"?>
<svg xmlns="http://www.w3.org/2000/svg" xmlns:xlink="http://www.w3.org/1999/xlink" width="1230pt" height="693.000001pt" viewBox="0 0 1230 693.000001" version="1.2">
<defs>
<g>
<symbol overflow="visible" id="glyph0-0">
<path style="stroke:none;" d="M 7.265625 -33.203125 C 7.753906 -33.628906 8.273438 -34.023438 8.828125 -34.390625 C 9.378906 -34.753906 9.984375 -35.078125 10.640625 -35.359375 C 11.304688 -35.640625 12.019531 -35.863281 12.78125 -36.03125 C 13.550781 -36.195312 14.382812 -36.28125 15.28125 -36.28125 C 16.5 -36.28125 17.609375 -36.109375 18.609375 -35.765625 C 19.609375 -35.429688 20.460938 -34.953125 21.171875 -34.328125 C 21.878906 -33.710938 22.429688 -32.960938 22.828125 -32.078125 C 23.222656 -31.191406 23.421875 -30.207031 23.421875 -29.125 C 23.421875 -28.050781 23.273438 -27.125 22.984375 -26.34375 C 22.691406 -25.570312 22.328125 -24.898438 21.890625 -24.328125 C 21.453125 -23.765625 20.972656 -23.273438 20.453125 -22.859375 C 19.929688 -22.441406 19.4375 -22.046875 18.96875 -21.671875 C 18.5 -21.304688 18.09375 -20.941406 17.75 -20.578125 C 17.414062 -20.222656 17.210938 -19.820312 17.140625 -19.375 L 16.640625 -16.328125 L 13.09375 -16.328125 L 12.75 -19.71875 C 12.664062 -20.382812 12.75 -20.960938 13 -21.453125 C 13.257812 -21.953125 13.601562 -22.410156 14.03125 -22.828125 C 14.46875 -23.242188 14.953125 -23.644531 15.484375 -24.03125 C 16.023438 -24.414062 16.523438 -24.832031 16.984375 -25.28125 C 17.453125 -25.726562 17.84375 -26.234375 18.15625 -26.796875 C 18.46875 -27.359375 18.625 -28.023438 18.625 -28.796875 C 18.625 -29.785156 18.269531 -30.570312 17.5625 -31.15625 C 16.851562 -31.738281 15.945312 -32.03125 14.84375 -32.03125 C 14.039062 -32.03125 13.367188 -31.941406 12.828125 -31.765625 C 12.285156 -31.597656 11.820312 -31.40625 11.4375 -31.1875 C 11.050781 -30.976562 10.71875 -30.785156 10.4375 -30.609375 C 10.164062 -30.429688 9.925781 -30.34375 9.71875 -30.34375 C 9.226562 -30.34375 8.867188 -30.554688 8.640625 -30.984375 Z M 11.515625 -8.5 C 11.515625 -9.40625 11.816406 -10.164062 12.421875 -10.78125 C 13.023438 -11.40625 13.789062 -11.71875 14.71875 -11.71875 C 15.144531 -11.71875 15.550781 -11.632812 15.9375 -11.46875 C 16.332031 -11.3125 16.671875 -11.085938 16.953125 -10.796875 C 17.234375 -10.503906 17.453125 -10.160156 17.609375 -9.765625 C 17.773438 -9.367188 17.859375 -8.945312 17.859375 -8.5 C 17.859375 -8.050781 17.773438 -7.628906 17.609375 -7.234375 C 17.453125 -6.847656 17.234375 -6.507812 16.953125 -6.21875 C 16.671875 -5.9375 16.332031 -5.710938 15.9375 -5.546875 C 15.550781 -5.378906 15.144531 -5.296875 14.71875 -5.296875 C 13.789062 -5.296875 13.023438 -5.597656 12.421875 -6.203125 C 11.816406 -6.816406 11.515625 -7.582031 11.515625 -8.5 Z M 1.3125 -41.6875 L 29.640625 -41.6875 L 29.640625 0 L 1.3125 0 Z M 2.765625 -1.578125 L 27.984375 -1.578125 L 27.984375 -40.09375 L 2.765625 -40.09375 Z M 2.765625 -1.578125 "/>
</symbol>
<symbol overflow="visible" id="glyph0-1">
<path style="stroke:none;" d="M 39.1875 -20.046875 L 39.1875 -4.046875 C 37.09375 -2.535156 34.859375 -1.40625 32.484375 -0.65625 C 30.109375 0.09375 27.503906 0.46875 24.671875 0.46875 C 21.316406 0.46875 18.289062 -0.046875 15.59375 -1.078125 C 12.894531 -2.117188 10.585938 -3.578125 8.671875 -5.453125 C 6.765625 -7.328125 5.296875 -9.570312 4.265625 -12.1875 C 3.242188 -14.8125 2.734375 -17.691406 2.734375 -20.828125 C 2.734375 -24.015625 3.234375 -26.914062 4.234375 -29.53125 C 5.234375 -32.144531 6.65625 -34.390625 8.5 -36.265625 C 10.34375 -38.140625 12.582031 -39.585938 15.21875 -40.609375 C 17.851562 -41.640625 20.800781 -42.15625 24.0625 -42.15625 C 25.707031 -42.15625 27.238281 -42.03125 28.65625 -41.78125 C 30.070312 -41.539062 31.378906 -41.191406 32.578125 -40.734375 C 33.785156 -40.285156 34.898438 -39.734375 35.921875 -39.078125 C 36.953125 -38.429688 37.914062 -37.703125 38.8125 -36.890625 L 37.203125 -34.328125 C 36.953125 -33.941406 36.628906 -33.691406 36.234375 -33.578125 C 35.835938 -33.472656 35.394531 -33.566406 34.90625 -33.859375 C 34.445312 -34.128906 33.914062 -34.457031 33.3125 -34.84375 C 32.707031 -35.238281 31.972656 -35.613281 31.109375 -35.96875 C 30.253906 -36.332031 29.238281 -36.640625 28.0625 -36.890625 C 26.882812 -37.140625 25.492188 -37.265625 23.890625 -37.265625 C 21.535156 -37.265625 19.40625 -36.878906 17.5 -36.109375 C 15.601562 -35.347656 13.984375 -34.253906 12.640625 -32.828125 C 11.304688 -31.398438 10.28125 -29.671875 9.5625 -27.640625 C 8.851562 -25.617188 8.5 -23.347656 8.5 -20.828125 C 8.5 -18.210938 8.867188 -15.867188 9.609375 -13.796875 C 10.359375 -11.734375 11.425781 -9.976562 12.8125 -8.53125 C 14.195312 -7.09375 15.878906 -5.992188 17.859375 -5.234375 C 19.835938 -4.484375 22.0625 -4.109375 24.53125 -4.109375 C 26.46875 -4.109375 28.1875 -4.320312 29.6875 -4.75 C 31.1875 -5.1875 32.65625 -5.796875 34.09375 -6.578125 L 34.09375 -15.734375 L 27.609375 -15.734375 C 27.242188 -15.734375 26.945312 -15.835938 26.71875 -16.046875 C 26.5 -16.265625 26.390625 -16.53125 26.390625 -16.84375 L 26.390625 -20.046875 Z M 39.1875 -20.046875 "/>
</symbol>
<symbol overflow="visible" id="glyph0-2">
<path style="stroke:none;" d="M 26.65625 -35.171875 C 26.476562 -34.878906 26.285156 -34.660156 26.078125 -34.515625 C 25.878906 -34.367188 25.632812 -34.296875 25.34375 -34.296875 C 25.007812 -34.296875 24.617188 -34.460938 24.171875 -34.796875 C 23.722656 -35.128906 23.164062 -35.492188 22.5 -35.890625 C 21.832031 -36.285156 21.023438 -36.644531 20.078125 -36.96875 C 19.140625 -37.300781 18.003906 -37.46875 16.671875 -37.46875 C 15.410156 -37.46875 14.300781 -37.296875 13.34375 -36.953125 C 12.382812 -36.617188 11.578125 -36.160156 10.921875 -35.578125 C 10.273438 -34.992188 9.785156 -34.3125 9.453125 -33.53125 C 9.117188 -32.75 8.953125 -31.898438 8.953125 -30.984375 C 8.953125 -29.816406 9.238281 -28.847656 9.8125 -28.078125 C 10.382812 -27.316406 11.140625 -26.664062 12.078125 -26.125 C 13.023438 -25.582031 14.09375 -25.113281 15.28125 -24.71875 C 16.476562 -24.320312 17.703125 -23.910156 18.953125 -23.484375 C 20.203125 -23.054688 21.421875 -22.570312 22.609375 -22.03125 C 23.804688 -21.5 24.875 -20.828125 25.8125 -20.015625 C 26.757812 -19.203125 27.519531 -18.203125 28.09375 -17.015625 C 28.664062 -15.835938 28.953125 -14.382812 28.953125 -12.65625 C 28.953125 -10.832031 28.640625 -9.117188 28.015625 -7.515625 C 27.398438 -5.921875 26.492188 -4.53125 25.296875 -3.34375 C 24.097656 -2.164062 22.628906 -1.234375 20.890625 -0.546875 C 19.160156 0.128906 17.191406 0.46875 14.984375 0.46875 C 12.265625 0.46875 9.800781 -0.0195312 7.59375 -1 C 5.382812 -1.976562 3.492188 -3.300781 1.921875 -4.96875 L 3.546875 -7.65625 C 3.703125 -7.863281 3.890625 -8.039062 4.109375 -8.1875 C 4.335938 -8.332031 4.585938 -8.40625 4.859375 -8.40625 C 5.109375 -8.40625 5.394531 -8.300781 5.71875 -8.09375 C 6.039062 -7.894531 6.40625 -7.640625 6.8125 -7.328125 C 7.21875 -7.015625 7.679688 -6.675781 8.203125 -6.3125 C 8.722656 -5.945312 9.316406 -5.609375 9.984375 -5.296875 C 10.660156 -4.984375 11.425781 -4.722656 12.28125 -4.515625 C 13.132812 -4.316406 14.09375 -4.21875 15.15625 -4.21875 C 16.5 -4.21875 17.691406 -4.398438 18.734375 -4.765625 C 19.785156 -5.140625 20.671875 -5.660156 21.390625 -6.328125 C 22.117188 -6.992188 22.675781 -7.789062 23.0625 -8.71875 C 23.457031 -9.65625 23.65625 -10.695312 23.65625 -11.84375 C 23.65625 -13.101562 23.367188 -14.132812 22.796875 -14.9375 C 22.222656 -15.738281 21.46875 -16.410156 20.53125 -16.953125 C 19.601562 -17.503906 18.535156 -17.96875 17.328125 -18.34375 C 16.128906 -18.71875 14.910156 -19.101562 13.671875 -19.5 C 12.429688 -19.90625 11.207031 -20.367188 10 -20.890625 C 8.800781 -21.410156 7.734375 -22.085938 6.796875 -22.921875 C 5.867188 -23.753906 5.117188 -24.796875 4.546875 -26.046875 C 3.972656 -27.304688 3.6875 -28.851562 3.6875 -30.6875 C 3.6875 -32.164062 3.972656 -33.59375 4.546875 -34.96875 C 5.117188 -36.34375 5.953125 -37.5625 7.046875 -38.625 C 8.148438 -39.695312 9.5 -40.550781 11.09375 -41.1875 C 12.695312 -41.832031 14.535156 -42.15625 16.609375 -42.15625 C 18.941406 -42.15625 21.0625 -41.785156 22.96875 -41.046875 C 24.875 -40.316406 26.554688 -39.25 28.015625 -37.84375 Z M 26.65625 -35.171875 "/>
</symbol>
<symbol overflow="visible" id="glyph0-3">
<path style="stroke:none;" d=""/>
</symbol>
<symbol overflow="visible" id="glyph0-4">
<path style="stroke:none;" d="M 39.109375 -41.6875 L 39.109375 0 L 36.28125 0 C 35.832031 0 35.457031 -0.078125 35.15625 -0.234375 C 34.851562 -0.390625 34.554688 -0.648438 34.265625 -1.015625 L 10.15625 -32.4375 C 10.195312 -31.957031 10.222656 -31.484375 10.234375 -31.015625 C 10.253906 -30.546875 10.265625 -30.109375 10.265625 -29.703125 L 10.265625 0 L 5.328125 0 L 5.328125 -41.6875 L 8.234375 -41.6875 C 8.484375 -41.6875 8.695312 -41.671875 8.875 -41.640625 C 9.050781 -41.617188 9.207031 -41.570312 9.34375 -41.5 C 9.476562 -41.4375 9.613281 -41.335938 9.75 -41.203125 C 9.882812 -41.078125 10.03125 -40.921875 10.1875 -40.734375 L 34.296875 -9.34375 C 34.265625 -9.84375 34.234375 -10.328125 34.203125 -10.796875 C 34.171875 -11.273438 34.15625 -11.726562 34.15625 -12.15625 L 34.15625 -41.6875 Z M 39.109375 -41.6875 "/>
</symbol>
<symbol overflow="visible" id="glyph0-5">
<path style="stroke:none;" d="M 23.828125 -17.953125 C 23.828125 -19.148438 23.65625 -20.25 23.3125 -21.25 C 22.976562 -22.25 22.484375 -23.113281 21.828125 -23.84375 C 21.179688 -24.570312 20.390625 -25.132812 19.453125 -25.53125 C 18.523438 -25.925781 17.472656 -26.125 16.296875 -26.125 C 13.804688 -26.125 11.835938 -25.398438 10.390625 -23.953125 C 8.953125 -22.515625 8.054688 -20.515625 7.703125 -17.953125 Z M 28.015625 -4.125 C 27.378906 -3.351562 26.613281 -2.679688 25.71875 -2.109375 C 24.820312 -1.535156 23.863281 -1.0625 22.84375 -0.6875 C 21.832031 -0.320312 20.78125 -0.0507812 19.6875 0.125 C 18.601562 0.3125 17.53125 0.40625 16.46875 0.40625 C 14.425781 0.40625 12.546875 0.0625 10.828125 -0.625 C 9.117188 -1.3125 7.640625 -2.316406 6.390625 -3.640625 C 5.140625 -4.972656 4.164062 -6.617188 3.46875 -8.578125 C 2.769531 -10.535156 2.421875 -12.785156 2.421875 -15.328125 C 2.421875 -17.390625 2.734375 -19.3125 3.359375 -21.09375 C 3.992188 -22.875 4.898438 -24.421875 6.078125 -25.734375 C 7.265625 -27.046875 8.707031 -28.070312 10.40625 -28.8125 C 12.113281 -29.5625 14.035156 -29.9375 16.171875 -29.9375 C 17.941406 -29.9375 19.578125 -29.640625 21.078125 -29.046875 C 22.578125 -28.453125 23.875 -27.597656 24.96875 -26.484375 C 26.070312 -25.367188 26.929688 -23.992188 27.546875 -22.359375 C 28.171875 -20.722656 28.484375 -18.859375 28.484375 -16.765625 C 28.484375 -15.941406 28.394531 -15.394531 28.21875 -15.125 C 28.039062 -14.851562 27.710938 -14.71875 27.234375 -14.71875 L 7.53125 -14.71875 C 7.59375 -12.851562 7.847656 -11.234375 8.296875 -9.859375 C 8.753906 -8.484375 9.390625 -7.332031 10.203125 -6.40625 C 11.023438 -5.488281 12 -4.800781 13.125 -4.34375 C 14.25 -3.894531 15.507812 -3.671875 16.90625 -3.671875 C 18.207031 -3.671875 19.328125 -3.816406 20.265625 -4.109375 C 21.203125 -4.410156 22.007812 -4.734375 22.6875 -5.078125 C 23.375 -5.429688 23.941406 -5.757812 24.390625 -6.0625 C 24.847656 -6.363281 25.242188 -6.515625 25.578125 -6.515625 C 26.003906 -6.515625 26.332031 -6.347656 26.5625 -6.015625 Z M 28.015625 -4.125 "/>
</symbol>
<symbol overflow="visible" id="glyph0-6">
<path style="stroke:none;" d="M 13.15625 0.46875 C 10.820312 0.46875 9.03125 -0.179688 7.78125 -1.484375 C 6.53125 -2.785156 5.90625 -4.65625 5.90625 -7.09375 L 5.90625 -25.140625 L 2.359375 -25.140625 C 2.046875 -25.140625 1.78125 -25.226562 1.5625 -25.40625 C 1.351562 -25.59375 1.25 -25.878906 1.25 -26.265625 L 1.25 -28.34375 L 6.078125 -28.953125 L 7.265625 -38.046875 C 7.328125 -38.335938 7.457031 -38.578125 7.65625 -38.765625 C 7.863281 -38.953125 8.132812 -39.046875 8.46875 -39.046875 L 11.078125 -39.046875 L 11.078125 -28.890625 L 19.609375 -28.890625 L 19.609375 -25.140625 L 11.078125 -25.140625 L 11.078125 -7.453125 C 11.078125 -6.210938 11.378906 -5.289062 11.984375 -4.6875 C 12.585938 -4.082031 13.363281 -3.78125 14.3125 -3.78125 C 14.851562 -3.78125 15.320312 -3.851562 15.71875 -4 C 16.125 -4.144531 16.46875 -4.304688 16.75 -4.484375 C 17.039062 -4.660156 17.289062 -4.816406 17.5 -4.953125 C 17.707031 -5.097656 17.882812 -5.171875 18.03125 -5.171875 C 18.3125 -5.171875 18.554688 -5.007812 18.765625 -4.6875 L 20.28125 -2.21875 C 19.382812 -1.375 18.304688 -0.710938 17.046875 -0.234375 C 15.785156 0.234375 14.488281 0.46875 13.15625 0.46875 Z M 13.15625 0.46875 "/>
</symbol>
<symbol overflow="visible" id="glyph0-7">
<path style="stroke:none;" d="M 44.75 -29.46875 L 35.203125 0 L 31.09375 0 C 30.59375 0 30.242188 -0.328125 30.046875 -0.984375 L 23.53125 -20.984375 C 23.375 -21.421875 23.25 -21.867188 23.15625 -22.328125 C 23.0625 -22.785156 22.96875 -23.238281 22.875 -23.6875 C 22.769531 -23.238281 22.671875 -22.785156 22.578125 -22.328125 C 22.484375 -21.867188 22.359375 -21.410156 22.203125 -20.953125 L 15.5625 -0.984375 C 15.382812 -0.328125 15 0 14.40625 0 L 10.5 0 L 0.953125 -29.46875 L 5.03125 -29.46875 C 5.4375 -29.46875 5.78125 -29.359375 6.0625 -29.140625 C 6.34375 -28.929688 6.535156 -28.679688 6.640625 -28.390625 L 12.28125 -9.421875 C 12.601562 -8.023438 12.863281 -6.707031 13.0625 -5.46875 C 13.238281 -6.113281 13.414062 -6.765625 13.59375 -7.421875 C 13.78125 -8.078125 13.984375 -8.742188 14.203125 -9.421875 L 20.421875 -28.515625 C 20.515625 -28.804688 20.679688 -29.046875 20.921875 -29.234375 C 21.171875 -29.429688 21.46875 -29.53125 21.8125 -29.53125 L 24.09375 -29.53125 C 24.476562 -29.53125 24.796875 -29.429688 25.046875 -29.234375 C 25.296875 -29.046875 25.472656 -28.804688 25.578125 -28.515625 L 31.65625 -9.421875 C 31.863281 -8.742188 32.054688 -8.078125 32.234375 -7.421875 C 32.410156 -6.765625 32.578125 -6.113281 32.734375 -5.46875 C 32.828125 -6.113281 32.945312 -6.757812 33.09375 -7.40625 C 33.238281 -8.050781 33.398438 -8.722656 33.578125 -9.421875 L 39.328125 -28.390625 C 39.429688 -28.703125 39.617188 -28.957031 39.890625 -29.15625 C 40.160156 -29.363281 40.476562 -29.46875 40.84375 -29.46875 Z M 44.75 -29.46875 "/>
</symbol>
<symbol overflow="visible" id="glyph0-8">
<path style="stroke:none;" d="M 16.53125 -29.9375 C 18.675781 -29.9375 20.613281 -29.578125 22.34375 -28.859375 C 24.070312 -28.140625 25.546875 -27.117188 26.765625 -25.796875 C 27.984375 -24.484375 28.914062 -22.890625 29.5625 -21.015625 C 30.21875 -19.148438 30.546875 -17.0625 30.546875 -14.75 C 30.546875 -12.425781 30.21875 -10.332031 29.5625 -8.46875 C 28.914062 -6.601562 27.984375 -5.007812 26.765625 -3.6875 C 25.546875 -2.375 24.070312 -1.363281 22.34375 -0.65625 C 20.613281 0.0507812 18.675781 0.40625 16.53125 0.40625 C 14.351562 0.40625 12.394531 0.0507812 10.65625 -0.65625 C 8.925781 -1.363281 7.445312 -2.375 6.21875 -3.6875 C 5 -5.007812 4.0625 -6.601562 3.40625 -8.46875 C 2.757812 -10.332031 2.4375 -12.425781 2.4375 -14.75 C 2.4375 -17.0625 2.757812 -19.148438 3.40625 -21.015625 C 4.0625 -22.890625 5 -24.484375 6.21875 -25.796875 C 7.445312 -27.117188 8.925781 -28.140625 10.65625 -28.859375 C 12.394531 -29.578125 14.351562 -29.9375 16.53125 -29.9375 Z M 16.53125 -3.640625 C 19.4375 -3.640625 21.601562 -4.613281 23.03125 -6.5625 C 24.46875 -8.507812 25.1875 -11.226562 25.1875 -14.71875 C 25.1875 -18.226562 24.46875 -20.960938 23.03125 -22.921875 C 21.601562 -24.878906 19.4375 -25.859375 16.53125 -25.859375 C 15.050781 -25.859375 13.765625 -25.601562 12.671875 -25.09375 C 11.578125 -24.59375 10.664062 -23.867188 9.9375 -22.921875 C 9.207031 -21.972656 8.660156 -20.804688 8.296875 -19.421875 C 7.941406 -18.035156 7.765625 -16.46875 7.765625 -14.71875 C 7.765625 -11.226562 8.488281 -8.507812 9.9375 -6.5625 C 11.382812 -4.613281 13.582031 -3.640625 16.53125 -3.640625 Z M 16.53125 -3.640625 "/>
</symbol>
<symbol overflow="visible" id="glyph0-9">
<path style="stroke:none;" d="M 9.015625 -23.5625 C 9.953125 -25.582031 11.097656 -27.160156 12.453125 -28.296875 C 13.804688 -29.429688 15.460938 -30 17.421875 -30 C 18.046875 -30 18.644531 -29.929688 19.21875 -29.796875 C 19.789062 -29.660156 20.300781 -29.445312 20.75 -29.15625 L 20.359375 -25.28125 C 20.242188 -24.800781 19.957031 -24.5625 19.5 -24.5625 C 19.21875 -24.5625 18.816406 -24.617188 18.296875 -24.734375 C 17.773438 -24.847656 17.1875 -24.90625 16.53125 -24.90625 C 15.59375 -24.90625 14.757812 -24.769531 14.03125 -24.5 C 13.3125 -24.226562 12.664062 -23.820312 12.09375 -23.28125 C 11.519531 -22.75 11.003906 -22.09375 10.546875 -21.3125 C 10.085938 -20.53125 9.675781 -19.632812 9.3125 -18.625 L 9.3125 0 L 4.109375 0 L 4.109375 -29.46875 L 7.0625 -29.46875 C 7.625 -29.46875 8.007812 -29.359375 8.21875 -29.140625 C 8.4375 -28.929688 8.585938 -28.566406 8.671875 -28.046875 Z M 9.015625 -23.5625 "/>
</symbol>
<symbol overflow="visible" id="glyph0-10">
<path style="stroke:none;" d="M 9.3125 -42.859375 L 9.3125 -17.625 L 10.640625 -17.625 C 11.035156 -17.625 11.363281 -17.675781 11.625 -17.78125 C 11.882812 -17.894531 12.160156 -18.117188 12.453125 -18.453125 L 21.765625 -28.421875 C 22.035156 -28.753906 22.320312 -29.007812 22.625 -29.1875 C 22.925781 -29.375 23.328125 -29.46875 23.828125 -29.46875 L 28.515625 -29.46875 L 17.65625 -17.921875 C 17.132812 -17.265625 16.570312 -16.75 15.96875 -16.375 C 16.320312 -16.144531 16.640625 -15.878906 16.921875 -15.578125 C 17.203125 -15.273438 17.46875 -14.929688 17.71875 -14.546875 L 29.234375 0 L 24.609375 0 C 24.160156 0 23.773438 -0.0703125 23.453125 -0.21875 C 23.140625 -0.363281 22.867188 -0.628906 22.640625 -1.015625 L 12.953125 -13.09375 C 12.660156 -13.5 12.375 -13.765625 12.09375 -13.890625 C 11.8125 -14.015625 11.378906 -14.078125 10.796875 -14.078125 L 9.3125 -14.078125 L 9.3125 0 L 4.109375 0 L 4.109375 -42.859375 Z M 9.3125 -42.859375 "/>
</symbol>
</g>
<filter id="alpha" filterUnits="objectBoundingBox" x="0%" y="0%" width="100%" height="100%">
  <feColorMatrix type="matrix" in="SourceGraphic" values="0 0 0 0 1 0 0 0 0 1 0 0 0 0 1 0 0 0 1 0"/>
</filter>
<mask id="mask0">
  <g filter="url(#alpha)">
<rect x="0" y="0" width="1230" height="693.000001" style="fill:rgb(0%,0%,0%);fill-opacity:0.8588;stroke:none;"/>
  </g>
</mask>
<clipPath id="clip2">
  <path d="M 1 0.535156 L 1091.8125 0.535156 L 1091.8125 382 L 1 382 Z M 1 0.535156 "/>
</clipPath>
<clipPath id="clip1">
  <rect x="0" y="0" width="1092" height="383"/>
</clipPath>
<g id="surface5" clip-path="url(#clip1)">
<g clip-path="url(#clip2)" clip-rule="nonzero">
<path style=" stroke:none;fill-rule:nonzero;fill:rgb(13.729858%,12.159729%,12.548828%);fill-opacity:1;" d="M 104.164062 0.699219 L 104.164062 381.621094 C 105.277344 381.699219 106.394531 381.699219 107.511719 381.699219 L 984.1875 381.699219 L 984.1875 0.699219 Z M 1012.882812 0.699219 L 984.1875 0.699219 L 984.1875 381.621094 L 984.824219 381.621094 C 1031.21875 381.621094 1071.953125 343.734375 1075.300781 297.476562 L 1091.003906 84.765625 C 1094.429688 38.585938 1059.277344 0.699219 1012.882812 0.699219 Z M 79.453125 0.699219 C 33.058594 0.699219 -2.09375 38.585938 1.332031 84.84375 L 17.035156 297.554688 C 20.382812 342.699219 59.285156 379.863281 104.242188 381.621094 L 104.242188 0.699219 Z M 79.453125 0.699219 "/>
</g>
</g>
<clipPath id="clip3">
  <path d="M 617 343 L 717 343 L 717 421.085938 L 617 421.085938 Z M 617 343 "/>
</clipPath>
<clipPath id="clip4">
  <path d="M 485 351 L 578 351 L 578 421.085938 L 485 421.085938 Z M 485 351 "/>
</clipPath>
<clipPath id="clip5">
  <path d="M 511 270.550781 L 647 270.550781 L 647 405 L 511 405 Z M 511 270.550781 "/>
</clipPath>
</defs>
<g id="surface1">
<use xlink:href="#surface5" transform="matrix(1,0,0,1,69,155)" mask="url(#mask0)"/>
<path style=" stroke:none;fill-rule:nonzero;fill:rgb(100%,39.99939%,0%);fill-opacity:1;" d="M 183.9375 351.53125 C 183.9375 354.882812 183.34375 358.429688 182.15625 361.582031 C 180.972656 364.535156 179.195312 367.097656 177.023438 369.460938 C 174.851562 371.628906 172.085938 373.402344 169.125 374.78125 C 165.964844 376.160156 162.605469 376.753906 159.25 376.753906 C 155.691406 376.753906 152.335938 376.160156 148.976562 374.78125 C 142.855469 372.417969 137.917969 367.492188 135.351562 361.582031 C 133.96875 358.429688 133.375 355.078125 133.375 351.730469 C 133.375 345.03125 135.941406 338.527344 140.878906 333.800781 C 143.25 331.433594 146.015625 329.660156 148.976562 328.480469 C 152.136719 327.101562 155.691406 326.507812 159.050781 326.507812 C 163 326.507812 166.949219 327.296875 170.503906 328.875 C 173.863281 330.449219 177.023438 332.617188 179.394531 335.570312 L 172.28125 342.074219 C 170.703125 340.105469 168.726562 338.527344 166.359375 337.34375 C 163.988281 336.164062 161.617188 335.769531 159.050781 335.769531 C 152.730469 335.769531 147.003906 339.511719 144.832031 345.425781 C 143.25 349.5625 143.25 354.09375 144.832031 358.035156 C 145.621094 360.003906 146.609375 361.582031 148.1875 363.15625 C 149.570312 364.535156 151.347656 365.71875 153.125 366.507812 C 155.101562 367.292969 157.273438 367.6875 159.25 367.6875 C 162.40625 367.6875 165.566406 366.703125 168.136719 364.734375 C 170.503906 362.960938 172.28125 360.398438 172.679688 357.441406 L 158.261719 357.441406 L 158.261719 348.578125 L 183.539062 348.578125 Z M 183.9375 351.53125 "/>
<path style=" stroke:none;fill-rule:nonzero;fill:rgb(100%,39.99939%,0%);fill-opacity:1;" d="M 186.699219 368.082031 L 192.429688 360.792969 C 194.796875 362.960938 197.5625 364.734375 200.722656 366.113281 C 203.289062 367.292969 206.253906 367.886719 209.019531 367.886719 C 211.585938 368.082031 214.152344 367.492188 216.324219 366.308594 C 217.90625 365.519531 219.089844 363.746094 219.089844 361.777344 C 219.089844 360.203125 218.5 358.820312 217.3125 357.835938 C 215.535156 356.65625 213.363281 355.867188 211.191406 355.667969 L 201.511719 354.09375 C 197.957031 353.699219 194.601562 352.121094 192.03125 349.757812 C 189.859375 347.394531 188.675781 344.242188 188.675781 341.089844 C 188.476562 336.753906 190.453125 332.8125 193.8125 330.253906 C 197.957031 327.492188 202.894531 326.113281 207.832031 326.3125 C 211.386719 326.3125 215.140625 326.902344 218.5 328.085938 C 221.855469 329.265625 225.214844 330.84375 227.976562 333.011719 L 222.449219 340.5 C 220.078125 338.726562 217.511719 337.148438 214.746094 336.164062 C 212.179688 335.179688 209.609375 334.785156 207.042969 334.785156 C 204.871094 334.585938 202.5 335.179688 200.527344 336.359375 C 199.144531 337.148438 198.15625 338.726562 198.15625 340.300781 C 198.15625 341.679688 198.75 342.863281 199.734375 343.847656 C 201.316406 344.832031 203.289062 345.425781 205.066406 345.621094 L 214.351562 347.195312 C 218.300781 347.589844 222.25 349.167969 225.214844 351.730469 C 227.78125 354.09375 228.964844 357.441406 228.964844 360.792969 C 229.164062 365.324219 226.992188 369.460938 223.4375 372.21875 C 219.089844 375.175781 213.757812 376.753906 208.425781 376.554688 C 204.476562 376.554688 200.527344 375.765625 196.773438 374.386719 C 193.019531 372.8125 189.664062 370.839844 186.699219 368.082031 Z M 186.699219 368.082031 "/>
<path style=" stroke:none;fill-rule:nonzero;fill:rgb(100%,39.99939%,0%);fill-opacity:1;" d="M 261.355469 371.628906 C 264.316406 371.628906 267.28125 371.039062 270.046875 369.855469 C 272.613281 368.671875 274.984375 367.097656 276.957031 364.929688 L 280.511719 368.476562 C 278.144531 371.039062 275.179688 373.007812 271.824219 374.386719 C 268.464844 375.765625 264.910156 376.554688 261.355469 376.554688 C 254.640625 376.554688 248.121094 373.992188 243.382812 369.265625 C 241.011719 366.902344 239.234375 364.339844 238.050781 361.1875 C 235.484375 354.882812 235.484375 347.789062 238.050781 341.484375 C 239.234375 338.527344 241.210938 335.769531 243.382812 333.40625 C 245.753906 331.039062 248.519531 329.265625 251.480469 328.085938 C 254.640625 326.707031 257.996094 326.113281 261.355469 326.113281 C 265.109375 326.113281 268.664062 326.902344 272.019531 328.28125 C 275.378906 329.660156 278.144531 331.632812 280.710938 334.191406 L 277.15625 337.9375 C 275.179688 335.769531 272.808594 333.996094 270.046875 333.011719 C 267.28125 331.828125 264.316406 331.238281 261.355469 331.238281 C 258.589844 331.238281 256.023438 331.828125 253.457031 332.8125 C 248.714844 334.785156 244.964844 338.726562 242.988281 343.453125 C 241.011719 348.578125 241.011719 354.289062 242.988281 359.414062 C 243.976562 361.777344 245.359375 363.945312 247.136719 365.71875 C 250.886719 369.660156 256.023438 371.828125 261.355469 371.628906 Z M 261.355469 371.628906 "/>
<path style=" stroke:none;fill-rule:nonzero;fill:rgb(100%,39.99939%,0%);fill-opacity:1;" d="M 292.957031 325.917969 L 292.957031 375.964844 L 287.621094 375.964844 L 287.621094 327.101562 Z M 292.957031 325.917969 "/>
<path style=" stroke:none;fill-rule:nonzero;fill:rgb(100%,39.99939%,0%);fill-opacity:1;" d="M 300.066406 358.429688 C 300.066406 353.699219 301.84375 348.96875 305.199219 345.425781 C 312.113281 338.527344 323.371094 338.332031 330.28125 345.226562 C 330.28125 345.226562 330.480469 345.425781 330.480469 345.425781 C 332.058594 347.195312 333.441406 349.167969 334.234375 351.335938 C 336.996094 358.230469 335.617188 366.113281 330.480469 371.433594 C 328.898438 373.007812 326.925781 374.386719 324.753906 375.175781 C 320.40625 376.949219 315.273438 376.949219 310.929688 375.175781 C 308.753906 374.191406 306.78125 373.007812 305.199219 371.433594 C 302.039062 367.886719 300.066406 363.355469 300.066406 358.429688 Z M 317.839844 372.023438 C 319.617188 372.023438 321.199219 371.628906 322.777344 371.039062 C 324.359375 370.25 325.542969 369.265625 326.726562 368.082031 C 327.914062 366.902344 328.703125 365.324219 329.492188 363.746094 C 330.875 360.398438 330.875 356.457031 329.492188 353.109375 C 328.898438 351.53125 327.914062 350.152344 326.726562 348.773438 C 325.542969 347.589844 324.359375 346.605469 322.777344 345.816406 C 319.617188 344.4375 316.0625 344.4375 312.707031 345.816406 C 311.125 346.410156 309.941406 347.394531 308.753906 348.773438 C 307.570312 349.957031 306.582031 351.53125 305.992188 353.109375 C 305.398438 354.882812 305.003906 356.65625 305.003906 358.429688 C 305.003906 360.203125 305.398438 361.972656 305.992188 363.746094 C 306.582031 365.324219 307.570312 366.902344 308.753906 368.082031 C 309.941406 369.265625 311.324219 370.25 312.902344 371.039062 C 314.484375 371.628906 316.261719 372.023438 317.839844 372.023438 Z M 317.839844 372.023438 "/>
<path style=" stroke:none;fill-rule:nonzero;fill:rgb(100%,39.99939%,0%);fill-opacity:1;" d="M 347.859375 340.890625 L 347.859375 361.972656 C 347.664062 364.734375 348.648438 367.292969 350.429688 369.265625 C 352.402344 371.039062 354.96875 372.023438 357.539062 372.023438 C 361.488281 372.023438 365.242188 370.054688 367.214844 366.507812 L 367.214844 340.890625 L 372.546875 340.890625 L 372.546875 375.765625 L 367.414062 375.765625 L 367.414062 371.828125 C 366.03125 373.402344 364.449219 374.585938 362.671875 375.371094 C 360.699219 376.160156 358.523438 376.554688 356.550781 376.554688 C 349.441406 376.949219 343.316406 371.433594 342.921875 364.339844 C 342.921875 363.945312 342.921875 363.550781 342.921875 363.15625 L 342.921875 340.890625 Z M 347.859375 340.890625 "/>
<path style=" stroke:none;fill-rule:nonzero;fill:rgb(100%,39.99939%,0%);fill-opacity:1;" d="M 408.492188 375.964844 L 408.492188 372.21875 C 407.109375 373.597656 405.332031 374.78125 403.359375 375.371094 C 396.839844 377.738281 389.53125 376.160156 384.59375 371.234375 C 383.015625 369.660156 381.632812 367.6875 380.84375 365.519531 C 379.855469 363.355469 379.460938 360.792969 379.460938 358.429688 C 379.460938 356.0625 379.855469 353.699219 380.84375 351.335938 C 381.632812 349.167969 383.015625 347.195312 384.59375 345.621094 C 387.953125 342.269531 392.496094 340.300781 397.234375 340.5 C 399.210938 340.5 401.183594 340.890625 403.160156 341.484375 C 405.136719 342.074219 406.914062 343.058594 408.492188 344.4375 L 408.492188 327.101562 L 413.628906 325.917969 L 413.628906 375.964844 Z M 384.792969 358.230469 C 384.792969 360.003906 385.1875 361.972656 385.78125 363.550781 C 386.371094 365.128906 387.359375 366.703125 388.546875 367.886719 C 389.730469 369.066406 391.113281 370.054688 392.691406 370.839844 C 394.273438 371.628906 396.050781 371.828125 397.828125 371.828125 C 400 371.828125 401.976562 371.433594 403.949219 370.445312 C 405.726562 369.660156 407.308594 368.476562 408.691406 366.902344 L 408.691406 349.5625 C 407.503906 347.984375 405.925781 346.804688 403.949219 346.015625 C 401.976562 345.226562 400 344.636719 397.828125 344.636719 C 394.273438 344.636719 390.914062 346.015625 388.546875 348.578125 C 385.976562 351.335938 384.59375 354.683594 384.792969 358.230469 Z M 384.792969 358.230469 "/>
<g clip-path="url(#clip3)" clip-rule="nonzero">
<path style=" stroke:none;fill-rule:nonzero;fill:rgb(96.859741%,58.81958%,27.449036%);fill-opacity:1;" d="M 716.59375 383.058594 C 716.195312 404.140625 699.015625 421.085938 677.882812 421.085938 L 626.136719 420.691406 C 613.695312 420.691406 619.027344 406.898438 619.027344 406.898438 L 633.050781 381.875 C 636.605469 376.554688 639.765625 371.628906 642.132812 367.292969 C 642.332031 366.902344 642.53125 366.308594 642.925781 365.914062 L 651.023438 376.359375 C 651.613281 377.34375 652.996094 377.539062 653.984375 376.949219 C 654.773438 376.554688 655.167969 375.765625 655.167969 374.980469 L 655.367188 371.039062 L 656.15625 351.136719 C 656.15625 350.546875 656.550781 349.957031 657.144531 349.5625 C 663.265625 345.621094 670.574219 343.652344 677.882812 343.652344 C 699.410156 344.042969 716.789062 361.582031 716.59375 383.058594 C 716.789062 383.058594 716.789062 383.058594 716.59375 383.058594 Z M 716.59375 383.058594 "/>
</g>
<g clip-path="url(#clip4)" clip-rule="nonzero">
<path style=" stroke:none;fill-rule:nonzero;fill:rgb(95.689392%,52.938843%,14.509583%);fill-opacity:1;" d="M 526.203125 420.691406 L 525.414062 420.886719 C 523.832031 421.085938 522.449219 421.085938 521.265625 421.085938 L 520.671875 421.085938 C 501.121094 420.886719 485.320312 404.925781 485.320312 385.421875 C 485.515625 369.066406 496.773438 354.882812 512.773438 351.136719 C 518.894531 382.070312 545.953125 404.535156 577.355469 405.125 C 561.554688 413.597656 544.175781 418.917969 526.203125 420.691406 Z M 526.203125 420.691406 "/>
</g>
<g clip-path="url(#clip5)" clip-rule="nonzero">
<path style=" stroke:none;fill-rule:nonzero;fill:rgb(100%,39.99939%,0%);fill-opacity:1;" d="M 624.164062 362.367188 L 635.023438 362.566406 C 624.953125 372.21875 614.089844 380.890625 602.632812 388.96875 C 598.289062 391.921875 593.945312 394.878906 589.796875 397.636719 C 585.648438 400.394531 581.503906 402.761719 577.355469 404.925781 C 540.226562 404.140625 510.601562 373.402344 511.390625 336.359375 C 512.179688 299.316406 542.988281 269.761719 580.121094 270.550781 C 616.261719 271.339844 645.492188 300.5 646.085938 336.558594 C 646.085938 337.34375 645.886719 337.9375 645.292969 338.527344 L 622.382812 357.640625 C 621.59375 358.230469 621.398438 359.019531 621.398438 360.003906 C 621.792969 361.382812 622.78125 362.367188 624.164062 362.367188 Z M 624.164062 362.367188 "/>
</g>
<path style=" stroke:none;fill-rule:nonzero;fill:rgb(100%,100%,100%);fill-opacity:1;" d="M 261.949219 392.515625 L 278.539062 413.203125 L 278.539062 392.515625 L 281.894531 392.515625 L 281.894531 419.707031 L 279.722656 419.707031 L 262.933594 399.015625 L 262.933594 419.707031 L 259.578125 419.707031 L 259.578125 392.515625 Z M 261.949219 392.515625 "/>
<path style=" stroke:none;fill-rule:nonzero;fill:rgb(100%,100%,100%);fill-opacity:1;" d="M 305.199219 416.550781 C 304.210938 417.734375 303.027344 418.523438 301.644531 419.113281 C 300.261719 419.707031 298.683594 419.902344 297.101562 419.902344 C 294.335938 420.097656 291.769531 419.113281 289.796875 417.144531 C 285.84375 413.203125 285.84375 406.699219 289.992188 402.761719 C 294.140625 398.820312 300.460938 398.820312 304.410156 402.957031 C 306.386719 405.320312 307.175781 408.277344 306.582031 411.234375 L 290.386719 411.234375 C 290.585938 412.808594 291.375 414.386719 292.558594 415.371094 C 293.941406 416.355469 295.523438 416.945312 297.300781 416.945312 C 298.484375 416.945312 299.671875 416.75 300.65625 416.355469 C 301.644531 415.960938 302.632812 415.371094 303.226562 414.582031 Z M 303.421875 408.671875 C 303.421875 407.09375 302.832031 405.519531 301.449219 404.535156 C 300.066406 403.546875 298.484375 402.957031 296.90625 402.957031 C 295.324219 402.957031 293.746094 403.351562 292.363281 404.535156 C 290.980469 405.519531 290.191406 407.09375 289.992188 408.671875 Z M 303.421875 408.671875 "/>
<path style=" stroke:none;fill-rule:nonzero;fill:rgb(100%,100%,100%);fill-opacity:1;" d="M 316.0625 400.59375 L 321.988281 400.59375 L 321.988281 403.351562 L 316.0625 403.351562 L 316.0625 413.398438 C 316.0625 415.765625 317.050781 417.144531 319.023438 417.144531 C 320.011719 417.144531 320.804688 416.945312 321.789062 416.550781 L 322.777344 419.113281 C 321.59375 419.707031 320.40625 419.902344 319.023438 420.097656 C 314.878906 420.097656 312.902344 417.933594 312.902344 413.597656 L 312.902344 403.546875 L 308.953125 403.546875 L 308.953125 400.59375 L 312.902344 400.59375 L 312.902344 395.273438 L 316.0625 394.878906 Z M 316.0625 400.59375 "/>
<path style=" stroke:none;fill-rule:nonzero;fill:rgb(100%,100%,100%);fill-opacity:1;" d="M 327.914062 400.59375 L 333.046875 416.355469 L 338.183594 400.59375 L 340.75 400.59375 L 345.886719 416.355469 L 351.019531 400.59375 L 354.574219 400.59375 L 347.859375 419.707031 L 344.304688 419.707031 L 341.738281 412.613281 L 339.761719 405.714844 L 337.589844 412.613281 L 335.023438 419.707031 L 331.46875 419.707031 L 324.554688 400.59375 Z M 327.914062 400.59375 "/>
<path style=" stroke:none;fill-rule:nonzero;fill:rgb(100%,100%,100%);fill-opacity:1;" d="M 359.511719 402.957031 C 361.488281 400.988281 364.054688 400 366.621094 400.199219 C 371.957031 400 376.300781 404.140625 376.695312 409.261719 C 376.695312 409.65625 376.695312 409.851562 376.695312 410.246094 C 376.695312 412.808594 375.707031 415.566406 373.929688 417.339844 C 371.957031 419.113281 369.386719 420.296875 366.820312 420.097656 C 364.253906 420.097656 361.683594 419.113281 359.710938 417.339844 C 357.734375 415.566406 356.746094 412.808594 356.945312 410.246094 C 356.746094 407.488281 357.734375 404.925781 359.511719 402.957031 Z M 371.558594 404.925781 C 368.796875 402.367188 364.449219 402.367188 361.882812 404.925781 C 360.5 406.308594 359.90625 408.082031 359.90625 410.050781 C 359.90625 411.824219 360.5 413.792969 361.882812 414.976562 C 364.648438 417.539062 368.796875 417.539062 371.558594 414.976562 C 372.941406 413.597656 373.535156 411.824219 373.535156 410.050781 C 373.734375 408.277344 372.941406 406.308594 371.558594 404.925781 Z M 371.558594 404.925781 "/>
<path style=" stroke:none;fill-rule:nonzero;fill:rgb(100%,100%,100%);fill-opacity:1;" d="M 384.398438 400.59375 L 384.59375 403.546875 C 385.78125 401.382812 388.148438 400.199219 390.519531 400.394531 C 392.101562 400.394531 393.679688 400.789062 395.0625 401.773438 L 393.679688 404.535156 C 391.308594 402.957031 388.347656 403.15625 386.371094 405.125 C 385.1875 406.308594 384.59375 407.6875 384.792969 409.261719 L 384.792969 419.902344 L 381.632812 419.902344 L 381.632812 400.59375 Z M 384.398438 400.59375 "/>
<path style=" stroke:none;fill-rule:nonzero;fill:rgb(100%,100%,100%);fill-opacity:1;" d="M 401.183594 408.671875 L 409.085938 400.59375 L 413.035156 400.59375 L 413.035156 400.789062 L 404.148438 409.65625 L 414.023438 419.507812 L 414.023438 419.707031 L 410.074219 419.707031 L 400.988281 410.640625 L 400.988281 419.707031 L 397.828125 419.707031 L 397.828125 392.515625 L 400.988281 392.515625 Z M 401.183594 408.671875 "/>
<path style="fill:none;stroke-width:1;stroke-linecap:round;stroke-linejoin:miter;stroke:rgb(100%,39.99939%,0%);stroke-opacity:1;stroke-miterlimit:4;" d="M 0.500226 0.000437724 L 47.398984 0.000437724 " transform="matrix(0.000000000000000229,-3.737023,3.744596,0.000000000000000229,789.599923,435.677951)"/>
<g style="fill:rgb(100%,100%,100%);fill-opacity:1;">
  <use xlink:href="#glyph0-1" x="817.48371" y="422.381273"/>
</g>
<g style="fill:rgb(100%,100%,100%);fill-opacity:1;">
  <use xlink:href="#glyph0-2" x="859.994287" y="422.381273"/>
</g>
<g style="fill:rgb(100%,100%,100%);fill-opacity:1;">
  <use xlink:href="#glyph0-3" x="891.564426" y="422.381273"/>
</g>
<g style="fill:rgb(100%,100%,100%);fill-opacity:1;">
  <use xlink:href="#glyph0-4" x="906.46204" y="422.381273"/>
</g>
<g style="fill:rgb(100%,100%,100%);fill-opacity:1;">
  <use xlink:href="#glyph0-5" x="950.893011" y="422.381273"/>
</g>
<g style="fill:rgb(100%,100%,100%);fill-opacity:1;">
  <use xlink:href="#glyph0-6" x="981.619347" y="422.381273"/>
</g>
<g style="fill:rgb(100%,100%,100%);fill-opacity:1;">
  <use xlink:href="#glyph0-7" x="1002.481822" y="422.381273"/>
</g>
<g style="fill:rgb(100%,100%,100%);fill-opacity:1;">
  <use xlink:href="#glyph0-8" x="1048.193062" y="422.381273"/>
</g>
<g style="fill:rgb(100%,100%,100%);fill-opacity:1;">
  <use xlink:href="#glyph0-9" x="1081.188953" y="422.381273"/>
</g>
<g style="fill:rgb(100%,100%,100%);fill-opacity:1;">
  <use xlink:href="#glyph0-10" x="1102.371507" y="422.381273"/>
</g>
</g>
</svg>
