<?xml version="1.0" encoding="UTF-8"?>
<svg xmlns="http://www.w3.org/2000/svg" xmlns:xlink="http://www.w3.org/1999/xlink" width="1230pt" height="693.000001pt" viewBox="0 0 1230 693.000001" version="1.2">
<defs>
<g>
<symbol overflow="visible" id="glyph0-0">
<path style="stroke:none;" d="M 7.265625 -33.203125 C 7.753906 -33.628906 8.273438 -34.023438 8.828125 -34.390625 C 9.378906 -34.753906 9.984375 -35.078125 10.640625 -35.359375 C 11.304688 -35.640625 12.019531 -35.863281 12.78125 -36.03125 C 13.550781 -36.195312 14.382812 -36.28125 15.28125 -36.28125 C 16.5 -36.28125 17.609375 -36.109375 18.609375 -35.765625 C 19.609375 -35.429688 20.460938 -34.953125 21.171875 -34.328125 C 21.878906 -33.710938 22.429688 -32.960938 22.828125 -32.078125 C 23.222656 -31.191406 23.421875 -30.207031 23.421875 -29.125 C 23.421875 -28.050781 23.273438 -27.125 22.984375 -26.34375 C 22.691406 -25.570312 22.328125 -24.898438 21.890625 -24.328125 C 21.453125 -23.765625 20.972656 -23.273438 20.453125 -22.859375 C 19.929688 -22.441406 19.4375 -22.046875 18.96875 -21.671875 C 18.5 -21.304688 18.09375 -20.941406 17.75 -20.578125 C 17.414062 -20.222656 17.210938 -19.820312 17.140625 -19.375 L 16.640625 -16.328125 L 13.09375 -16.328125 L 12.75 -19.71875 C 12.664062 -20.382812 12.75 -20.960938 13 -21.453125 C 13.257812 -21.953125 13.601562 -22.410156 14.03125 -22.828125 C 14.46875 -23.242188 14.953125 -23.644531 15.484375 -24.03125 C 16.023438 -24.414062 16.523438 -24.832031 16.984375 -25.28125 C 17.453125 -25.726562 17.84375 -26.234375 18.15625 -26.796875 C 18.46875 -27.359375 18.625 -28.023438 18.625 -28.796875 C 18.625 -29.785156 18.269531 -30.570312 17.5625 -31.15625 C 16.851562 -31.738281 15.945312 -32.03125 14.84375 -32.03125 C 14.039062 -32.03125 13.367188 -31.941406 12.828125 -31.765625 C 12.285156 -31.597656 11.820312 -31.40625 11.4375 -31.1875 C 11.050781 -30.976562 10.71875 -30.785156 10.4375 -30.609375 C 10.164062 -30.429688 9.925781 -30.34375 9.71875 -30.34375 C 9.226562 -30.34375 8.867188 -30.554688 8.640625 -30.984375 Z M 11.515625 -8.5 C 11.515625 -9.40625 11.816406 -10.164062 12.421875 -10.78125 C 13.023438 -11.40625 13.789062 -11.71875 14.71875 -11.71875 C 15.144531 -11.71875 15.550781 -11.632812 15.9375 -11.46875 C 16.332031 -11.3125 16.671875 -11.085938 16.953125 -10.796875 C 17.234375 -10.503906 17.453125 -10.160156 17.609375 -9.765625 C 17.773438 -9.367188 17.859375 -8.945312 17.859375 -8.5 C 17.859375 -8.050781 17.773438 -7.628906 17.609375 -7.234375 C 17.453125 -6.847656 17.234375 -6.507812 16.953125 -6.21875 C 16.671875 -5.9375 16.332031 -5.710938 15.9375 -5.546875 C 15.550781 -5.378906 15.144531 -5.296875 14.71875 -5.296875 C 13.789062 -5.296875 13.023438 -5.597656 12.421875 -6.203125 C 11.816406 -6.816406 11.515625 -7.582031 11.515625 -8.5 Z M 1.3125 -41.6875 L 29.640625 -41.6875 L 29.640625 0 L 1.3125 0 Z M 2.765625 -1.578125 L 27.984375 -1.578125 L 27.984375 -40.09375 L 2.765625 -40.09375 Z M 2.765625 -1.578125 "/>
</symbol>
<symbol overflow="visible" id="glyph0-1">
<path style="stroke:none;" d="M 39.1875 -20.046875 L 39.1875 -4.046875 C 37.09375 -2.535156 34.859375 -1.40625 32.484375 -0.65625 C 30.109375 0.09375 27.503906 0.46875 24.671875 0.46875 C 21.316406 0.46875 18.289062 -0.046875 15.59375 -1.078125 C 12.894531 -2.117188 10.585938 -3.578125 8.671875 -5.453125 C 6.765625 -7.328125 5.296875 -9.570312 4.265625 -12.1875 C 3.242188 -14.8125 2.734375 -17.691406 2.734375 -20.828125 C 2.734375 -24.015625 3.234375 -26.914062 4.234375 -29.53125 C 5.234375 -32.144531 6.65625 -34.390625 8.5 -36.265625 C 10.34375 -38.140625 12.582031 -39.585938 15.21875 -40.609375 C 17.851562 -41.640625 20.800781 -42.15625 24.0625 -42.15625 C 25.707031 -42.15625 27.238281 -42.03125 28.65625 -41.78125 C 30.070312 -41.539062 31.378906 -41.191406 32.578125 -40.734375 C 33.785156 -40.285156 34.898438 -39.734375 35.921875 -39.078125 C 36.953125 -38.429688 37.914062 -37.703125 38.8125 -36.890625 L 37.203125 -34.328125 C 36.953125 -33.941406 36.628906 -33.691406 36.234375 -33.578125 C 35.835938 -33.472656 35.394531 -33.566406 34.90625 -33.859375 C 34.445312 -34.128906 33.914062 -34.457031 33.3125 -34.84375 C 32.707031 -35.238281 31.972656 -35.613281 31.109375 -35.96875 C 30.253906 -36.332031 29.238281 -36.640625 28.0625 -36.890625 C 26.882812 -37.140625 25.492188 -37.265625 23.890625 -37.265625 C 21.535156 -37.265625 19.40625 -36.878906 17.5 -36.109375 C 15.601562 -35.347656 13.984375 -34.253906 12.640625 -32.828125 C 11.304688 -31.398438 10.28125 -29.671875 9.5625 -27.640625 C 8.851562 -25.617188 8.5 -23.347656 8.5 -20.828125 C 8.5 -18.210938 8.867188 -15.867188 9.609375 -13.796875 C 10.359375 -11.734375 11.425781 -9.976562 12.8125 -8.53125 C 14.195312 -7.09375 15.878906 -5.992188 17.859375 -5.234375 C 19.835938 -4.484375 22.0625 -4.109375 24.53125 -4.109375 C 26.46875 -4.109375 28.1875 -4.320312 29.6875 -4.75 C 31.1875 -5.1875 32.65625 -5.796875 34.09375 -6.578125 L 34.09375 -15.734375 L 27.609375 -15.734375 C 27.242188 -15.734375 26.945312 -15.835938 26.71875 -16.046875 C 26.5 -16.265625 26.390625 -16.53125 26.390625 -16.84375 L 26.390625 -20.046875 Z M 39.1875 -20.046875 "/>
</symbol>
<symbol overflow="visible" id="glyph0-2">
<path style="stroke:none;" d="M 26.65625 -35.171875 C 26.476562 -34.878906 26.285156 -34.660156 26.078125 -34.515625 C 25.878906 -34.367188 25.632812 -34.296875 25.34375 -34.296875 C 25.007812 -34.296875 24.617188 -34.460938 24.171875 -34.796875 C 23.722656 -35.128906 23.164062 -35.492188 22.5 -35.890625 C 21.832031 -36.285156 21.023438 -36.644531 20.078125 -36.96875 C 19.140625 -37.300781 18.003906 -37.46875 16.671875 -37.46875 C 15.410156 -37.46875 14.300781 -37.296875 13.34375 -36.953125 C 12.382812 -36.617188 11.578125 -36.160156 10.921875 -35.578125 C 10.273438 -34.992188 9.785156 -34.3125 9.453125 -33.53125 C 9.117188 -32.75 8.953125 -31.898438 8.953125 -30.984375 C 8.953125 -29.816406 9.238281 -28.847656 9.8125 -28.078125 C 10.382812 -27.316406 11.140625 -26.664062 12.078125 -26.125 C 13.023438 -25.582031 14.09375 -25.113281 15.28125 -24.71875 C 16.476562 -24.320312 17.703125 -23.910156 18.953125 -23.484375 C 20.203125 -23.054688 21.421875 -22.570312 22.609375 -22.03125 C 23.804688 -21.5 24.875 -20.828125 25.8125 -20.015625 C 26.757812 -19.203125 27.519531 -18.203125 28.09375 -17.015625 C 28.664062 -15.835938 28.953125 -14.382812 28.953125 -12.65625 C 28.953125 -10.832031 28.640625 -9.117188 28.015625 -7.515625 C 27.398438 -5.921875 26.492188 -4.53125 25.296875 -3.34375 C 24.097656 -2.164062 22.628906 -1.234375 20.890625 -0.546875 C 19.160156 0.128906 17.191406 0.46875 14.984375 0.46875 C 12.265625 0.46875 9.800781 -0.0195312 7.59375 -1 C 5.382812 -1.976562 3.492188 -3.300781 1.921875 -4.96875 L 3.546875 -7.65625 C 3.703125 -7.863281 3.890625 -8.039062 4.109375 -8.1875 C 4.335938 -8.332031 4.585938 -8.40625 4.859375 -8.40625 C 5.109375 -8.40625 5.394531 -8.300781 5.71875 -8.09375 C 6.039062 -7.894531 6.40625 -7.640625 6.8125 -7.328125 C 7.21875 -7.015625 7.679688 -6.675781 8.203125 -6.3125 C 8.722656 -5.945312 9.316406 -5.609375 9.984375 -5.296875 C 10.660156 -4.984375 11.425781 -4.722656 12.28125 -4.515625 C 13.132812 -4.316406 14.09375 -4.21875 15.15625 -4.21875 C 16.5 -4.21875 17.691406 -4.398438 18.734375 -4.765625 C 19.785156 -5.140625 20.671875 -5.660156 21.390625 -6.328125 C 22.117188 -6.992188 22.675781 -7.789062 23.0625 -8.71875 C 23.457031 -9.65625 23.65625 -10.695312 23.65625 -11.84375 C 23.65625 -13.101562 23.367188 -14.132812 22.796875 -14.9375 C 22.222656 -15.738281 21.46875 -16.410156 20.53125 -16.953125 C 19.601562 -17.503906 18.535156 -17.96875 17.328125 -18.34375 C 16.128906 -18.71875 14.910156 -19.101562 13.671875 -19.5 C 12.429688 -19.90625 11.207031 -20.367188 10 -20.890625 C 8.800781 -21.410156 7.734375 -22.085938 6.796875 -22.921875 C 5.867188 -23.753906 5.117188 -24.796875 4.546875 -26.046875 C 3.972656 -27.304688 3.6875 -28.851562 3.6875 -30.6875 C 3.6875 -32.164062 3.972656 -33.59375 4.546875 -34.96875 C 5.117188 -36.34375 5.953125 -37.5625 7.046875 -38.625 C 8.148438 -39.695312 9.5 -40.550781 11.09375 -41.1875 C 12.695312 -41.832031 14.535156 -42.15625 16.609375 -42.15625 C 18.941406 -42.15625 21.0625 -41.785156 22.96875 -41.046875 C 24.875 -40.316406 26.554688 -39.25 28.015625 -37.84375 Z M 26.65625 -35.171875 "/>
</symbol>
<symbol overflow="visible" id="glyph0-3">
<path style="stroke:none;" d=""/>
</symbol>
<symbol overflow="visible" id="glyph0-4">
<path style="stroke:none;" d="M 17.625 -20.078125 C 19.238281 -20.078125 20.660156 -20.289062 21.890625 -20.71875 C 23.117188 -21.144531 24.15625 -21.738281 25 -22.5 C 25.84375 -23.269531 26.476562 -24.1875 26.90625 -25.25 C 27.332031 -26.320312 27.546875 -27.5 27.546875 -28.78125 C 27.546875 -31.4375 26.726562 -33.507812 25.09375 -35 C 23.457031 -36.488281 20.96875 -37.234375 17.625 -37.234375 L 10.9375 -37.234375 L 10.9375 -20.078125 Z M 17.625 -41.6875 C 20.269531 -41.6875 22.566406 -41.378906 24.515625 -40.765625 C 26.460938 -40.160156 28.078125 -39.296875 29.359375 -38.171875 C 30.640625 -37.046875 31.59375 -35.6875 32.21875 -34.09375 C 32.851562 -32.507812 33.171875 -30.738281 33.171875 -28.78125 C 33.171875 -26.832031 32.828125 -25.050781 32.140625 -23.4375 C 31.460938 -21.832031 30.46875 -20.445312 29.15625 -19.28125 C 27.851562 -18.125 26.234375 -17.21875 24.296875 -16.5625 C 22.367188 -15.914062 20.144531 -15.59375 17.625 -15.59375 L 10.9375 -15.59375 L 10.9375 0 L 5.328125 0 L 5.328125 -41.6875 Z M 17.625 -41.6875 "/>
</symbol>
<symbol overflow="visible" id="glyph0-5">
<path style="stroke:none;" d="M 20.078125 -13.265625 C 17.691406 -13.191406 15.660156 -13.003906 13.984375 -12.703125 C 12.304688 -12.398438 10.9375 -12.003906 9.875 -11.515625 C 8.820312 -11.035156 8.054688 -10.460938 7.578125 -9.796875 C 7.097656 -9.140625 6.859375 -8.40625 6.859375 -7.59375 C 6.859375 -6.820312 6.984375 -6.15625 7.234375 -5.59375 C 7.492188 -5.03125 7.84375 -4.566406 8.28125 -4.203125 C 8.71875 -3.847656 9.226562 -3.585938 9.8125 -3.421875 C 10.40625 -3.253906 11.039062 -3.171875 11.71875 -3.171875 C 12.632812 -3.171875 13.46875 -3.257812 14.21875 -3.4375 C 14.976562 -3.625 15.691406 -3.890625 16.359375 -4.234375 C 17.035156 -4.585938 17.675781 -5.003906 18.28125 -5.484375 C 18.894531 -5.972656 19.492188 -6.53125 20.078125 -7.15625 Z M 3.34375 -25.3125 C 4.976562 -26.882812 6.734375 -28.054688 8.609375 -28.828125 C 10.492188 -29.609375 12.578125 -30 14.859375 -30 C 16.515625 -30 17.984375 -29.722656 19.265625 -29.171875 C 20.546875 -28.628906 21.617188 -27.875 22.484375 -26.90625 C 23.359375 -25.9375 24.019531 -24.765625 24.46875 -23.390625 C 24.914062 -22.015625 25.140625 -20.503906 25.140625 -18.859375 L 25.140625 0 L 22.84375 0 C 22.332031 0 21.941406 -0.0820312 21.671875 -0.25 C 21.398438 -0.414062 21.1875 -0.738281 21.03125 -1.21875 L 20.453125 -4.015625 C 19.679688 -3.296875 18.925781 -2.660156 18.1875 -2.109375 C 17.445312 -1.554688 16.671875 -1.085938 15.859375 -0.703125 C 15.046875 -0.328125 14.175781 -0.0390625 13.25 0.15625 C 12.332031 0.363281 11.3125 0.46875 10.1875 0.46875 C 9.039062 0.46875 7.960938 0.304688 6.953125 -0.015625 C 5.941406 -0.335938 5.0625 -0.816406 4.3125 -1.453125 C 3.570312 -2.097656 2.984375 -2.910156 2.546875 -3.890625 C 2.109375 -4.867188 1.890625 -6.023438 1.890625 -7.359375 C 1.890625 -8.523438 2.207031 -9.644531 2.84375 -10.71875 C 3.488281 -11.789062 4.523438 -12.742188 5.953125 -13.578125 C 7.390625 -14.421875 9.265625 -15.109375 11.578125 -15.640625 C 13.890625 -16.171875 16.722656 -16.472656 20.078125 -16.546875 L 20.078125 -18.859375 C 20.078125 -21.140625 19.582031 -22.867188 18.59375 -24.046875 C 17.601562 -25.222656 16.15625 -25.8125 14.25 -25.8125 C 12.96875 -25.8125 11.894531 -25.648438 11.03125 -25.328125 C 10.175781 -25.003906 9.429688 -24.644531 8.796875 -24.25 C 8.171875 -23.851562 7.628906 -23.492188 7.171875 -23.171875 C 6.710938 -22.847656 6.257812 -22.6875 5.8125 -22.6875 C 5.46875 -22.6875 5.164062 -22.78125 4.90625 -22.96875 C 4.65625 -23.15625 4.445312 -23.382812 4.28125 -23.65625 Z M 3.34375 -25.3125 "/>
</symbol>
<symbol overflow="visible" id="glyph0-6">
<path style="stroke:none;" d="M 9.015625 -23.5625 C 9.953125 -25.582031 11.097656 -27.160156 12.453125 -28.296875 C 13.804688 -29.429688 15.460938 -30 17.421875 -30 C 18.046875 -30 18.644531 -29.929688 19.21875 -29.796875 C 19.789062 -29.660156 20.300781 -29.445312 20.75 -29.15625 L 20.359375 -25.28125 C 20.242188 -24.800781 19.957031 -24.5625 19.5 -24.5625 C 19.21875 -24.5625 18.816406 -24.617188 18.296875 -24.734375 C 17.773438 -24.847656 17.1875 -24.90625 16.53125 -24.90625 C 15.59375 -24.90625 14.757812 -24.769531 14.03125 -24.5 C 13.3125 -24.226562 12.664062 -23.820312 12.09375 -23.28125 C 11.519531 -22.75 11.003906 -22.09375 10.546875 -21.3125 C 10.085938 -20.53125 9.675781 -19.632812 9.3125 -18.625 L 9.3125 0 L 4.109375 0 L 4.109375 -29.46875 L 7.0625 -29.46875 C 7.625 -29.46875 8.007812 -29.359375 8.21875 -29.140625 C 8.4375 -28.929688 8.585938 -28.566406 8.671875 -28.046875 Z M 9.015625 -23.5625 "/>
</symbol>
<symbol overflow="visible" id="glyph0-7">
<path style="stroke:none;" d="M 13.15625 0.46875 C 10.820312 0.46875 9.03125 -0.179688 7.78125 -1.484375 C 6.53125 -2.785156 5.90625 -4.65625 5.90625 -7.09375 L 5.90625 -25.140625 L 2.359375 -25.140625 C 2.046875 -25.140625 1.78125 -25.226562 1.5625 -25.40625 C 1.351562 -25.59375 1.25 -25.878906 1.25 -26.265625 L 1.25 -28.34375 L 6.078125 -28.953125 L 7.265625 -38.046875 C 7.328125 -38.335938 7.457031 -38.578125 7.65625 -38.765625 C 7.863281 -38.953125 8.132812 -39.046875 8.46875 -39.046875 L 11.078125 -39.046875 L 11.078125 -28.890625 L 19.609375 -28.890625 L 19.609375 -25.140625 L 11.078125 -25.140625 L 11.078125 -7.453125 C 11.078125 -6.210938 11.378906 -5.289062 11.984375 -4.6875 C 12.585938 -4.082031 13.363281 -3.78125 14.3125 -3.78125 C 14.851562 -3.78125 15.320312 -3.851562 15.71875 -4 C 16.125 -4.144531 16.46875 -4.304688 16.75 -4.484375 C 17.039062 -4.660156 17.289062 -4.816406 17.5 -4.953125 C 17.707031 -5.097656 17.882812 -5.171875 18.03125 -5.171875 C 18.3125 -5.171875 18.554688 -5.007812 18.765625 -4.6875 L 20.28125 -2.21875 C 19.382812 -1.375 18.304688 -0.710938 17.046875 -0.234375 C 15.785156 0.234375 14.488281 0.46875 13.15625 0.46875 Z M 13.15625 0.46875 "/>
</symbol>
<symbol overflow="visible" id="glyph0-8">
<path style="stroke:none;" d="M 8.984375 -25.1875 C 9.628906 -25.90625 10.3125 -26.554688 11.03125 -27.140625 C 11.75 -27.722656 12.507812 -28.222656 13.3125 -28.640625 C 14.113281 -29.054688 14.960938 -29.375 15.859375 -29.59375 C 16.765625 -29.820312 17.742188 -29.9375 18.796875 -29.9375 C 20.398438 -29.9375 21.816406 -29.671875 23.046875 -29.140625 C 24.285156 -28.609375 25.316406 -27.851562 26.140625 -26.875 C 26.960938 -25.894531 27.585938 -24.710938 28.015625 -23.328125 C 28.441406 -21.953125 28.65625 -20.429688 28.65625 -18.765625 L 28.65625 0 L 23.453125 0 L 23.453125 -18.765625 C 23.453125 -20.992188 22.941406 -22.722656 21.921875 -23.953125 C 20.898438 -25.191406 19.351562 -25.8125 17.28125 -25.8125 C 15.75 -25.8125 14.316406 -25.441406 12.984375 -24.703125 C 11.660156 -23.960938 10.4375 -22.960938 9.3125 -21.703125 L 9.3125 0 L 4.109375 0 L 4.109375 -29.46875 L 7.21875 -29.46875 C 7.957031 -29.46875 8.410156 -29.109375 8.578125 -28.390625 Z M 8.984375 -25.1875 "/>
</symbol>
<symbol overflow="visible" id="glyph0-9">
<path style="stroke:none;" d="M 23.828125 -17.953125 C 23.828125 -19.148438 23.65625 -20.25 23.3125 -21.25 C 22.976562 -22.25 22.484375 -23.113281 21.828125 -23.84375 C 21.179688 -24.570312 20.390625 -25.132812 19.453125 -25.53125 C 18.523438 -25.925781 17.472656 -26.125 16.296875 -26.125 C 13.804688 -26.125 11.835938 -25.398438 10.390625 -23.953125 C 8.953125 -22.515625 8.054688 -20.515625 7.703125 -17.953125 Z M 28.015625 -4.125 C 27.378906 -3.351562 26.613281 -2.679688 25.71875 -2.109375 C 24.820312 -1.535156 23.863281 -1.0625 22.84375 -0.6875 C 21.832031 -0.320312 20.78125 -0.0507812 19.6875 0.125 C 18.601562 0.3125 17.53125 0.40625 16.46875 0.40625 C 14.425781 0.40625 12.546875 0.0625 10.828125 -0.625 C 9.117188 -1.3125 7.640625 -2.316406 6.390625 -3.640625 C 5.140625 -4.972656 4.164062 -6.617188 3.46875 -8.578125 C 2.769531 -10.535156 2.421875 -12.785156 2.421875 -15.328125 C 2.421875 -17.390625 2.734375 -19.3125 3.359375 -21.09375 C 3.992188 -22.875 4.898438 -24.421875 6.078125 -25.734375 C 7.265625 -27.046875 8.707031 -28.070312 10.40625 -28.8125 C 12.113281 -29.5625 14.035156 -29.9375 16.171875 -29.9375 C 17.941406 -29.9375 19.578125 -29.640625 21.078125 -29.046875 C 22.578125 -28.453125 23.875 -27.597656 24.96875 -26.484375 C 26.070312 -25.367188 26.929688 -23.992188 27.546875 -22.359375 C 28.171875 -20.722656 28.484375 -18.859375 28.484375 -16.765625 C 28.484375 -15.941406 28.394531 -15.394531 28.21875 -15.125 C 28.039062 -14.851562 27.710938 -14.71875 27.234375 -14.71875 L 7.53125 -14.71875 C 7.59375 -12.851562 7.847656 -11.234375 8.296875 -9.859375 C 8.753906 -8.484375 9.390625 -7.332031 10.203125 -6.40625 C 11.023438 -5.488281 12 -4.800781 13.125 -4.34375 C 14.25 -3.894531 15.507812 -3.671875 16.90625 -3.671875 C 18.207031 -3.671875 19.328125 -3.816406 20.265625 -4.109375 C 21.203125 -4.410156 22.007812 -4.734375 22.6875 -5.078125 C 23.375 -5.429688 23.941406 -5.757812 24.390625 -6.0625 C 24.847656 -6.363281 25.242188 -6.515625 25.578125 -6.515625 C 26.003906 -6.515625 26.332031 -6.347656 26.5625 -6.015625 Z M 28.015625 -4.125 "/>
</symbol>
<symbol overflow="visible" id="glyph0-10">
<path style="stroke:none;" d="M 39.109375 -41.6875 L 39.109375 0 L 36.28125 0 C 35.832031 0 35.457031 -0.078125 35.15625 -0.234375 C 34.851562 -0.390625 34.554688 -0.648438 34.265625 -1.015625 L 10.15625 -32.4375 C 10.195312 -31.957031 10.222656 -31.484375 10.234375 -31.015625 C 10.253906 -30.546875 10.265625 -30.109375 10.265625 -29.703125 L 10.265625 0 L 5.328125 0 L 5.328125 -41.6875 L 8.234375 -41.6875 C 8.484375 -41.6875 8.695312 -41.671875 8.875 -41.640625 C 9.050781 -41.617188 9.207031 -41.570312 9.34375 -41.5 C 9.476562 -41.4375 9.613281 -41.335938 9.75 -41.203125 C 9.882812 -41.078125 10.03125 -40.921875 10.1875 -40.734375 L 34.296875 -9.34375 C 34.265625 -9.84375 34.234375 -10.328125 34.203125 -10.796875 C 34.171875 -11.273438 34.15625 -11.726562 34.15625 -12.15625 L 34.15625 -41.6875 Z M 39.109375 -41.6875 "/>
</symbol>
<symbol overflow="visible" id="glyph0-11">
<path style="stroke:none;" d="M 44.75 -29.46875 L 35.203125 0 L 31.09375 0 C 30.59375 0 30.242188 -0.328125 30.046875 -0.984375 L 23.53125 -20.984375 C 23.375 -21.421875 23.25 -21.867188 23.15625 -22.328125 C 23.0625 -22.785156 22.96875 -23.238281 22.875 -23.6875 C 22.769531 -23.238281 22.671875 -22.785156 22.578125 -22.328125 C 22.484375 -21.867188 22.359375 -21.410156 22.203125 -20.953125 L 15.5625 -0.984375 C 15.382812 -0.328125 15 0 14.40625 0 L 10.5 0 L 0.953125 -29.46875 L 5.03125 -29.46875 C 5.4375 -29.46875 5.78125 -29.359375 6.0625 -29.140625 C 6.34375 -28.929688 6.535156 -28.679688 6.640625 -28.390625 L 12.28125 -9.421875 C 12.601562 -8.023438 12.863281 -6.707031 13.0625 -5.46875 C 13.238281 -6.113281 13.414062 -6.765625 13.59375 -7.421875 C 13.78125 -8.078125 13.984375 -8.742188 14.203125 -9.421875 L 20.421875 -28.515625 C 20.515625 -28.804688 20.679688 -29.046875 20.921875 -29.234375 C 21.171875 -29.429688 21.46875 -29.53125 21.8125 -29.53125 L 24.09375 -29.53125 C 24.476562 -29.53125 24.796875 -29.429688 25.046875 -29.234375 C 25.296875 -29.046875 25.472656 -28.804688 25.578125 -28.515625 L 31.65625 -9.421875 C 31.863281 -8.742188 32.054688 -8.078125 32.234375 -7.421875 C 32.410156 -6.765625 32.578125 -6.113281 32.734375 -5.46875 C 32.828125 -6.113281 32.945312 -6.757812 33.09375 -7.40625 C 33.238281 -8.050781 33.398438 -8.722656 33.578125 -9.421875 L 39.328125 -28.390625 C 39.429688 -28.703125 39.617188 -28.957031 39.890625 -29.15625 C 40.160156 -29.363281 40.476562 -29.46875 40.84375 -29.46875 Z M 44.75 -29.46875 "/>
</symbol>
<symbol overflow="visible" id="glyph0-12">
<path style="stroke:none;" d="M 16.53125 -29.9375 C 18.675781 -29.9375 20.613281 -29.578125 22.34375 -28.859375 C 24.070312 -28.140625 25.546875 -27.117188 26.765625 -25.796875 C 27.984375 -24.484375 28.914062 -22.890625 29.5625 -21.015625 C 30.21875 -19.148438 30.546875 -17.0625 30.546875 -14.75 C 30.546875 -12.425781 30.21875 -10.332031 29.5625 -8.46875 C 28.914062 -6.601562 27.984375 -5.007812 26.765625 -3.6875 C 25.546875 -2.375 24.070312 -1.363281 22.34375 -0.65625 C 20.613281 0.0507812 18.675781 0.40625 16.53125 0.40625 C 14.351562 0.40625 12.394531 0.0507812 10.65625 -0.65625 C 8.925781 -1.363281 7.445312 -2.375 6.21875 -3.6875 C 5 -5.007812 4.0625 -6.601562 3.40625 -8.46875 C 2.757812 -10.332031 2.4375 -12.425781 2.4375 -14.75 C 2.4375 -17.0625 2.757812 -19.148438 3.40625 -21.015625 C 4.0625 -22.890625 5 -24.484375 6.21875 -25.796875 C 7.445312 -27.117188 8.925781 -28.140625 10.65625 -28.859375 C 12.394531 -29.578125 14.351562 -29.9375 16.53125 -29.9375 Z M 16.53125 -3.640625 C 19.4375 -3.640625 21.601562 -4.613281 23.03125 -6.5625 C 24.46875 -8.507812 25.1875 -11.226562 25.1875 -14.71875 C 25.1875 -18.226562 24.46875 -20.960938 23.03125 -22.921875 C 21.601562 -24.878906 19.4375 -25.859375 16.53125 -25.859375 C 15.050781 -25.859375 13.765625 -25.601562 12.671875 -25.09375 C 11.578125 -24.59375 10.664062 -23.867188 9.9375 -22.921875 C 9.207031 -21.972656 8.660156 -20.804688 8.296875 -19.421875 C 7.941406 -18.035156 7.765625 -16.46875 7.765625 -14.71875 C 7.765625 -11.226562 8.488281 -8.507812 9.9375 -6.5625 C 11.382812 -4.613281 13.582031 -3.640625 16.53125 -3.640625 Z M 16.53125 -3.640625 "/>
</symbol>
<symbol overflow="visible" id="glyph0-13">
<path style="stroke:none;" d="M 9.3125 -42.859375 L 9.3125 -17.625 L 10.640625 -17.625 C 11.035156 -17.625 11.363281 -17.675781 11.625 -17.78125 C 11.882812 -17.894531 12.160156 -18.117188 12.453125 -18.453125 L 21.765625 -28.421875 C 22.035156 -28.753906 22.320312 -29.007812 22.625 -29.1875 C 22.925781 -29.375 23.328125 -29.46875 23.828125 -29.46875 L 28.515625 -29.46875 L 17.65625 -17.921875 C 17.132812 -17.265625 16.570312 -16.75 15.96875 -16.375 C 16.320312 -16.144531 16.640625 -15.878906 16.921875 -15.578125 C 17.203125 -15.273438 17.46875 -14.929688 17.71875 -14.546875 L 29.234375 0 L 24.609375 0 C 24.160156 0 23.773438 -0.0703125 23.453125 -0.21875 C 23.140625 -0.363281 22.867188 -0.628906 22.640625 -1.015625 L 12.953125 -13.09375 C 12.660156 -13.5 12.375 -13.765625 12.09375 -13.890625 C 11.8125 -14.015625 11.378906 -14.078125 10.796875 -14.078125 L 9.3125 -14.078125 L 9.3125 0 L 4.109375 0 L 4.109375 -42.859375 Z M 9.3125 -42.859375 "/>
</symbol>
<symbol overflow="visible" id="glyph1-0">
<path style="stroke:none;" d="M 7.78125 -35.484375 C 8.289062 -35.929688 8.84375 -36.351562 9.4375 -36.75 C 10.03125 -37.144531 10.675781 -37.492188 11.375 -37.796875 C 12.082031 -38.097656 12.84375 -38.335938 13.65625 -38.515625 C 14.476562 -38.691406 15.367188 -38.78125 16.328125 -38.78125 C 17.628906 -38.78125 18.8125 -38.597656 19.875 -38.234375 C 20.945312 -37.867188 21.859375 -37.351562 22.609375 -36.6875 C 23.367188 -36.03125 23.960938 -35.226562 24.390625 -34.28125 C 24.816406 -33.332031 25.03125 -32.28125 25.03125 -31.125 C 25.03125 -29.988281 24.875 -29.003906 24.5625 -28.171875 C 24.25 -27.335938 23.859375 -26.613281 23.390625 -26 C 22.929688 -25.394531 22.421875 -24.867188 21.859375 -24.421875 C 21.296875 -23.972656 20.765625 -23.550781 20.265625 -23.15625 C 19.773438 -22.769531 19.347656 -22.382812 18.984375 -22 C 18.617188 -21.613281 18.394531 -21.179688 18.3125 -20.703125 L 17.78125 -17.4375 L 14 -17.4375 L 13.625 -21.078125 C 13.539062 -21.785156 13.628906 -22.398438 13.890625 -22.921875 C 14.160156 -23.453125 14.53125 -23.941406 15 -24.390625 C 15.46875 -24.835938 15.984375 -25.269531 16.546875 -25.6875 C 17.117188 -26.101562 17.65625 -26.546875 18.15625 -27.015625 C 18.65625 -27.492188 19.070312 -28.035156 19.40625 -28.640625 C 19.738281 -29.242188 19.90625 -29.957031 19.90625 -30.78125 C 19.90625 -31.84375 19.523438 -32.679688 18.765625 -33.296875 C 18.003906 -33.921875 17.035156 -34.234375 15.859375 -34.234375 C 15.003906 -34.234375 14.285156 -34.140625 13.703125 -33.953125 C 13.128906 -33.765625 12.632812 -33.554688 12.21875 -33.328125 C 11.800781 -33.097656 11.445312 -32.890625 11.15625 -32.703125 C 10.875 -32.523438 10.617188 -32.4375 10.390625 -32.4375 C 9.867188 -32.4375 9.484375 -32.660156 9.234375 -33.109375 Z M 12.3125 -9.078125 C 12.3125 -10.054688 12.628906 -10.875 13.265625 -11.53125 C 13.910156 -12.195312 14.734375 -12.53125 15.734375 -12.53125 C 16.191406 -12.53125 16.625 -12.441406 17.03125 -12.265625 C 17.445312 -12.085938 17.804688 -11.84375 18.109375 -11.53125 C 18.410156 -11.21875 18.648438 -10.847656 18.828125 -10.421875 C 19.003906 -10.003906 19.09375 -9.554688 19.09375 -9.078125 C 19.09375 -8.597656 19.003906 -8.148438 18.828125 -7.734375 C 18.648438 -7.328125 18.410156 -6.96875 18.109375 -6.65625 C 17.804688 -6.34375 17.445312 -6.097656 17.03125 -5.921875 C 16.625 -5.742188 16.191406 -5.65625 15.734375 -5.65625 C 14.734375 -5.65625 13.910156 -5.984375 13.265625 -6.640625 C 12.628906 -7.296875 12.3125 -8.109375 12.3125 -9.078125 Z M 1.40625 -44.5625 L 31.6875 -44.5625 L 31.6875 0 L 1.40625 0 Z M 2.953125 -1.671875 L 29.90625 -1.671875 L 29.90625 -42.84375 L 2.953125 -42.84375 Z M 2.953125 -1.671875 "/>
</symbol>
<symbol overflow="visible" id="glyph1-1">
<path style="stroke:none;" d="M 52.046875 -44.5625 L 52.046875 0 L 46.765625 0 L 46.765625 -32.734375 C 46.765625 -33.171875 46.78125 -33.640625 46.8125 -34.140625 C 46.84375 -34.640625 46.878906 -35.148438 46.921875 -35.671875 L 31.625 -7.796875 C 31.144531 -6.867188 30.421875 -6.40625 29.453125 -6.40625 L 28.578125 -6.40625 C 27.597656 -6.40625 26.875 -6.867188 26.40625 -7.796875 L 10.796875 -35.78125 C 10.910156 -34.6875 10.96875 -33.671875 10.96875 -32.734375 L 10.96875 0 L 5.6875 0 L 5.6875 -44.5625 L 10.140625 -44.5625 C 10.671875 -44.5625 11.082031 -44.507812 11.375 -44.40625 C 11.664062 -44.300781 11.945312 -44.007812 12.21875 -43.53125 L 27.609375 -16.109375 C 27.859375 -15.609375 28.101562 -15.085938 28.34375 -14.546875 C 28.582031 -14.015625 28.804688 -13.46875 29.015625 -12.90625 C 29.222656 -13.46875 29.4375 -14.019531 29.65625 -14.5625 C 29.882812 -15.113281 30.132812 -15.640625 30.40625 -16.140625 L 45.515625 -43.53125 C 45.765625 -44.007812 46.039062 -44.300781 46.34375 -44.40625 C 46.644531 -44.507812 47.066406 -44.5625 47.609375 -44.5625 Z M 52.046875 -44.5625 "/>
</symbol>
<symbol overflow="visible" id="glyph1-2">
<path style="stroke:none;" d="M 21.453125 -14.171875 C 18.898438 -14.085938 16.726562 -13.882812 14.9375 -13.5625 C 13.144531 -13.25 11.679688 -12.832031 10.546875 -12.3125 C 9.421875 -11.789062 8.601562 -11.175781 8.09375 -10.46875 C 7.59375 -9.769531 7.34375 -8.984375 7.34375 -8.109375 C 7.34375 -7.285156 7.472656 -6.570312 7.734375 -5.96875 C 8.003906 -5.363281 8.375 -4.867188 8.84375 -4.484375 C 9.3125 -4.109375 9.859375 -3.832031 10.484375 -3.65625 C 11.117188 -3.476562 11.800781 -3.390625 12.53125 -3.390625 C 13.507812 -3.390625 14.398438 -3.488281 15.203125 -3.6875 C 16.015625 -3.882812 16.773438 -4.164062 17.484375 -4.53125 C 18.203125 -4.90625 18.882812 -5.351562 19.53125 -5.875 C 20.1875 -6.394531 20.828125 -6.988281 21.453125 -7.65625 Z M 3.578125 -27.046875 C 5.316406 -28.722656 7.191406 -29.976562 9.203125 -30.8125 C 11.210938 -31.644531 13.441406 -32.0625 15.890625 -32.0625 C 17.648438 -32.0625 19.210938 -31.769531 20.578125 -31.1875 C 21.953125 -30.601562 23.101562 -29.789062 24.03125 -28.75 C 24.96875 -27.71875 25.671875 -26.46875 26.140625 -25 C 26.617188 -23.53125 26.859375 -21.914062 26.859375 -20.15625 L 26.859375 0 L 24.40625 0 C 23.863281 0 23.445312 -0.0859375 23.15625 -0.265625 C 22.875 -0.441406 22.648438 -0.789062 22.484375 -1.3125 L 21.859375 -4.296875 C 21.023438 -3.523438 20.210938 -2.84375 19.421875 -2.25 C 18.640625 -1.664062 17.8125 -1.171875 16.9375 -0.765625 C 16.070312 -0.359375 15.144531 -0.046875 14.15625 0.171875 C 13.175781 0.390625 12.085938 0.5 10.890625 0.5 C 9.660156 0.5 8.503906 0.328125 7.421875 -0.015625 C 6.347656 -0.359375 5.410156 -0.867188 4.609375 -1.546875 C 3.816406 -2.234375 3.1875 -3.097656 2.71875 -4.140625 C 2.25 -5.191406 2.015625 -6.429688 2.015625 -7.859375 C 2.015625 -9.109375 2.359375 -10.304688 3.046875 -11.453125 C 3.734375 -12.609375 4.84375 -13.628906 6.375 -14.515625 C 7.90625 -15.410156 9.90625 -16.140625 12.375 -16.703125 C 14.84375 -17.273438 17.867188 -17.601562 21.453125 -17.6875 L 21.453125 -20.15625 C 21.453125 -22.59375 20.921875 -24.4375 19.859375 -25.6875 C 18.804688 -26.945312 17.265625 -27.578125 15.234375 -27.578125 C 13.867188 -27.578125 12.722656 -27.40625 11.796875 -27.0625 C 10.878906 -26.71875 10.082031 -26.332031 9.40625 -25.90625 C 8.726562 -25.488281 8.144531 -25.109375 7.65625 -24.765625 C 7.175781 -24.421875 6.695312 -24.25 6.21875 -24.25 C 5.84375 -24.25 5.519531 -24.347656 5.25 -24.546875 C 4.976562 -24.742188 4.753906 -24.988281 4.578125 -25.28125 Z M 3.578125 -27.046875 "/>
</symbol>
<symbol overflow="visible" id="glyph1-3">
<path style="stroke:none;" d="M 9.640625 -25.1875 C 10.628906 -27.34375 11.847656 -29.023438 13.296875 -30.234375 C 14.753906 -31.453125 16.53125 -32.0625 18.625 -32.0625 C 19.289062 -32.0625 19.925781 -31.988281 20.53125 -31.84375 C 21.144531 -31.695312 21.691406 -31.46875 22.171875 -31.15625 L 21.765625 -27.015625 C 21.640625 -26.503906 21.328125 -26.25 20.828125 -26.25 C 20.535156 -26.25 20.109375 -26.304688 19.546875 -26.421875 C 18.992188 -26.546875 18.363281 -26.609375 17.65625 -26.609375 C 16.664062 -26.609375 15.78125 -26.460938 15 -26.171875 C 14.226562 -25.890625 13.535156 -25.460938 12.921875 -24.890625 C 12.304688 -24.316406 11.753906 -23.609375 11.265625 -22.765625 C 10.785156 -21.929688 10.347656 -20.976562 9.953125 -19.90625 L 9.953125 0 L 4.390625 0 L 4.390625 -31.5 L 7.5625 -31.5 C 8.15625 -31.5 8.566406 -31.382812 8.796875 -31.15625 C 9.023438 -30.925781 9.179688 -30.53125 9.265625 -29.96875 Z M 9.640625 -25.1875 "/>
</symbol>
<symbol overflow="visible" id="glyph1-4">
<path style="stroke:none;" d="M 9.953125 -45.796875 L 9.953125 -18.84375 L 11.375 -18.84375 C 11.789062 -18.84375 12.140625 -18.898438 12.421875 -19.015625 C 12.703125 -19.128906 13 -19.363281 13.3125 -19.71875 L 23.265625 -30.375 C 23.546875 -30.726562 23.847656 -31.003906 24.171875 -31.203125 C 24.492188 -31.398438 24.925781 -31.5 25.46875 -31.5 L 30.46875 -31.5 L 18.875 -19.15625 C 18.3125 -18.445312 17.710938 -17.894531 17.078125 -17.5 C 17.441406 -17.25 17.773438 -16.960938 18.078125 -16.640625 C 18.378906 -16.328125 18.664062 -15.960938 18.9375 -15.546875 L 31.25 0 L 26.3125 0 C 25.832031 0 25.421875 -0.078125 25.078125 -0.234375 C 24.734375 -0.390625 24.4375 -0.675781 24.1875 -1.09375 L 13.84375 -14 C 13.53125 -14.425781 13.222656 -14.707031 12.921875 -14.84375 C 12.617188 -14.976562 12.15625 -15.046875 11.53125 -15.046875 L 9.953125 -15.046875 L 9.953125 0 L 4.390625 0 L 4.390625 -45.796875 Z M 9.953125 -45.796875 "/>
</symbol>
<symbol overflow="visible" id="glyph1-5">
<path style="stroke:none;" d="M 25.46875 -19.1875 C 25.46875 -20.46875 25.285156 -21.640625 24.921875 -22.703125 C 24.554688 -23.773438 24.023438 -24.695312 23.328125 -25.46875 C 22.640625 -26.25 21.796875 -26.851562 20.796875 -27.28125 C 19.804688 -27.707031 18.675781 -27.921875 17.40625 -27.921875 C 14.757812 -27.921875 12.660156 -27.148438 11.109375 -25.609375 C 9.566406 -24.066406 8.609375 -21.925781 8.234375 -19.1875 Z M 29.9375 -4.421875 C 29.257812 -3.585938 28.441406 -2.863281 27.484375 -2.25 C 26.535156 -1.644531 25.515625 -1.144531 24.421875 -0.75 C 23.335938 -0.351562 22.210938 -0.0546875 21.046875 0.140625 C 19.890625 0.335938 18.738281 0.4375 17.59375 0.4375 C 15.414062 0.4375 13.410156 0.0703125 11.578125 -0.65625 C 9.742188 -1.394531 8.15625 -2.472656 6.8125 -3.890625 C 5.476562 -5.316406 4.4375 -7.078125 3.6875 -9.171875 C 2.945312 -11.265625 2.578125 -13.671875 2.578125 -16.390625 C 2.578125 -18.585938 2.914062 -20.640625 3.59375 -22.546875 C 4.269531 -24.453125 5.238281 -26.101562 6.5 -27.5 C 7.757812 -28.894531 9.300781 -29.992188 11.125 -30.796875 C 12.957031 -31.597656 15.007812 -32 17.28125 -32 C 19.175781 -32 20.925781 -31.679688 22.53125 -31.046875 C 24.132812 -30.410156 25.519531 -29.492188 26.6875 -28.296875 C 27.863281 -27.109375 28.78125 -25.640625 29.4375 -23.890625 C 30.101562 -22.140625 30.4375 -20.144531 30.4375 -17.90625 C 30.4375 -17.039062 30.34375 -16.460938 30.15625 -16.171875 C 29.96875 -15.878906 29.617188 -15.734375 29.109375 -15.734375 L 8.046875 -15.734375 C 8.109375 -13.742188 8.382812 -12.007812 8.875 -10.53125 C 9.363281 -9.0625 10.039062 -7.832031 10.90625 -6.84375 C 11.78125 -5.863281 12.816406 -5.128906 14.015625 -4.640625 C 15.222656 -4.160156 16.570312 -3.921875 18.0625 -3.921875 C 19.457031 -3.921875 20.65625 -4.078125 21.65625 -4.390625 C 22.664062 -4.710938 23.53125 -5.0625 24.25 -5.4375 C 24.976562 -5.8125 25.582031 -6.160156 26.0625 -6.484375 C 26.550781 -6.804688 26.972656 -6.96875 27.328125 -6.96875 C 27.785156 -6.96875 28.140625 -6.789062 28.390625 -6.4375 Z M 29.9375 -4.421875 "/>
</symbol>
<symbol overflow="visible" id="glyph1-6">
<path style="stroke:none;" d="M 14.046875 0.5 C 11.566406 0.5 9.65625 -0.191406 8.3125 -1.578125 C 6.976562 -2.972656 6.3125 -4.976562 6.3125 -7.59375 L 6.3125 -26.859375 L 2.515625 -26.859375 C 2.179688 -26.859375 1.898438 -26.957031 1.671875 -27.15625 C 1.453125 -27.351562 1.34375 -27.660156 1.34375 -28.078125 L 1.34375 -30.28125 L 6.5 -30.9375 L 7.78125 -40.671875 C 7.832031 -40.984375 7.96875 -41.238281 8.1875 -41.4375 C 8.40625 -41.632812 8.691406 -41.734375 9.046875 -41.734375 L 11.84375 -41.734375 L 11.84375 -30.875 L 20.953125 -30.875 L 20.953125 -26.859375 L 11.84375 -26.859375 L 11.84375 -7.953125 C 11.84375 -6.628906 12.164062 -5.644531 12.8125 -5 C 13.457031 -4.363281 14.285156 -4.046875 15.296875 -4.046875 C 15.878906 -4.046875 16.378906 -4.125 16.796875 -4.28125 C 17.222656 -4.4375 17.59375 -4.601562 17.90625 -4.78125 C 18.21875 -4.96875 18.484375 -5.140625 18.703125 -5.296875 C 18.921875 -5.453125 19.113281 -5.53125 19.28125 -5.53125 C 19.570312 -5.53125 19.832031 -5.351562 20.0625 -5 L 21.671875 -2.359375 C 20.710938 -1.472656 19.5625 -0.773438 18.21875 -0.265625 C 16.875 0.242188 15.484375 0.5 14.046875 0.5 Z M 14.046875 0.5 "/>
</symbol>
<symbol overflow="visible" id="glyph1-7">
<path style="stroke:none;" d="M 10.234375 -31.5 L 10.234375 0 L 4.6875 0 L 4.6875 -31.5 Z M 11.40625 -41.390625 C 11.40625 -40.847656 11.296875 -40.34375 11.078125 -39.875 C 10.867188 -39.40625 10.582031 -38.988281 10.21875 -38.625 C 9.851562 -38.269531 9.425781 -37.988281 8.9375 -37.78125 C 8.445312 -37.570312 7.9375 -37.46875 7.40625 -37.46875 C 6.863281 -37.46875 6.359375 -37.570312 5.890625 -37.78125 C 5.421875 -37.988281 5.007812 -38.269531 4.65625 -38.625 C 4.3125 -38.988281 4.035156 -39.40625 3.828125 -39.875 C 3.617188 -40.34375 3.515625 -40.847656 3.515625 -41.390625 C 3.515625 -41.921875 3.617188 -42.429688 3.828125 -42.921875 C 4.035156 -43.410156 4.3125 -43.835938 4.65625 -44.203125 C 5.007812 -44.566406 5.421875 -44.847656 5.890625 -45.046875 C 6.359375 -45.253906 6.863281 -45.359375 7.40625 -45.359375 C 7.9375 -45.359375 8.445312 -45.253906 8.9375 -45.046875 C 9.425781 -44.847656 9.851562 -44.566406 10.21875 -44.203125 C 10.582031 -43.835938 10.867188 -43.410156 11.078125 -42.921875 C 11.296875 -42.429688 11.40625 -41.921875 11.40625 -41.390625 Z M 11.40625 -41.390625 "/>
</symbol>
<symbol overflow="visible" id="glyph1-8">
<path style="stroke:none;" d="M 9.609375 -26.921875 C 10.296875 -27.691406 11.019531 -28.382812 11.78125 -29 C 12.550781 -29.625 13.363281 -30.160156 14.21875 -30.609375 C 15.082031 -31.054688 15.992188 -31.398438 16.953125 -31.640625 C 17.921875 -31.878906 18.96875 -32 20.09375 -32 C 21.8125 -32 23.328125 -31.710938 24.640625 -31.140625 C 25.953125 -30.566406 27.050781 -29.753906 27.9375 -28.703125 C 28.820312 -27.660156 29.488281 -26.40625 29.9375 -24.9375 C 30.394531 -23.46875 30.625 -21.84375 30.625 -20.0625 L 30.625 0 L 25.0625 0 L 25.0625 -20.0625 C 25.0625 -22.4375 24.515625 -24.28125 23.421875 -25.59375 C 22.335938 -26.914062 20.6875 -27.578125 18.46875 -27.578125 C 16.832031 -27.578125 15.300781 -27.179688 13.875 -26.390625 C 12.457031 -25.609375 11.148438 -24.546875 9.953125 -23.203125 L 9.953125 0 L 4.390625 0 L 4.390625 -31.5 L 7.71875 -31.5 C 8.5 -31.5 8.984375 -31.113281 9.171875 -30.34375 Z M 9.609375 -26.921875 "/>
</symbol>
<symbol overflow="visible" id="glyph1-9">
<path style="stroke:none;" d="M 15.359375 -15.390625 C 16.484375 -15.390625 17.46875 -15.546875 18.3125 -15.859375 C 19.164062 -16.171875 19.878906 -16.601562 20.453125 -17.15625 C 21.035156 -17.71875 21.472656 -18.382812 21.765625 -19.15625 C 22.054688 -19.9375 22.203125 -20.796875 22.203125 -21.734375 C 22.203125 -23.660156 21.613281 -25.191406 20.4375 -26.328125 C 19.269531 -27.472656 17.578125 -28.046875 15.359375 -28.046875 C 13.117188 -28.046875 11.410156 -27.472656 10.234375 -26.328125 C 9.066406 -25.191406 8.484375 -23.660156 8.484375 -21.734375 C 8.484375 -20.796875 8.632812 -19.9375 8.9375 -19.15625 C 9.238281 -18.382812 9.675781 -17.71875 10.25 -17.15625 C 10.832031 -16.601562 11.550781 -16.171875 12.40625 -15.859375 C 13.257812 -15.546875 14.242188 -15.390625 15.359375 -15.390625 Z M 25.34375 1.703125 C 25.34375 0.941406 25.125 0.320312 24.6875 -0.15625 C 24.25 -0.632812 23.660156 -1.003906 22.921875 -1.265625 C 22.191406 -1.535156 21.335938 -1.726562 20.359375 -1.84375 C 19.390625 -1.957031 18.359375 -2.046875 17.265625 -2.109375 C 16.179688 -2.171875 15.078125 -2.234375 13.953125 -2.296875 C 12.835938 -2.359375 11.765625 -2.460938 10.734375 -2.609375 C 9.566406 -2.066406 8.613281 -1.382812 7.875 -0.5625 C 7.144531 0.25 6.78125 1.203125 6.78125 2.296875 C 6.78125 3.003906 6.957031 3.660156 7.3125 4.265625 C 7.675781 4.878906 8.234375 5.410156 8.984375 5.859375 C 9.734375 6.304688 10.671875 6.660156 11.796875 6.921875 C 12.929688 7.179688 14.265625 7.3125 15.796875 7.3125 C 17.285156 7.3125 18.617188 7.175781 19.796875 6.90625 C 20.984375 6.632812 21.984375 6.25 22.796875 5.75 C 23.617188 5.25 24.25 4.65625 24.6875 3.96875 C 25.125 3.289062 25.34375 2.535156 25.34375 1.703125 Z M 30.96875 -30.25 L 30.96875 -28.203125 C 30.96875 -27.515625 30.53125 -27.078125 29.65625 -26.890625 L 26.09375 -26.4375 C 26.789062 -25.0625 27.140625 -23.546875 27.140625 -21.890625 C 27.140625 -20.359375 26.84375 -18.960938 26.25 -17.703125 C 25.664062 -16.453125 24.851562 -15.378906 23.8125 -14.484375 C 22.78125 -13.597656 21.535156 -12.914062 20.078125 -12.4375 C 18.628906 -11.957031 17.054688 -11.71875 15.359375 -11.71875 C 13.890625 -11.71875 12.5 -11.894531 11.1875 -12.25 C 10.53125 -11.832031 10.023438 -11.390625 9.671875 -10.921875 C 9.316406 -10.460938 9.140625 -9.992188 9.140625 -9.515625 C 9.140625 -8.765625 9.441406 -8.195312 10.046875 -7.8125 C 10.660156 -7.4375 11.46875 -7.164062 12.46875 -7 C 13.46875 -6.832031 14.601562 -6.726562 15.875 -6.6875 C 17.144531 -6.644531 18.445312 -6.578125 19.78125 -6.484375 C 21.125 -6.390625 22.429688 -6.226562 23.703125 -6 C 24.984375 -5.769531 26.117188 -5.394531 27.109375 -4.875 C 28.109375 -4.363281 28.910156 -3.648438 29.515625 -2.734375 C 30.128906 -1.828125 30.4375 -0.644531 30.4375 0.8125 C 30.4375 2.15625 30.097656 3.457031 29.421875 4.71875 C 28.753906 5.988281 27.785156 7.113281 26.515625 8.09375 C 25.253906 9.082031 23.707031 9.867188 21.875 10.453125 C 20.039062 11.046875 17.972656 11.34375 15.671875 11.34375 C 13.367188 11.34375 11.359375 11.113281 9.640625 10.65625 C 7.921875 10.207031 6.488281 9.597656 5.34375 8.828125 C 4.207031 8.066406 3.351562 7.179688 2.78125 6.171875 C 2.207031 5.171875 1.921875 4.117188 1.921875 3.015625 C 1.921875 1.460938 2.40625 0.148438 3.375 -0.921875 C 4.351562 -2.003906 5.695312 -2.867188 7.40625 -3.515625 C 6.46875 -3.929688 5.722656 -4.484375 5.171875 -5.171875 C 4.628906 -5.867188 4.359375 -6.804688 4.359375 -7.984375 C 4.359375 -8.441406 4.4375 -8.914062 4.59375 -9.40625 C 4.757812 -9.894531 5.015625 -10.378906 5.359375 -10.859375 C 5.703125 -11.347656 6.125 -11.8125 6.625 -12.25 C 7.125 -12.6875 7.703125 -13.070312 8.359375 -13.40625 C 6.804688 -14.269531 5.59375 -15.421875 4.71875 -16.859375 C 3.851562 -18.304688 3.421875 -19.984375 3.421875 -21.890625 C 3.421875 -23.421875 3.710938 -24.8125 4.296875 -26.0625 C 4.890625 -27.320312 5.710938 -28.390625 6.765625 -29.265625 C 7.828125 -30.148438 9.085938 -30.832031 10.546875 -31.3125 C 12.015625 -31.789062 13.617188 -32.03125 15.359375 -32.03125 C 16.722656 -32.03125 17.992188 -31.878906 19.171875 -31.578125 C 20.359375 -31.273438 21.441406 -30.832031 22.421875 -30.25 Z M 30.96875 -30.25 "/>
</symbol>
<symbol overflow="visible" id="glyph1-10">
<path style="stroke:none;" d=""/>
</symbol>
<symbol overflow="visible" id="glyph1-11">
<path style="stroke:none;" d="M 18.84375 -21.453125 C 20.5625 -21.453125 22.078125 -21.679688 23.390625 -22.140625 C 24.710938 -22.597656 25.820312 -23.234375 26.71875 -24.046875 C 27.625 -24.867188 28.304688 -25.847656 28.765625 -26.984375 C 29.222656 -28.128906 29.453125 -29.382812 29.453125 -30.75 C 29.453125 -33.59375 28.570312 -35.8125 26.8125 -37.40625 C 25.0625 -39 22.40625 -39.796875 18.84375 -39.796875 L 11.6875 -39.796875 L 11.6875 -21.453125 Z M 18.84375 -44.5625 C 21.664062 -44.5625 24.117188 -44.234375 26.203125 -43.578125 C 28.285156 -42.921875 30.007812 -41.988281 31.375 -40.78125 C 32.738281 -39.582031 33.757812 -38.132812 34.4375 -36.4375 C 35.113281 -34.738281 35.453125 -32.84375 35.453125 -30.75 C 35.453125 -28.675781 35.085938 -26.78125 34.359375 -25.0625 C 33.628906 -23.34375 32.566406 -21.859375 31.171875 -20.609375 C 29.773438 -19.367188 28.046875 -18.398438 25.984375 -17.703125 C 23.921875 -17.015625 21.539062 -16.671875 18.84375 -16.671875 L 11.6875 -16.671875 L 11.6875 0 L 5.6875 0 L 5.6875 -44.5625 Z M 18.84375 -44.5625 "/>
</symbol>
</g>
<filter id="alpha" filterUnits="objectBoundingBox" x="0%" y="0%" width="100%" height="100%">
  <feColorMatrix type="matrix" in="SourceGraphic" values="0 0 0 0 1 0 0 0 0 1 0 0 0 0 1 0 0 0 1 0"/>
</filter>
<mask id="mask0">
  <g filter="url(#alpha)">
<rect x="0" y="0" width="1230" height="693.000001" style="fill:rgb(0%,0%,0%);fill-opacity:0.8588;stroke:none;"/>
  </g>
</mask>
<clipPath id="clip2">
  <path d="M 1 0.535156 L 1091.8125 0.535156 L 1091.8125 382 L 1 382 Z M 1 0.535156 "/>
</clipPath>
<clipPath id="clip1">
  <rect x="0" y="0" width="1092" height="383"/>
</clipPath>
<g id="surface5" clip-path="url(#clip1)">
<g clip-path="url(#clip2)" clip-rule="nonzero">
<path style=" stroke:none;fill-rule:nonzero;fill:rgb(13.729858%,12.159729%,12.548828%);fill-opacity:1;" d="M 104.164062 0.699219 L 104.164062 381.621094 C 105.277344 381.699219 106.394531 381.699219 107.511719 381.699219 L 984.1875 381.699219 L 984.1875 0.699219 Z M 1012.882812 0.699219 L 984.1875 0.699219 L 984.1875 381.621094 L 984.824219 381.621094 C 1031.21875 381.621094 1071.953125 343.734375 1075.300781 297.476562 L 1091.003906 84.765625 C 1094.429688 38.585938 1059.277344 0.699219 1012.882812 0.699219 Z M 79.453125 0.699219 C 33.058594 0.699219 -2.09375 38.585938 1.332031 84.84375 L 17.035156 297.554688 C 20.382812 342.699219 59.285156 379.863281 104.242188 381.621094 L 104.242188 0.699219 Z M 79.453125 0.699219 "/>
</g>
</g>
<clipPath id="clip3">
  <path d="M 636 285 L 740 285 L 740 366.429688 L 636 366.429688 Z M 636 285 "/>
</clipPath>
<clipPath id="clip4">
  <path d="M 498 293 L 595 293 L 595 366.429688 L 498 366.429688 Z M 498 293 "/>
</clipPath>
<clipPath id="clip5">
  <path d="M 525 209.90625 L 666 209.90625 L 666 350 L 525 350 Z M 525 209.90625 "/>
</clipPath>
</defs>
<g id="surface1">
<use xlink:href="#surface5" transform="matrix(1,0,0,1,69,155)" mask="url(#mask0)"/>
<path style=" stroke:none;fill-rule:nonzero;fill:rgb(100%,39.99939%,0%);fill-opacity:1;" d="M 185.238281 294.109375 C 185.238281 297.589844 184.625 301.277344 183.390625 304.558594 C 182.160156 307.628906 180.3125 310.292969 178.050781 312.753906 C 175.792969 315.007812 172.917969 316.851562 169.835938 318.285156 C 166.550781 319.71875 163.0625 320.332031 159.570312 320.332031 C 155.871094 320.332031 152.382812 319.71875 148.890625 318.285156 C 142.523438 315.824219 137.390625 310.703125 134.71875 304.558594 C 133.28125 301.277344 132.667969 297.796875 132.667969 294.3125 C 132.667969 287.347656 135.335938 280.585938 140.46875 275.671875 C 142.933594 273.210938 145.808594 271.367188 148.890625 270.136719 C 152.175781 268.703125 155.871094 268.089844 159.363281 268.089844 C 163.472656 268.089844 167.578125 268.910156 171.273438 270.546875 C 174.765625 272.1875 178.050781 274.441406 180.515625 277.515625 L 173.125 284.273438 C 171.480469 282.226562 169.425781 280.585938 166.960938 279.359375 C 164.5 278.128906 162.035156 277.71875 159.363281 277.71875 C 152.792969 277.71875 146.835938 281.609375 144.578125 287.757812 C 142.933594 292.058594 142.933594 296.773438 144.578125 300.871094 C 145.398438 302.917969 146.425781 304.558594 148.070312 306.195312 C 149.507812 307.628906 151.355469 308.859375 153.203125 309.679688 C 155.257812 310.5 157.515625 310.910156 159.570312 310.910156 C 162.855469 310.910156 166.140625 309.882812 168.8125 307.835938 C 171.273438 305.992188 173.125 303.328125 173.535156 300.253906 L 158.542969 300.253906 L 158.542969 291.035156 L 184.828125 291.035156 Z M 185.238281 294.109375 "/>
<path style=" stroke:none;fill-rule:nonzero;fill:rgb(100%,39.99939%,0%);fill-opacity:1;" d="M 188.117188 311.316406 L 194.070312 303.738281 C 196.535156 305.992188 199.410156 307.835938 202.695312 309.269531 C 205.367188 310.5 208.445312 311.113281 211.320312 311.113281 C 213.992188 311.316406 216.660156 310.703125 218.921875 309.472656 C 220.5625 308.65625 221.796875 306.8125 221.796875 304.761719 C 221.796875 303.125 221.179688 301.6875 219.945312 300.664062 C 218.097656 299.433594 215.839844 298.617188 213.582031 298.410156 L 203.519531 296.773438 C 199.820312 296.363281 196.328125 294.722656 193.660156 292.265625 C 191.402344 289.804688 190.167969 286.527344 190.167969 283.25 C 189.964844 278.742188 192.015625 274.644531 195.507812 271.980469 C 199.820312 269.113281 204.957031 267.679688 210.089844 267.882812 C 213.785156 267.882812 217.6875 268.5 221.179688 269.730469 C 224.671875 270.957031 228.160156 272.597656 231.035156 274.851562 L 225.285156 282.636719 C 222.820312 280.792969 220.152344 279.152344 217.277344 278.128906 C 214.605469 277.105469 211.9375 276.695312 209.269531 276.695312 C 207.007812 276.488281 204.542969 277.105469 202.492188 278.332031 C 201.054688 279.152344 200.027344 280.792969 200.027344 282.429688 C 200.027344 283.863281 200.640625 285.09375 201.667969 286.117188 C 203.3125 287.144531 205.367188 287.757812 207.214844 287.960938 L 216.867188 289.601562 C 220.972656 290.011719 225.082031 291.648438 228.160156 294.3125 C 230.832031 296.773438 232.0625 300.253906 232.0625 303.738281 C 232.269531 308.449219 230.007812 312.753906 226.3125 315.621094 C 221.796875 318.695312 216.25 320.332031 210.707031 320.128906 C 206.597656 320.128906 202.492188 319.308594 198.589844 317.875 C 194.6875 316.234375 191.195312 314.1875 188.117188 311.316406 Z M 188.117188 311.316406 "/>
<path style=" stroke:none;fill-rule:nonzero;fill:rgb(100%,39.99939%,0%);fill-opacity:1;" d="M 265.742188 315.007812 C 268.824219 315.007812 271.902344 314.390625 274.777344 313.160156 C 277.449219 311.933594 279.914062 310.292969 281.96875 308.039062 L 285.664062 311.726562 C 283.199219 314.390625 280.117188 316.441406 276.628906 317.875 C 273.136719 319.308594 269.441406 320.128906 265.742188 320.128906 C 258.761719 320.128906 251.984375 317.464844 247.054688 312.546875 C 244.589844 310.089844 242.742188 307.425781 241.511719 304.148438 C 238.839844 297.589844 238.839844 290.214844 241.511719 283.660156 C 242.742188 280.585938 244.796875 277.71875 247.054688 275.261719 C 249.519531 272.800781 252.394531 270.957031 255.476562 269.730469 C 258.761719 268.292969 262.253906 267.679688 265.742188 267.679688 C 269.644531 267.679688 273.339844 268.5 276.832031 269.933594 C 280.324219 271.367188 283.199219 273.417969 285.867188 276.078125 L 282.171875 279.972656 C 280.117188 277.71875 277.65625 275.875 274.777344 274.851562 C 271.902344 273.621094 268.824219 273.007812 265.742188 273.007812 C 262.867188 273.007812 260.199219 273.621094 257.527344 274.644531 C 252.601562 276.695312 248.699219 280.792969 246.644531 285.707031 C 244.589844 291.035156 244.589844 296.976562 246.644531 302.304688 C 247.671875 304.761719 249.109375 307.015625 250.957031 308.859375 C 254.859375 312.957031 260.199219 315.210938 265.742188 315.007812 Z M 265.742188 315.007812 "/>
<path style=" stroke:none;fill-rule:nonzero;fill:rgb(100%,39.99939%,0%);fill-opacity:1;" d="M 298.601562 267.476562 L 298.601562 319.511719 L 293.058594 319.511719 L 293.058594 268.703125 Z M 298.601562 267.476562 "/>
<path style=" stroke:none;fill-rule:nonzero;fill:rgb(100%,39.99939%,0%);fill-opacity:1;" d="M 305.996094 301.277344 C 305.996094 296.363281 307.84375 291.445312 311.335938 287.757812 C 318.523438 280.585938 330.226562 280.382812 337.414062 287.550781 C 337.414062 287.550781 337.621094 287.757812 337.621094 287.757812 C 339.265625 289.601562 340.703125 291.648438 341.523438 293.902344 C 344.398438 301.074219 342.960938 309.269531 337.621094 314.800781 C 335.976562 316.441406 333.925781 317.875 331.664062 318.695312 C 327.148438 320.539062 321.808594 320.539062 317.289062 318.695312 C 315.03125 317.667969 312.976562 316.441406 311.335938 314.800781 C 308.046875 311.113281 305.996094 306.402344 305.996094 301.277344 Z M 324.476562 315.414062 C 326.324219 315.414062 327.96875 315.007812 329.613281 314.390625 C 331.253906 313.570312 332.488281 312.546875 333.71875 311.316406 C 334.949219 310.089844 335.773438 308.449219 336.59375 306.8125 C 338.03125 303.328125 338.03125 299.230469 336.59375 295.746094 C 335.976562 294.109375 334.949219 292.675781 333.71875 291.242188 C 332.488281 290.011719 331.253906 288.988281 329.613281 288.167969 C 326.324219 286.734375 322.628906 286.734375 319.136719 288.167969 C 317.496094 288.78125 316.261719 289.804688 315.03125 291.242188 C 313.796875 292.46875 312.773438 294.109375 312.15625 295.746094 C 311.539062 297.589844 311.128906 299.433594 311.128906 301.277344 C 311.128906 303.125 311.539062 304.96875 312.15625 306.8125 C 312.773438 308.449219 313.796875 310.089844 315.03125 311.316406 C 316.261719 312.546875 317.699219 313.570312 319.34375 314.390625 C 320.984375 315.007812 322.835938 315.414062 324.476562 315.414062 Z M 324.476562 315.414062 "/>
<path style=" stroke:none;fill-rule:nonzero;fill:rgb(100%,39.99939%,0%);fill-opacity:1;" d="M 355.691406 283.046875 L 355.691406 304.96875 C 355.488281 307.835938 356.515625 310.5 358.363281 312.546875 C 360.417969 314.390625 363.085938 315.414062 365.757812 315.414062 C 369.863281 315.414062 373.765625 313.367188 375.820312 309.679688 L 375.820312 283.046875 L 381.363281 283.046875 L 381.363281 319.308594 L 376.023438 319.308594 L 376.023438 315.210938 C 374.585938 316.851562 372.945312 318.078125 371.09375 318.898438 C 369.042969 319.71875 366.78125 320.128906 364.730469 320.128906 C 357.335938 320.539062 350.96875 314.800781 350.558594 307.425781 C 350.558594 307.015625 350.558594 306.605469 350.558594 306.195312 L 350.558594 283.046875 Z M 355.691406 283.046875 "/>
<path style=" stroke:none;fill-rule:nonzero;fill:rgb(100%,39.99939%,0%);fill-opacity:1;" d="M 418.738281 319.511719 L 418.738281 315.621094 C 417.300781 317.054688 415.453125 318.285156 413.402344 318.898438 C 406.625 321.355469 399.023438 319.71875 393.890625 314.597656 C 392.246094 312.957031 390.808594 310.910156 389.988281 308.65625 C 388.960938 306.402344 388.550781 303.738281 388.550781 301.277344 C 388.550781 298.820312 388.960938 296.363281 389.988281 293.902344 C 390.808594 291.648438 392.246094 289.601562 393.890625 287.960938 C 397.382812 284.480469 402.105469 282.429688 407.035156 282.636719 C 409.085938 282.636719 411.140625 283.046875 413.195312 283.660156 C 415.25 284.273438 417.097656 285.300781 418.738281 286.734375 L 418.738281 268.703125 L 424.078125 267.476562 L 424.078125 319.511719 Z M 394.097656 301.074219 C 394.097656 302.917969 394.507812 304.96875 395.121094 306.605469 C 395.738281 308.246094 396.765625 309.882812 398 311.113281 C 399.230469 312.34375 400.667969 313.367188 402.3125 314.1875 C 403.953125 315.007812 405.800781 315.210938 407.648438 315.210938 C 409.910156 315.210938 411.964844 314.800781 414.015625 313.777344 C 415.863281 312.957031 417.507812 311.726562 418.945312 310.089844 L 418.945312 292.058594 C 417.714844 290.421875 416.070312 289.191406 414.015625 288.371094 C 411.964844 287.550781 409.910156 286.9375 407.648438 286.9375 C 403.953125 286.9375 400.460938 288.371094 398 291.035156 C 395.328125 293.902344 393.890625 297.386719 394.097656 301.074219 Z M 394.097656 301.074219 "/>
<g clip-path="url(#clip3)" clip-rule="nonzero">
<path style=" stroke:none;fill-rule:nonzero;fill:rgb(96.859741%,58.81958%,27.449036%);fill-opacity:1;" d="M 739.109375 326.886719 C 738.699219 348.808594 720.832031 366.429688 698.859375 366.429688 L 645.050781 366.019531 C 632.113281 366.019531 637.660156 351.679688 637.660156 351.679688 L 652.238281 325.660156 C 655.9375 320.128906 659.222656 315.007812 661.6875 310.5 C 661.890625 310.089844 662.097656 309.472656 662.507812 309.066406 L 670.929688 319.921875 C 671.542969 320.945312 672.980469 321.152344 674.007812 320.539062 C 674.828125 320.128906 675.242188 319.308594 675.242188 318.488281 L 675.445312 314.390625 L 676.265625 293.699219 C 676.265625 293.085938 676.679688 292.46875 677.292969 292.058594 C 683.660156 287.960938 691.257812 285.914062 698.859375 285.914062 C 721.242188 286.324219 739.316406 304.558594 739.109375 326.886719 C 739.316406 326.886719 739.316406 326.886719 739.109375 326.886719 Z M 739.109375 326.886719 "/>
</g>
<g clip-path="url(#clip4)" clip-rule="nonzero">
<path style=" stroke:none;fill-rule:nonzero;fill:rgb(95.689392%,52.938843%,14.509583%);fill-opacity:1;" d="M 541.136719 366.019531 L 540.316406 366.222656 C 538.671875 366.429688 537.234375 366.429688 536.003906 366.429688 L 535.386719 366.429688 C 515.054688 366.222656 498.625 349.628906 498.625 329.347656 C 498.832031 312.34375 510.539062 297.589844 527.171875 293.699219 C 533.539062 325.863281 561.675781 349.21875 594.328125 349.835938 C 577.898438 358.644531 559.824219 364.175781 541.136719 366.019531 Z M 541.136719 366.019531 "/>
</g>
<g clip-path="url(#clip5)" clip-rule="nonzero">
<path style=" stroke:none;fill-rule:nonzero;fill:rgb(100%,39.99939%,0%);fill-opacity:1;" d="M 643 305.375 L 654.292969 305.582031 C 643.820312 315.621094 632.523438 324.636719 620.613281 333.035156 C 616.09375 336.109375 611.578125 339.179688 607.265625 342.050781 C 602.953125 344.917969 598.640625 347.375 594.328125 349.628906 C 555.71875 348.808594 524.914062 316.851562 525.734375 278.332031 C 526.554688 239.816406 558.59375 209.085938 597.203125 209.90625 C 634.785156 210.726562 665.179688 241.046875 665.792969 278.539062 C 665.792969 279.359375 665.589844 279.972656 664.972656 280.585938 L 641.148438 300.460938 C 640.328125 301.074219 640.125 301.894531 640.125 302.917969 C 640.535156 304.351562 641.5625 305.375 643 305.375 Z M 643 305.375 "/>
</g>
<path style=" stroke:none;fill-rule:nonzero;fill:rgb(100%,100%,100%);fill-opacity:1;" d="M 266.359375 336.722656 L 283.609375 358.234375 L 283.609375 336.722656 L 287.101562 336.722656 L 287.101562 364.996094 L 284.84375 364.996094 L 267.386719 343.484375 L 267.386719 364.996094 L 263.894531 364.996094 L 263.894531 336.722656 Z M 266.359375 336.722656 "/>
<path style=" stroke:none;fill-rule:nonzero;fill:rgb(100%,100%,100%);fill-opacity:1;" d="M 311.335938 361.71875 C 310.308594 362.945312 309.074219 363.765625 307.636719 364.378906 C 306.199219 364.996094 304.558594 365.199219 302.914062 365.199219 C 300.039062 365.40625 297.371094 364.378906 295.316406 362.332031 C 291.207031 358.234375 291.207031 351.472656 295.519531 347.375 C 299.832031 343.277344 306.40625 343.277344 310.511719 347.582031 C 312.566406 350.039062 313.386719 353.113281 312.773438 356.1875 L 295.933594 356.1875 C 296.136719 357.824219 296.957031 359.464844 298.191406 360.488281 C 299.628906 361.511719 301.269531 362.128906 303.121094 362.128906 C 304.351562 362.128906 305.582031 361.921875 306.609375 361.511719 C 307.636719 361.101562 308.664062 360.488281 309.28125 359.667969 Z M 309.484375 353.523438 C 309.484375 351.882812 308.871094 350.246094 307.433594 349.21875 C 305.996094 348.195312 304.351562 347.582031 302.707031 347.582031 C 301.066406 347.582031 299.421875 347.992188 297.984375 349.21875 C 296.546875 350.246094 295.726562 351.882812 295.519531 353.523438 Z M 309.484375 353.523438 "/>
<path style=" stroke:none;fill-rule:nonzero;fill:rgb(100%,100%,100%);fill-opacity:1;" d="M 322.628906 345.121094 L 328.789062 345.121094 L 328.789062 347.992188 L 322.628906 347.992188 L 322.628906 358.4375 C 322.628906 360.898438 323.65625 362.332031 325.710938 362.332031 C 326.738281 362.332031 327.558594 362.128906 328.585938 361.71875 L 329.613281 364.378906 C 328.378906 364.996094 327.148438 365.199219 325.710938 365.40625 C 321.398438 365.40625 319.34375 363.152344 319.34375 358.644531 L 319.34375 348.195312 L 315.234375 348.195312 L 315.234375 345.121094 L 319.34375 345.121094 L 319.34375 339.589844 L 322.628906 339.179688 Z M 322.628906 345.121094 "/>
<path style=" stroke:none;fill-rule:nonzero;fill:rgb(100%,100%,100%);fill-opacity:1;" d="M 334.949219 345.121094 L 340.289062 361.511719 L 345.628906 345.121094 L 348.300781 345.121094 L 353.640625 361.511719 L 358.980469 345.121094 L 362.675781 345.121094 L 355.691406 364.996094 L 351.996094 364.996094 L 349.328125 357.621094 L 347.273438 350.449219 L 345.015625 357.621094 L 342.34375 364.996094 L 338.648438 364.996094 L 331.460938 345.121094 Z M 334.949219 345.121094 "/>
<path style=" stroke:none;fill-rule:nonzero;fill:rgb(100%,100%,100%);fill-opacity:1;" d="M 367.808594 347.582031 C 369.863281 345.53125 372.53125 344.507812 375.203125 344.710938 C 380.746094 344.507812 385.265625 348.808594 385.675781 354.136719 C 385.675781 354.546875 385.675781 354.75 385.675781 355.160156 C 385.675781 357.824219 384.648438 360.691406 382.800781 362.535156 C 380.746094 364.378906 378.078125 365.609375 375.40625 365.40625 C 372.738281 365.40625 370.070312 364.378906 368.015625 362.535156 C 365.960938 360.691406 364.933594 357.824219 365.140625 355.160156 C 364.933594 352.292969 365.960938 349.628906 367.808594 347.582031 Z M 380.335938 349.628906 C 377.460938 346.964844 372.945312 346.964844 370.273438 349.628906 C 368.835938 351.0625 368.21875 352.90625 368.21875 354.957031 C 368.21875 356.800781 368.835938 358.847656 370.273438 360.078125 C 373.148438 362.742188 377.460938 362.742188 380.335938 360.078125 C 381.773438 358.644531 382.390625 356.800781 382.390625 354.957031 C 382.597656 353.113281 381.773438 351.0625 380.335938 349.628906 Z M 380.335938 349.628906 "/>
<path style=" stroke:none;fill-rule:nonzero;fill:rgb(100%,100%,100%);fill-opacity:1;" d="M 393.683594 345.121094 L 393.890625 348.195312 C 395.125 345.941406 397.585938 344.710938 400.050781 344.917969 C 401.695312 344.917969 403.335938 345.328125 404.773438 346.351562 L 403.335938 349.21875 C 400.875 347.582031 397.792969 347.785156 395.738281 349.835938 C 394.507812 351.0625 393.890625 352.496094 394.097656 354.136719 L 394.097656 365.199219 L 390.808594 365.199219 L 390.808594 345.121094 Z M 393.683594 345.121094 "/>
<path style=" stroke:none;fill-rule:nonzero;fill:rgb(100%,100%,100%);fill-opacity:1;" d="M 411.140625 353.523438 L 419.355469 345.121094 L 423.464844 345.121094 L 423.464844 345.328125 L 414.222656 354.546875 L 424.488281 364.789062 L 424.488281 364.996094 L 420.382812 364.996094 L 410.9375 355.570312 L 410.9375 364.996094 L 407.648438 364.996094 L 407.648438 336.722656 L 410.9375 336.722656 Z M 411.140625 353.523438 "/>
<path style="fill:none;stroke-width:1;stroke-linecap:round;stroke-linejoin:miter;stroke:rgb(100%,39.99939%,0%);stroke-opacity:1;stroke-miterlimit:4;" d="M 0.500131 -0.0000604354 L 53.685411 -0.0000604354 " transform="matrix(0.000000000000000229,-3.745676,3.744596,0.000000000000000229,786.980695,389.783485)"/>
<g style="fill:rgb(100%,100%,100%);fill-opacity:1;">
  <use xlink:href="#glyph0-1" x="812.782893" y="282.930321"/>
</g>
<g style="fill:rgb(100%,100%,100%);fill-opacity:1;">
  <use xlink:href="#glyph0-2" x="855.29347" y="282.930321"/>
</g>
<g style="fill:rgb(100%,100%,100%);fill-opacity:1;">
  <use xlink:href="#glyph0-3" x="886.863609" y="282.930321"/>
</g>
<g style="fill:rgb(100%,100%,100%);fill-opacity:1;">
  <use xlink:href="#glyph0-4" x="901.761223" y="282.930321"/>
</g>
<g style="fill:rgb(100%,100%,100%);fill-opacity:1;">
  <use xlink:href="#glyph0-5" x="936.706605" y="282.930321"/>
</g>
<g style="fill:rgb(100%,100%,100%);fill-opacity:1;">
  <use xlink:href="#glyph0-6" x="965.628933" y="282.930321"/>
</g>
<g style="fill:rgb(100%,100%,100%);fill-opacity:1;">
  <use xlink:href="#glyph0-7" x="986.811472" y="282.930321"/>
</g>
<g style="fill:rgb(100%,100%,100%);fill-opacity:1;">
  <use xlink:href="#glyph0-8" x="1007.673947" y="282.930321"/>
</g>
<g style="fill:rgb(100%,100%,100%);fill-opacity:1;">
  <use xlink:href="#glyph0-9" x="1040.146082" y="282.930321"/>
</g>
<g style="fill:rgb(100%,100%,100%);fill-opacity:1;">
  <use xlink:href="#glyph0-6" x="1070.872418" y="282.930321"/>
</g>
<g style="fill:rgb(100%,100%,100%);fill-opacity:1;">
  <use xlink:href="#glyph0-10" x="839.687673" y="338.006371"/>
</g>
<g style="fill:rgb(100%,100%,100%);fill-opacity:1;">
  <use xlink:href="#glyph0-9" x="884.118645" y="338.006371"/>
</g>
<g style="fill:rgb(100%,100%,100%);fill-opacity:1;">
  <use xlink:href="#glyph0-7" x="914.844981" y="338.006371"/>
</g>
<g style="fill:rgb(100%,100%,100%);fill-opacity:1;">
  <use xlink:href="#glyph0-11" x="935.707456" y="338.006371"/>
</g>
<g style="fill:rgb(100%,100%,100%);fill-opacity:1;">
  <use xlink:href="#glyph0-12" x="981.418696" y="338.006371"/>
</g>
<g style="fill:rgb(100%,100%,100%);fill-opacity:1;">
  <use xlink:href="#glyph0-6" x="1014.414587" y="338.006371"/>
</g>
<g style="fill:rgb(100%,100%,100%);fill-opacity:1;">
  <use xlink:href="#glyph0-13" x="1035.597125" y="338.006371"/>
</g>
<g style="fill:rgb(100%,100%,100%);fill-opacity:1;">
  <use xlink:href="#glyph1-1" x="479.805743" y="476.440009"/>
</g>
<g style="fill:rgb(100%,100%,100%);fill-opacity:1;">
  <use xlink:href="#glyph1-2" x="537.532316" y="476.440009"/>
</g>
<g style="fill:rgb(100%,100%,100%);fill-opacity:1;">
  <use xlink:href="#glyph1-3" x="568.431739" y="476.440009"/>
</g>
<g style="fill:rgb(100%,100%,100%);fill-opacity:1;">
  <use xlink:href="#glyph1-4" x="591.062297" y="476.440009"/>
</g>
<g style="fill:rgb(100%,100%,100%);fill-opacity:1;">
  <use xlink:href="#glyph1-5" x="622.645604" y="476.440009"/>
</g>
<g style="fill:rgb(100%,100%,100%);fill-opacity:1;">
  <use xlink:href="#glyph1-6" x="655.472349" y="476.440009"/>
</g>
<g style="fill:rgb(100%,100%,100%);fill-opacity:1;">
  <use xlink:href="#glyph1-7" x="677.760959" y="476.440009"/>
</g>
<g style="fill:rgb(100%,100%,100%);fill-opacity:1;">
  <use xlink:href="#glyph1-8" x="692.682207" y="476.440009"/>
</g>
<g style="fill:rgb(100%,100%,100%);fill-opacity:1;">
  <use xlink:href="#glyph1-9" x="727.374119" y="476.440009"/>
</g>
<g style="fill:rgb(100%,100%,100%);fill-opacity:1;">
  <use xlink:href="#glyph1-10" x="759.703489" y="476.440009"/>
</g>
<g style="fill:rgb(100%,100%,100%);fill-opacity:1;">
  <use xlink:href="#glyph1-11" x="775.619486" y="476.440009"/>
</g>
<g style="fill:rgb(100%,100%,100%);fill-opacity:1;">
  <use xlink:href="#glyph1-2" x="812.953688" y="476.440009"/>
</g>
<g style="fill:rgb(100%,100%,100%);fill-opacity:1;">
  <use xlink:href="#glyph1-3" x="843.853099" y="476.440009"/>
</g>
<g style="fill:rgb(100%,100%,100%);fill-opacity:1;">
  <use xlink:href="#glyph1-6" x="866.483681" y="476.440009"/>
</g>
<g style="fill:rgb(100%,100%,100%);fill-opacity:1;">
  <use xlink:href="#glyph1-8" x="888.772303" y="476.440009"/>
</g>
<g style="fill:rgb(100%,100%,100%);fill-opacity:1;">
  <use xlink:href="#glyph1-5" x="923.464215" y="476.440009"/>
</g>
<g style="fill:rgb(100%,100%,100%);fill-opacity:1;">
  <use xlink:href="#glyph1-3" x="956.290959" y="476.440009"/>
</g>
</g>
</svg>
