<?xml version="1.0" encoding="UTF-8"?>
<svg xmlns="http://www.w3.org/2000/svg" xmlns:xlink="http://www.w3.org/1999/xlink" width="810pt" height="809.999993pt" viewBox="0 0 810 809.999993" version="1.2">
<defs>
<clipPath id="clip1">
  <path d="M 287 637 L 322 637 L 322 679.5 L 287 679.5 Z M 287 637 "/>
</clipPath>
<clipPath id="clip2">
  <path d="M 329 649 L 360 649 L 360 679.5 L 329 679.5 Z M 329 649 "/>
</clipPath>
<clipPath id="clip3">
  <path d="M 362 641 L 384 641 L 384 679.5 L 362 679.5 Z M 362 641 "/>
</clipPath>
<clipPath id="clip4">
  <path d="M 386 649 L 433 649 L 433 679.5 L 386 679.5 Z M 386 649 "/>
</clipPath>
<clipPath id="clip5">
  <path d="M 435 648 L 466 648 L 466 679.5 L 435 679.5 Z M 435 648 "/>
</clipPath>
<clipPath id="clip6">
  <path d="M 473 649 L 494 649 L 494 679.5 L 473 679.5 Z M 473 649 "/>
</clipPath>
<clipPath id="clip7">
  <path d="M 498 637 L 523 637 L 523 679.5 L 498 679.5 Z M 498 637 "/>
</clipPath>
</defs>
<g id="surface1">
<path style=" stroke:none;fill-rule:nonzero;fill:rgb(100%,100%,100%);fill-opacity:1;" d="M 279.671875 582.726562 C 279.671875 587.527344 278.773438 592.328125 276.972656 597.132812 C 275.472656 601.335938 272.769531 605.238281 269.769531 608.539062 C 266.46875 611.839844 262.867188 614.242188 258.667969 616.042969 C 254.164062 617.84375 249.664062 618.746094 244.863281 618.746094 C 239.761719 618.746094 234.960938 617.84375 230.460938 616.042969 C 221.757812 612.441406 214.554688 605.835938 210.953125 597.132812 C 208.855469 592.628906 207.953125 587.828125 207.953125 583.023438 C 207.953125 573.417969 211.855469 564.113281 218.457031 557.511719 C 221.757812 554.210938 225.660156 551.808594 230.160156 550.007812 C 234.660156 548.207031 239.761719 547.304688 244.5625 547.304688 C 250.265625 547.304688 255.667969 548.507812 260.769531 550.90625 C 265.570312 553.007812 270.070312 556.308594 273.371094 560.511719 L 263.46875 569.816406 C 261.066406 567.117188 258.367188 564.714844 255.066406 563.214844 C 251.765625 561.714844 248.164062 560.8125 244.5625 560.8125 C 235.5625 560.8125 227.457031 566.214844 224.457031 574.621094 C 223.257812 577.621094 222.65625 580.625 222.957031 583.625 C 222.957031 586.625 223.558594 589.628906 224.757812 592.628906 C 226.859375 598.03125 231.058594 602.535156 236.460938 604.636719 C 239.160156 605.835938 242.164062 606.4375 245.164062 606.4375 C 249.664062 606.4375 254.164062 605.238281 257.765625 602.234375 C 261.066406 599.835938 263.46875 595.933594 264.367188 591.730469 L 243.964844 591.730469 L 243.964844 579.121094 L 279.972656 579.121094 Z M 279.671875 582.726562 "/>
<path style=" stroke:none;fill-rule:nonzero;fill:rgb(100%,100%,100%);fill-opacity:1;" d="M 283.574219 606.4375 L 291.976562 596.230469 C 295.578125 599.234375 299.476562 601.933594 303.679688 604.035156 C 307.582031 605.539062 311.480469 606.4375 315.683594 606.4375 C 319.285156 606.738281 322.882812 605.835938 325.886719 604.035156 C 328.285156 602.835938 329.785156 600.433594 329.785156 597.734375 C 329.785156 595.632812 328.886719 593.53125 327.085938 592.03125 C 324.382812 590.230469 321.382812 589.328125 318.382812 589.027344 L 304.578125 586.625 C 299.476562 586.027344 294.675781 583.925781 291.074219 580.324219 C 288.074219 577.023438 286.273438 572.519531 286.574219 568.015625 C 286.273438 562.011719 289.273438 556.308594 294.078125 552.707031 C 299.777344 548.804688 306.980469 546.703125 313.882812 547.003906 C 318.984375 547.003906 324.085938 547.90625 329.1875 549.707031 C 333.988281 551.207031 338.488281 553.609375 342.691406 556.910156 L 334.886719 567.714844 C 331.585938 565.015625 327.984375 562.914062 324.085938 561.414062 C 320.484375 560.210938 316.882812 559.3125 312.980469 559.3125 C 309.679688 559.3125 306.679688 559.914062 303.679688 561.414062 C 301.578125 562.613281 300.078125 564.714844 300.078125 567.117188 C 300.078125 568.917969 300.679688 571.019531 302.480469 572.21875 C 304.878906 573.71875 307.28125 574.621094 309.980469 574.921875 L 323.183594 577.019531 C 328.886719 577.621094 334.289062 580.023438 338.789062 583.625 C 342.390625 586.925781 344.191406 591.730469 343.890625 596.53125 C 344.191406 602.835938 341.1875 609.140625 335.789062 612.742188 C 329.484375 616.941406 321.984375 619.042969 314.480469 618.746094 C 308.78125 618.746094 303.378906 617.542969 297.976562 615.441406 C 292.574219 613.042969 287.773438 610.039062 283.574219 606.4375 Z M 283.574219 606.4375 "/>
<path style=" stroke:none;fill-rule:nonzero;fill:rgb(100%,100%,100%);fill-opacity:1;" d="M 385.601562 611.539062 C 389.800781 611.539062 394.003906 610.640625 397.902344 608.839844 C 401.804688 607.339844 405.105469 604.9375 407.808594 601.933594 L 412.910156 607.039062 C 409.308594 610.640625 405.105469 613.640625 400.605469 615.441406 C 395.804688 617.542969 390.703125 618.445312 385.601562 618.445312 C 376 618.445312 366.695312 614.84375 360.09375 607.9375 C 356.792969 604.636719 354.09375 600.734375 352.292969 596.53125 C 348.691406 587.527344 348.691406 577.320312 352.292969 568.316406 C 354.09375 564.113281 356.792969 560.210938 360.09375 556.910156 C 366.996094 550.308594 376.296875 546.40625 385.902344 546.703125 C 391.003906 546.703125 396.402344 547.605469 401.207031 549.707031 C 405.707031 551.507812 409.90625 554.507812 413.507812 558.109375 L 408.40625 563.515625 C 405.707031 560.511719 402.105469 558.109375 398.203125 556.308594 C 394.304688 554.507812 390.101562 553.910156 385.902344 553.910156 C 382 553.910156 378.398438 554.507812 374.796875 556.308594 C 371.496094 557.8125 368.496094 559.613281 365.796875 562.3125 C 363.09375 565.015625 361.292969 568.015625 359.792969 571.320312 C 356.792969 578.523438 356.792969 586.625 359.792969 594.132812 C 361.292969 597.433594 363.09375 600.433594 365.796875 603.136719 C 368.496094 605.539062 371.496094 607.636719 374.796875 609.140625 C 378.097656 610.640625 381.699219 611.539062 385.601562 611.539062 Z M 385.601562 611.539062 "/>
<path style=" stroke:none;fill-rule:nonzero;fill:rgb(100%,100%,100%);fill-opacity:1;" d="M 430.3125 546.105469 L 430.3125 617.242188 L 423.109375 617.242188 L 423.109375 547.90625 Z M 430.3125 546.105469 "/>
<path style=" stroke:none;fill-rule:nonzero;fill:rgb(100%,100%,100%);fill-opacity:1;" d="M 440.515625 592.628906 C 440.515625 585.726562 443.214844 579.121094 448.019531 574.320312 C 457.921875 564.414062 473.824219 564.414062 483.726562 574.019531 C 483.726562 574.019531 484.027344 574.320312 484.027344 574.320312 C 491.230469 581.824219 493.328125 593.230469 489.429688 602.835938 C 488.226562 605.835938 486.429688 608.839844 484.027344 610.941406 C 474.125 620.84375 457.921875 620.84375 448.019531 610.941406 C 445.617188 608.539062 443.816406 605.835938 442.617188 602.835938 C 441.414062 599.535156 440.515625 595.933594 440.515625 592.628906 Z M 466.023438 611.839844 C 468.421875 611.839844 470.824219 611.238281 473.222656 610.339844 C 475.324219 609.4375 477.425781 607.9375 478.925781 606.136719 C 480.726562 604.335938 481.925781 602.234375 482.828125 599.835938 C 484.628906 595.03125 484.628906 589.628906 482.828125 584.527344 C 481.925781 582.425781 480.726562 580.324219 478.925781 578.523438 C 477.425781 576.722656 475.324219 575.519531 473.222656 574.320312 C 468.722656 572.519531 463.621094 572.519531 459.121094 574.320312 C 457.019531 575.21875 454.917969 576.722656 453.417969 578.523438 C 451.917969 580.324219 450.417969 582.425781 449.519531 584.527344 C 448.617188 586.925781 448.019531 589.628906 448.019531 592.03125 C 448.019531 594.730469 448.316406 597.132812 449.519531 599.535156 C 450.417969 601.933594 451.617188 604.035156 453.417969 605.835938 C 454.917969 607.636719 457.019531 609.140625 459.121094 610.039062 C 461.222656 611.238281 463.621094 611.839844 466.023438 611.839844 Z M 466.023438 611.839844 "/>
<path style=" stroke:none;fill-rule:nonzero;fill:rgb(100%,100%,100%);fill-opacity:1;" d="M 508.632812 567.714844 L 508.632812 597.734375 C 508.332031 601.636719 509.835938 605.238281 512.234375 608.238281 C 514.933594 610.941406 518.535156 612.441406 522.4375 612.140625 C 525.136719 612.140625 528.140625 611.539062 530.539062 610.039062 C 532.941406 608.539062 534.742188 606.738281 536.242188 604.335938 L 536.242188 567.714844 L 543.441406 567.714844 L 543.441406 617.542969 L 536.242188 617.542969 L 536.242188 611.839844 C 534.441406 613.941406 532.039062 615.742188 529.339844 616.945312 C 526.636719 618.144531 523.636719 618.746094 520.636719 618.746094 C 510.433594 619.34375 501.730469 611.242188 501.433594 601.335938 C 501.433594 600.734375 501.433594 600.132812 501.433594 599.535156 L 501.433594 568.015625 L 508.632812 568.015625 Z M 508.632812 567.714844 "/>
<path style=" stroke:none;fill-rule:nonzero;fill:rgb(100%,100%,100%);fill-opacity:1;" d="M 595.058594 617.542969 L 595.058594 612.140625 C 592.957031 614.242188 590.554688 615.742188 587.855469 616.644531 C 585.152344 617.542969 582.152344 618.144531 579.152344 618.144531 C 575.851562 618.144531 572.550781 617.542969 569.25 616.042969 C 566.25 614.84375 563.546875 613.042969 561.449219 610.640625 C 559.046875 608.238281 557.246094 605.535156 556.046875 602.535156 C 553.34375 595.933594 553.34375 588.726562 556.046875 582.425781 C 558.445312 576.421875 563.25 571.320312 569.25 568.917969 C 572.25 567.714844 575.851562 566.816406 579.152344 566.816406 C 582.152344 566.816406 584.855469 567.417969 587.554688 568.316406 C 590.253906 569.21875 592.957031 570.71875 595.058594 572.519531 L 595.058594 547.90625 L 602.257812 546.105469 L 602.257812 617.242188 Z M 561.148438 592.328125 C 561.148438 595.03125 561.746094 597.433594 562.648438 600.132812 C 563.546875 602.234375 564.75 604.335938 566.550781 606.136719 C 569.851562 609.738281 574.652344 611.839844 579.753906 611.839844 C 582.753906 611.839844 585.753906 611.238281 588.453125 610.039062 C 591.15625 608.839844 593.257812 607.039062 595.058594 604.9375 L 595.058594 580.324219 C 593.257812 578.222656 590.855469 576.421875 588.453125 575.21875 C 585.753906 574.019531 582.753906 573.417969 579.753906 573.417969 C 574.953125 573.417969 570.148438 575.21875 566.550781 578.824219 C 562.949219 582.425781 560.847656 587.226562 561.148438 592.328125 Z M 561.148438 592.328125 "/>
<g clip-path="url(#clip1)" clip-rule="nonzero">
<path style=" stroke:none;fill-rule:nonzero;fill:rgb(100%,100%,100%);fill-opacity:1;" d="M 291.375 637.953125 L 316.582031 669.773438 L 316.582031 637.953125 L 321.683594 637.953125 L 321.683594 679.378906 L 318.082031 679.378906 L 292.574219 647.859375 L 292.574219 679.378906 L 287.476562 679.378906 L 287.476562 637.953125 Z M 291.375 637.953125 "/>
</g>
<g clip-path="url(#clip2)" clip-rule="nonzero">
<path style=" stroke:none;fill-rule:nonzero;fill:rgb(100%,100%,100%);fill-opacity:1;" d="M 357.09375 674.574219 C 355.59375 676.375 353.792969 677.578125 351.691406 678.476562 C 349.589844 679.378906 347.191406 679.675781 344.789062 679.675781 C 340.589844 679.976562 336.6875 678.476562 333.6875 675.476562 C 327.683594 669.472656 327.683594 659.566406 333.988281 653.5625 C 339.988281 647.558594 349.890625 647.558594 355.894531 653.863281 C 358.894531 657.464844 360.09375 661.96875 359.195312 666.46875 L 334.289062 666.46875 C 334.585938 668.871094 335.789062 671.273438 337.589844 672.773438 C 339.6875 674.273438 342.089844 675.175781 344.789062 675.175781 C 346.589844 675.175781 348.390625 674.875 349.890625 674.273438 C 351.390625 673.675781 352.890625 672.773438 353.792969 671.574219 Z M 354.394531 662.566406 C 354.394531 660.167969 353.191406 657.765625 351.390625 656.265625 C 349.292969 654.765625 346.890625 653.863281 344.488281 653.863281 C 342.089844 653.863281 339.6875 654.765625 337.589844 656.265625 C 335.488281 657.765625 334.289062 660.167969 333.988281 662.566406 Z M 354.394531 662.566406 "/>
</g>
<g clip-path="url(#clip3)" clip-rule="nonzero">
<path style=" stroke:none;fill-rule:nonzero;fill:rgb(100%,100%,100%);fill-opacity:1;" d="M 373.597656 650.261719 L 382.601562 650.261719 L 382.601562 654.464844 L 373.597656 654.464844 L 373.597656 669.773438 C 373.597656 673.375 375.097656 675.476562 378.097656 675.476562 C 379.597656 675.476562 380.800781 675.175781 382 674.273438 L 383.5 678.175781 C 381.699219 679.078125 379.898438 679.378906 377.800781 679.675781 C 371.496094 679.675781 368.496094 676.375 368.496094 669.773438 L 368.496094 654.464844 L 362.496094 654.464844 L 362.496094 650.261719 L 368.195312 650.261719 L 368.195312 642.15625 L 372.996094 641.558594 L 372.996094 650.261719 Z M 373.597656 650.261719 "/>
</g>
<g clip-path="url(#clip4)" clip-rule="nonzero">
<path style=" stroke:none;fill-rule:nonzero;fill:rgb(100%,100%,100%);fill-opacity:1;" d="M 391.601562 649.960938 L 399.40625 673.972656 L 407.207031 649.960938 L 411.109375 649.960938 L 418.910156 673.972656 L 426.710938 649.960938 L 432.113281 649.960938 L 421.910156 679.078125 L 416.507812 679.078125 L 412.609375 668.269531 L 409.605469 657.765625 L 406.304688 668.269531 L 402.105469 679.378906 L 396.703125 679.378906 L 386.199219 649.960938 Z M 391.601562 649.960938 "/>
</g>
<g clip-path="url(#clip5)" clip-rule="nonzero">
<path style=" stroke:none;fill-rule:nonzero;fill:rgb(100%,100%,100%);fill-opacity:1;" d="M 439.617188 653.5625 C 445.316406 647.558594 454.621094 646.960938 460.921875 652.664062 C 464.222656 655.664062 466.023438 660.167969 465.722656 664.667969 C 466.023438 668.871094 464.222656 672.773438 461.519531 675.476562 C 455.519531 681.179688 445.917969 681.179688 439.914062 675.476562 C 436.914062 672.472656 435.414062 668.570312 435.714844 664.667969 C 435.414062 660.765625 436.914062 656.566406 439.617188 653.5625 Z M 457.921875 656.863281 C 453.71875 652.964844 447.117188 652.964844 443.214844 656.863281 C 441.117188 658.964844 440.214844 661.667969 440.214844 664.667969 C 440.214844 667.371094 441.117188 670.371094 443.214844 672.171875 C 447.417969 676.074219 453.71875 676.074219 457.921875 672.171875 C 460.019531 670.074219 460.921875 667.371094 460.921875 664.667969 C 461.222656 661.96875 460.019531 658.964844 457.921875 656.863281 Z M 457.921875 656.863281 "/>
</g>
<g clip-path="url(#clip6)" clip-rule="nonzero">
<path style=" stroke:none;fill-rule:nonzero;fill:rgb(100%,100%,100%);fill-opacity:1;" d="M 477.425781 649.960938 L 477.726562 654.464844 C 479.527344 651.160156 483.125 649.359375 486.726562 649.660156 C 489.128906 649.660156 491.527344 650.261719 493.628906 651.761719 L 491.527344 655.964844 C 487.929688 653.5625 483.425781 653.863281 480.425781 656.863281 C 478.625 658.667969 477.726562 660.765625 478.027344 663.167969 L 478.027344 679.378906 L 473.222656 679.378906 L 473.222656 649.960938 Z M 477.425781 649.960938 "/>
</g>
<g clip-path="url(#clip7)" clip-rule="nonzero">
<path style=" stroke:none;fill-rule:nonzero;fill:rgb(100%,100%,100%);fill-opacity:1;" d="M 502.933594 662.269531 L 514.933594 649.960938 L 520.9375 649.960938 L 520.9375 650.261719 L 507.433594 663.769531 L 522.4375 678.777344 L 522.4375 679.078125 L 516.4375 679.078125 L 502.632812 665.269531 L 502.632812 679.078125 L 498.132812 679.078125 L 498.132812 637.953125 L 502.933594 637.953125 Z M 502.933594 662.269531 "/>
</g>
</g>
</svg>
