<?xml version="1.0" encoding="UTF-8"?>
<svg xmlns="http://www.w3.org/2000/svg" xmlns:xlink="http://www.w3.org/1999/xlink" width="810pt" height="809.999993pt" viewBox="0 0 810 809.999993" version="1.2">
<defs>
<clipPath id="clip1">
  <path d="M 236 667 L 286 667 L 286 726.960938 L 236 726.960938 Z M 236 667 "/>
</clipPath>
<clipPath id="clip2">
  <path d="M 296 683 L 340 683 L 340 726.960938 L 296 726.960938 Z M 296 683 "/>
</clipPath>
<clipPath id="clip3">
  <path d="M 343 672 L 375 672 L 375 726.960938 L 343 726.960938 Z M 343 672 "/>
</clipPath>
<clipPath id="clip4">
  <path d="M 377 684 L 444 684 L 444 726.960938 L 377 726.960938 Z M 377 684 "/>
</clipPath>
<clipPath id="clip5">
  <path d="M 449 682 L 493 682 L 493 726.960938 L 449 726.960938 Z M 449 682 "/>
</clipPath>
<clipPath id="clip6">
  <path d="M 503 684 L 533 684 L 533 726.960938 L 503 726.960938 Z M 503 684 "/>
</clipPath>
<clipPath id="clip7">
  <path d="M 538 667 L 574 667 L 574 726.960938 L 538 726.960938 Z M 538 667 "/>
</clipPath>
<clipPath id="clip8">
  <path d="M 452 285 L 724.800781 285 L 724.800781 500 L 452 500 Z M 452 285 "/>
</clipPath>
<clipPath id="clip9">
  <path d="M 158 83.296875 L 531 83.296875 L 531 455 L 158 455 Z M 158 83.296875 "/>
</clipPath>
</defs>
<g id="surface1">
<path style=" stroke:none;fill-rule:nonzero;fill:rgb(96.859741%,58.81958%,27.449036%);fill-opacity:1;" d="M 224.910156 587.898438 C 224.910156 594.800781 223.617188 601.699219 221.03125 608.601562 C 218.875 614.640625 214.992188 620.246094 210.679688 624.992188 C 205.9375 629.734375 200.761719 633.1875 194.726562 635.773438 C 188.257812 638.363281 181.789062 639.65625 174.890625 639.65625 C 167.5625 639.65625 160.660156 638.363281 154.195312 635.773438 C 141.6875 630.597656 131.339844 621.109375 126.164062 608.601562 C 123.148438 602.132812 121.855469 595.230469 121.855469 588.328125 C 121.855469 574.527344 127.460938 561.15625 136.945312 551.667969 C 141.6875 546.921875 147.292969 543.472656 153.761719 540.882812 C 160.230469 538.296875 167.5625 537.003906 174.460938 537.003906 C 182.652344 537.003906 190.414062 538.726562 197.746094 542.179688 C 204.644531 545.195312 211.113281 549.941406 215.855469 555.980469 L 201.625 569.351562 C 198.175781 565.46875 194.296875 562.019531 189.550781 559.863281 C 184.808594 557.707031 179.636719 556.410156 174.460938 556.410156 C 161.523438 556.410156 149.882812 564.175781 145.570312 576.253906 C 143.84375 580.566406 142.984375 584.878906 143.414062 589.191406 C 143.414062 593.503906 144.277344 597.820312 146 602.132812 C 149.019531 609.894531 155.054688 616.367188 162.816406 619.382812 C 166.699219 621.109375 171.011719 621.972656 175.324219 621.972656 C 181.789062 621.972656 188.257812 620.246094 193.433594 615.933594 C 198.175781 612.484375 201.625 606.875 202.917969 600.835938 L 173.597656 600.835938 L 173.597656 582.722656 L 225.34375 582.722656 Z M 224.910156 587.898438 "/>
<path style=" stroke:none;fill-rule:nonzero;fill:rgb(96.859741%,58.81958%,27.449036%);fill-opacity:1;" d="M 230.515625 621.972656 L 242.589844 607.308594 C 247.765625 611.621094 253.371094 615.503906 259.40625 618.523438 C 265.011719 620.679688 270.617188 621.972656 276.65625 621.972656 C 281.828125 622.402344 287.003906 621.109375 291.316406 618.523438 C 294.765625 616.796875 296.921875 613.347656 296.921875 609.464844 C 296.921875 606.445312 295.628906 603.425781 293.039062 601.269531 C 289.160156 598.679688 284.847656 597.386719 280.535156 596.957031 L 260.699219 593.503906 C 253.371094 592.640625 246.472656 589.625 241.296875 584.449219 C 236.984375 579.703125 234.398438 573.234375 234.828125 566.761719 C 234.398438 558.136719 238.710938 549.941406 245.609375 544.765625 C 253.800781 539.160156 264.148438 536.140625 274.066406 536.570312 C 281.398438 536.570312 288.726562 537.863281 296.058594 540.453125 C 302.957031 542.609375 309.425781 546.058594 315.460938 550.804688 L 304.25 566.332031 C 299.507812 562.449219 294.335938 559.429688 288.726562 557.273438 C 283.554688 555.550781 278.378906 554.253906 272.773438 554.253906 C 268.03125 554.253906 263.71875 555.117188 259.40625 557.273438 C 256.386719 559 254.234375 562.019531 254.234375 565.46875 C 254.234375 568.058594 255.09375 571.078125 257.683594 572.800781 C 261.132812 574.957031 264.582031 576.253906 268.460938 576.683594 L 287.433594 579.703125 C 295.628906 580.566406 303.390625 584.015625 309.855469 589.191406 C 315.03125 593.9375 317.617188 600.835938 317.1875 607.738281 C 317.617188 616.796875 313.308594 625.855469 305.546875 631.03125 C 296.488281 637.070312 285.710938 640.085938 274.929688 639.65625 C 266.738281 639.65625 258.976562 637.929688 251.214844 634.910156 C 243.453125 631.460938 236.554688 627.148438 230.515625 621.972656 Z M 230.515625 621.972656 "/>
<path style=" stroke:none;fill-rule:nonzero;fill:rgb(96.859741%,58.81958%,27.449036%);fill-opacity:1;" d="M 377.125 629.304688 C 383.160156 629.304688 389.199219 628.011719 394.804688 625.421875 C 400.410156 623.265625 405.152344 619.816406 409.035156 615.503906 L 416.363281 622.835938 C 411.1875 628.011719 405.152344 632.324219 398.683594 634.910156 C 391.785156 637.929688 384.453125 639.226562 377.125 639.226562 C 363.324219 639.226562 349.957031 634.050781 340.472656 624.128906 C 335.730469 619.382812 331.847656 613.777344 329.261719 607.738281 C 324.085938 594.800781 324.085938 580.132812 329.261719 567.195312 C 331.847656 561.15625 335.730469 555.550781 340.472656 550.804688 C 350.390625 541.316406 363.757812 535.707031 377.554688 536.140625 C 384.886719 536.140625 392.648438 537.433594 399.546875 540.453125 C 406.015625 543.039062 412.050781 547.355469 417.226562 552.53125 L 409.894531 560.292969 C 406.015625 555.980469 400.839844 552.53125 395.234375 549.941406 C 389.628906 547.355469 383.59375 546.492188 377.554688 546.492188 C 371.949219 546.492188 366.777344 547.355469 361.601562 549.941406 C 356.859375 552.097656 352.546875 554.6875 348.664062 558.566406 C 344.785156 562.449219 342.199219 566.761719 340.042969 571.507812 C 335.730469 581.859375 335.730469 593.503906 340.042969 604.289062 C 342.199219 609.03125 344.785156 613.347656 348.664062 617.226562 C 352.546875 620.679688 356.859375 623.699219 361.601562 625.855469 C 366.34375 628.011719 371.519531 629.304688 377.125 629.304688 Z M 377.125 629.304688 "/>
<path style=" stroke:none;fill-rule:nonzero;fill:rgb(96.859741%,58.81958%,27.449036%);fill-opacity:1;" d="M 441.375 535.277344 L 441.375 637.5 L 431.023438 637.5 L 431.023438 537.863281 Z M 441.375 535.277344 "/>
<path style=" stroke:none;fill-rule:nonzero;fill:rgb(96.859741%,58.81958%,27.449036%);fill-opacity:1;" d="M 456.035156 602.132812 C 456.035156 592.210938 459.914062 582.722656 466.8125 575.820312 C 481.042969 561.585938 503.898438 561.585938 518.128906 575.390625 C 518.128906 575.390625 518.558594 575.820312 518.558594 575.820312 C 528.90625 586.605469 531.925781 602.996094 526.320312 616.796875 C 524.59375 621.109375 522.007812 625.421875 518.558594 628.441406 C 504.328125 642.675781 481.042969 642.675781 466.8125 628.441406 C 463.363281 624.992188 460.777344 621.109375 459.050781 616.796875 C 457.328125 612.050781 456.035156 606.875 456.035156 602.132812 Z M 492.6875 629.734375 C 496.136719 629.734375 499.585938 628.875 503.035156 627.578125 C 506.054688 626.285156 509.070312 624.128906 511.226562 621.542969 C 513.816406 618.953125 515.539062 615.933594 516.832031 612.484375 C 519.421875 605.582031 519.421875 597.820312 516.832031 590.484375 C 515.539062 587.464844 513.816406 584.449219 511.226562 581.859375 C 509.070312 579.273438 506.054688 577.546875 503.035156 575.820312 C 496.566406 573.234375 489.238281 573.234375 482.769531 575.820312 C 479.75 577.113281 476.730469 579.273438 474.574219 581.859375 C 472.417969 584.449219 470.265625 587.464844 468.96875 590.484375 C 467.675781 593.9375 466.8125 597.816406 466.8125 601.269531 C 466.8125 605.152344 467.246094 608.601562 468.96875 612.050781 C 470.265625 615.503906 471.988281 618.523438 474.574219 621.109375 C 476.730469 623.699219 479.75 625.855469 482.769531 627.148438 C 485.785156 628.875 489.238281 629.734375 492.6875 629.734375 Z M 492.6875 629.734375 "/>
<path style=" stroke:none;fill-rule:nonzero;fill:rgb(96.859741%,58.81958%,27.449036%);fill-opacity:1;" d="M 553.917969 566.332031 L 553.917969 609.464844 C 553.484375 615.070312 555.640625 620.246094 559.089844 624.558594 C 562.972656 628.441406 568.144531 630.597656 573.75 630.167969 C 577.632812 630.167969 581.945312 629.304688 585.394531 627.148438 C 588.84375 624.992188 591.429688 622.402344 593.585938 618.953125 L 593.585938 566.332031 L 603.9375 566.332031 L 603.9375 637.929688 L 593.585938 637.929688 L 593.585938 629.734375 C 591 632.753906 587.550781 635.34375 583.667969 637.070312 C 579.789062 638.792969 575.476562 639.65625 571.164062 639.65625 C 556.503906 640.519531 544 628.875 543.566406 614.640625 C 543.566406 613.777344 543.566406 612.914062 543.566406 612.050781 L 543.566406 566.761719 L 553.917969 566.761719 Z M 553.917969 566.332031 "/>
<path style=" stroke:none;fill-rule:nonzero;fill:rgb(96.859741%,58.81958%,27.449036%);fill-opacity:1;" d="M 678.101562 637.929688 L 678.101562 630.167969 C 675.082031 633.1875 671.632812 635.34375 667.753906 636.636719 C 663.871094 637.929688 659.5625 638.792969 655.25 638.792969 C 650.503906 638.792969 645.761719 637.929688 641.019531 635.773438 C 636.707031 634.050781 632.828125 631.460938 629.808594 628.011719 C 626.359375 624.558594 623.769531 620.679688 622.046875 616.363281 C 618.164062 606.875 618.164062 596.523438 622.046875 587.464844 C 625.496094 578.839844 632.394531 571.507812 641.019531 568.058594 C 645.332031 566.332031 650.503906 565.039062 655.25 565.039062 C 659.5625 565.039062 663.441406 565.902344 667.324219 567.195312 C 671.203125 568.488281 675.082031 570.644531 678.101562 573.234375 L 678.101562 537.863281 L 688.449219 535.277344 L 688.449219 637.5 Z M 629.375 601.699219 C 629.375 605.582031 630.238281 609.03125 631.53125 612.914062 C 632.828125 615.933594 634.550781 618.953125 637.136719 621.542969 C 641.882812 626.71875 648.78125 629.734375 656.109375 629.734375 C 660.421875 629.734375 664.734375 628.875 668.617188 627.148438 C 672.496094 625.421875 675.515625 622.835938 678.101562 619.816406 L 678.101562 584.449219 C 675.515625 581.429688 672.066406 578.839844 668.617188 577.113281 C 664.734375 575.390625 660.421875 574.527344 656.109375 574.527344 C 649.210938 574.527344 642.3125 577.113281 637.136719 582.289062 C 631.964844 587.464844 628.945312 594.367188 629.375 601.699219 Z M 629.375 601.699219 "/>
<g clip-path="url(#clip1)" clip-rule="nonzero">
<path style=" stroke:none;fill-rule:nonzero;fill:rgb(100%,100%,100%);fill-opacity:1;" d="M 241.726562 667.261719 L 277.949219 712.980469 L 277.949219 667.261719 L 285.277344 667.261719 L 285.277344 726.785156 L 280.105469 726.785156 L 243.453125 681.496094 L 243.453125 726.785156 L 236.121094 726.785156 L 236.121094 667.261719 Z M 241.726562 667.261719 "/>
</g>
<g clip-path="url(#clip2)" clip-rule="nonzero">
<path style=" stroke:none;fill-rule:nonzero;fill:rgb(100%,100%,100%);fill-opacity:1;" d="M 336.160156 719.882812 C 334.003906 722.46875 331.417969 724.195312 328.398438 725.488281 C 325.378906 726.785156 321.929688 727.214844 318.480469 727.214844 C 312.445312 727.644531 306.839844 725.488281 302.527344 721.175781 C 293.902344 712.550781 293.902344 698.316406 302.957031 689.691406 C 311.582031 681.0625 325.8125 681.0625 334.4375 690.121094 C 338.746094 695.296875 340.472656 701.765625 339.179688 708.238281 L 303.390625 708.238281 C 303.820312 711.6875 305.546875 715.136719 308.132812 717.292969 C 311.152344 719.449219 314.601562 720.746094 318.480469 720.746094 C 321.070312 720.746094 323.65625 720.3125 325.8125 719.449219 C 327.96875 718.589844 330.125 717.292969 331.417969 715.570312 Z M 332.28125 702.628906 C 332.28125 699.179688 330.554688 695.726562 327.96875 693.570312 C 324.949219 691.414062 321.5 690.121094 318.050781 690.121094 C 314.601562 690.121094 311.152344 691.414062 308.132812 693.570312 C 305.113281 695.726562 303.390625 699.179688 302.957031 702.628906 Z M 332.28125 702.628906 "/>
</g>
<g clip-path="url(#clip3)" clip-rule="nonzero">
<path style=" stroke:none;fill-rule:nonzero;fill:rgb(100%,100%,100%);fill-opacity:1;" d="M 359.875 684.945312 L 372.8125 684.945312 L 372.8125 690.984375 L 359.875 690.984375 L 359.875 712.980469 C 359.875 718.15625 362.03125 721.175781 366.34375 721.175781 C 368.5 721.175781 370.226562 720.746094 371.949219 719.449219 L 374.105469 725.058594 C 371.519531 726.351562 368.933594 726.785156 365.914062 727.214844 C 356.859375 727.214844 352.546875 722.46875 352.546875 712.980469 L 352.546875 690.984375 L 343.921875 690.984375 L 343.921875 684.945312 L 352.113281 684.945312 L 352.113281 673.300781 L 359.015625 672.4375 L 359.015625 684.945312 Z M 359.875 684.945312 "/>
</g>
<g clip-path="url(#clip4)" clip-rule="nonzero">
<path style=" stroke:none;fill-rule:nonzero;fill:rgb(100%,100%,100%);fill-opacity:1;" d="M 385.75 684.515625 L 396.960938 719.019531 L 408.171875 684.515625 L 413.777344 684.515625 L 424.988281 719.019531 L 436.199219 684.515625 L 443.960938 684.515625 L 429.300781 726.351562 L 421.539062 726.351562 L 415.933594 710.824219 L 411.621094 695.726562 L 406.878906 710.824219 L 400.839844 726.785156 L 393.078125 726.785156 L 377.988281 684.515625 Z M 385.75 684.515625 "/>
</g>
<g clip-path="url(#clip5)" clip-rule="nonzero">
<path style=" stroke:none;fill-rule:nonzero;fill:rgb(100%,100%,100%);fill-opacity:1;" d="M 454.742188 689.691406 C 462.933594 681.0625 476.300781 680.199219 485.355469 688.394531 C 490.097656 692.707031 492.6875 699.179688 492.253906 705.648438 C 492.6875 711.6875 490.097656 717.292969 486.21875 721.175781 C 477.59375 729.371094 463.796875 729.371094 455.171875 721.175781 C 450.859375 716.863281 448.703125 711.253906 449.136719 705.648438 C 448.703125 700.042969 450.859375 694.003906 454.742188 689.691406 Z M 481.042969 694.433594 C 475.007812 688.828125 465.519531 688.828125 459.914062 694.433594 C 456.898438 697.453125 455.601562 701.335938 455.601562 705.648438 C 455.601562 709.53125 456.898438 713.84375 459.914062 716.433594 C 465.953125 722.039062 475.007812 722.039062 481.042969 716.433594 C 484.0625 713.414062 485.355469 709.53125 485.355469 705.648438 C 485.785156 701.765625 484.0625 697.453125 481.042969 694.433594 Z M 481.042969 694.433594 "/>
</g>
<g clip-path="url(#clip6)" clip-rule="nonzero">
<path style=" stroke:none;fill-rule:nonzero;fill:rgb(100%,100%,100%);fill-opacity:1;" d="M 509.070312 684.515625 L 509.503906 690.984375 C 512.089844 686.238281 517.265625 683.652344 522.4375 684.082031 C 525.886719 684.082031 529.339844 684.945312 532.355469 687.101562 L 529.339844 693.140625 C 524.164062 689.691406 517.695312 690.121094 513.382812 694.433594 C 510.796875 697.023438 509.503906 700.042969 509.933594 703.492188 L 509.933594 726.785156 L 503.035156 726.785156 L 503.035156 684.515625 Z M 509.070312 684.515625 "/>
</g>
<g clip-path="url(#clip7)" clip-rule="nonzero">
<path style=" stroke:none;fill-rule:nonzero;fill:rgb(100%,100%,100%);fill-opacity:1;" d="M 545.722656 702.199219 L 562.972656 684.515625 L 571.597656 684.515625 L 571.597656 684.945312 L 552.191406 704.355469 L 573.75 725.921875 L 573.75 726.351562 L 565.128906 726.351562 L 545.292969 706.511719 L 545.292969 726.351562 L 538.824219 726.351562 L 538.824219 667.261719 L 545.722656 667.261719 Z M 545.722656 702.199219 "/>
</g>
<g clip-path="url(#clip8)" clip-rule="nonzero">
<path style=" stroke:none;fill-rule:nonzero;fill:rgb(96.859741%,58.81958%,27.449036%);fill-opacity:1;" d="M 724.996094 393.980469 C 724.007812 452.5 676.25 499.183594 617.957031 499.183594 C 613.015625 499.183594 477.976562 498.199219 475.011719 498.199219 C 440.761719 498.199219 455.582031 459.734375 455.582031 459.734375 L 494.445312 390.691406 L 494.445312 390.363281 C 504.328125 375.898438 512.890625 362.089844 519.476562 349.925781 C 520.136719 348.609375 520.792969 347.296875 521.453125 346.308594 L 544.179688 375.242188 C 546.15625 377.871094 549.449219 378.527344 552.082031 377.214844 C 554.058594 376.226562 555.378906 373.925781 555.378906 371.625 L 555.707031 361.105469 L 558.011719 306.199219 C 558.011719 304.554688 559 302.910156 560.648438 301.925781 C 577.773438 291.078125 597.535156 285.488281 617.957031 285.488281 C 677.570312 285.816406 725.65625 334.144531 725.328125 393.652344 C 724.996094 393.652344 724.996094 393.652344 724.996094 393.980469 Z M 724.996094 393.980469 "/>
</g>
<path style=" stroke:none;fill-rule:nonzero;fill:rgb(95.689392%,52.938843%,14.509583%);fill-opacity:1;" d="M 199.011719 498.199219 C 198.351562 498.199219 197.691406 498.527344 196.703125 498.527344 C 192.421875 498.855469 188.46875 499.183594 184.847656 499.183594 L 184.1875 499.183594 C 130.175781 499.183594 86.039062 455.128906 86.371094 401.214844 C 86.371094 355.515625 117.988281 316.0625 162.78125 305.871094 C 179.90625 391.019531 254.011719 453.160156 341.292969 454.800781 C 296.828125 478.144531 248.742188 492.9375 199.011719 498.199219 Z M 199.011719 498.199219 "/>
<g clip-path="url(#clip9)" clip-rule="nonzero">
<path style=" stroke:none;fill-rule:nonzero;fill:rgb(100%,39.99939%,0%);fill-opacity:1;" d="M 469.742188 337.105469 L 499.714844 337.433594 C 477.648438 359.132812 444.710938 386.089844 410.457031 410.417969 C 398.601562 418.964844 386.746094 426.855469 375.21875 434.417969 C 363.691406 441.980469 352.164062 448.554688 340.964844 454.472656 C 317.910156 454.144531 295.183594 449.214844 273.773438 440.664062 C 178.917969 401.542969 133.46875 293.050781 172.660156 198.035156 C 211.855469 103.023438 320.542969 58.308594 415.398438 97.105469 C 483.90625 125.378906 529.027344 191.460938 530.675781 265.433594 C 530.675781 267.40625 529.6875 269.378906 528.371094 270.691406 L 465.132812 323.953125 C 463.15625 325.597656 462.167969 327.898438 462.496094 330.527344 C 462.828125 334.144531 466.121094 337.105469 469.742188 337.105469 Z M 469.742188 337.105469 "/>
</g>
<path style=" stroke:none;fill-rule:nonzero;fill:rgb(100%,39.99939%,0%);fill-opacity:1;" d="M 224.910156 587.898438 C 224.910156 594.800781 223.617188 601.699219 221.03125 608.601562 C 218.875 614.640625 214.992188 620.246094 210.679688 624.992188 C 205.9375 629.734375 200.761719 633.1875 194.726562 635.773438 C 188.257812 638.363281 181.789062 639.65625 174.890625 639.65625 C 167.5625 639.65625 160.660156 638.363281 154.195312 635.773438 C 141.6875 630.597656 131.339844 621.109375 126.164062 608.601562 C 123.148438 602.132812 121.855469 595.230469 121.855469 588.328125 C 121.855469 574.527344 127.460938 561.15625 136.945312 551.667969 C 141.6875 546.921875 147.292969 543.472656 153.761719 540.882812 C 160.230469 538.296875 167.5625 537.003906 174.460938 537.003906 C 182.652344 537.003906 190.414062 538.726562 197.746094 542.179688 C 204.644531 545.195312 211.113281 549.941406 215.855469 555.980469 L 201.625 569.351562 C 198.175781 565.46875 194.296875 562.019531 189.550781 559.863281 C 184.808594 557.707031 179.636719 556.410156 174.460938 556.410156 C 161.523438 556.410156 149.882812 564.175781 145.570312 576.253906 C 143.84375 580.566406 142.984375 584.878906 143.414062 589.191406 C 143.414062 593.503906 144.277344 597.820312 146 602.132812 C 149.019531 609.894531 155.054688 616.367188 162.816406 619.382812 C 166.699219 621.109375 171.011719 621.972656 175.324219 621.972656 C 181.789062 621.972656 188.257812 620.246094 193.433594 615.933594 C 198.175781 612.484375 201.625 606.875 202.917969 600.835938 L 173.597656 600.835938 L 173.597656 582.722656 L 225.34375 582.722656 Z M 224.910156 587.898438 "/>
<path style=" stroke:none;fill-rule:nonzero;fill:rgb(100%,39.99939%,0%);fill-opacity:1;" d="M 230.515625 621.972656 L 242.589844 607.308594 C 247.765625 611.621094 253.371094 615.503906 259.40625 618.523438 C 265.011719 620.679688 270.617188 621.972656 276.65625 621.972656 C 281.828125 622.402344 287.003906 621.109375 291.316406 618.523438 C 294.765625 616.796875 296.921875 613.347656 296.921875 609.464844 C 296.921875 606.445312 295.628906 603.425781 293.039062 601.269531 C 289.160156 598.679688 284.847656 597.386719 280.535156 596.957031 L 260.699219 593.503906 C 253.371094 592.640625 246.472656 589.625 241.296875 584.449219 C 236.984375 579.703125 234.398438 573.234375 234.828125 566.761719 C 234.398438 558.136719 238.710938 549.941406 245.609375 544.765625 C 253.800781 539.160156 264.148438 536.140625 274.066406 536.570312 C 281.398438 536.570312 288.726562 537.863281 296.058594 540.453125 C 302.957031 542.609375 309.425781 546.058594 315.460938 550.804688 L 304.25 566.332031 C 299.507812 562.449219 294.335938 559.429688 288.726562 557.273438 C 283.554688 555.550781 278.378906 554.253906 272.773438 554.253906 C 268.03125 554.253906 263.71875 555.117188 259.40625 557.273438 C 256.386719 559 254.234375 562.019531 254.234375 565.46875 C 254.234375 568.058594 255.09375 571.078125 257.683594 572.800781 C 261.132812 574.957031 264.582031 576.253906 268.460938 576.683594 L 287.433594 579.703125 C 295.628906 580.566406 303.390625 584.015625 309.855469 589.191406 C 315.03125 593.9375 317.617188 600.835938 317.1875 607.738281 C 317.617188 616.796875 313.308594 625.855469 305.546875 631.03125 C 296.488281 637.070312 285.710938 640.085938 274.929688 639.65625 C 266.738281 639.65625 258.976562 637.929688 251.214844 634.910156 C 243.453125 631.460938 236.554688 627.148438 230.515625 621.972656 Z M 230.515625 621.972656 "/>
</g>
</svg>
