<?xml version="1.0" encoding="UTF-8"?>
<svg xmlns="http://www.w3.org/2000/svg" xmlns:xlink="http://www.w3.org/1999/xlink" width="810pt" height="809.999993pt" viewBox="0 0 810 809.999993" version="1.2">
<defs>
<g>
<symbol overflow="visible" id="glyph0-0">
<path style="stroke:none;" d="M 5.546875 9.25 L 5.546875 -69.328125 L 41.96875 -69.328125 L 41.96875 9.25 Z M 5.546875 9.25 "/>
</symbol>
<symbol overflow="visible" id="glyph0-1">
<path style="stroke:none;" d="M 70.0625 -32.265625 C 70.0625 -27.515625 69.242188 -23.085938 67.609375 -18.984375 C 65.984375 -14.890625 63.738281 -11.378906 60.875 -8.453125 C 58.007812 -5.523438 54.570312 -3.210938 50.5625 -1.515625 C 46.5625 0.171875 42.25 1.015625 37.625 1.015625 C 32.8125 1.015625 28.3125 0.15625 24.125 -1.5625 C 19.9375 -3.289062 16.316406 -5.648438 13.265625 -8.640625 C 10.210938 -11.628906 7.789062 -15.15625 6 -19.21875 C 4.21875 -23.289062 3.328125 -27.671875 3.328125 -32.359375 C 3.328125 -37.035156 4.203125 -41.40625 5.953125 -45.46875 C 7.710938 -49.539062 10.117188 -53.070312 13.171875 -56.0625 C 16.222656 -59.050781 19.84375 -61.40625 24.03125 -63.125 C 28.21875 -64.851562 32.6875 -65.71875 37.4375 -65.71875 C 42.800781 -65.71875 47.851562 -64.640625 52.59375 -62.484375 C 57.34375 -60.328125 61.257812 -57.367188 64.34375 -53.609375 L 55 -45.015625 C 52.71875 -47.722656 50.082031 -49.800781 47.09375 -51.25 C 44.101562 -52.695312 40.882812 -53.421875 37.4375 -53.421875 C 34.539062 -53.421875 31.84375 -52.878906 29.34375 -51.796875 C 26.851562 -50.722656 24.695312 -49.25 22.875 -47.375 C 21.0625 -45.5 19.644531 -43.28125 18.625 -40.71875 C 17.601562 -38.15625 17.09375 -35.367188 17.09375 -32.359375 C 17.09375 -29.335938 17.617188 -26.53125 18.671875 -23.9375 C 19.722656 -21.351562 21.171875 -19.117188 23.015625 -17.234375 C 24.867188 -15.359375 27.070312 -13.878906 29.625 -12.796875 C 32.1875 -11.722656 34.914062 -11.1875 37.8125 -11.1875 C 42.363281 -11.1875 46.285156 -12.445312 49.578125 -14.96875 C 52.878906 -17.5 54.929688 -20.738281 55.734375 -24.6875 L 36.609375 -24.6875 L 36.609375 -36.328125 L 70.0625 -36.328125 Z M 70.0625 -32.265625 "/>
</symbol>
<symbol overflow="visible" id="glyph0-2">
<path style="stroke:none;" d="M 0.28125 -10.265625 L 7.953125 -19.875 C 11.710938 -16.601562 15.332031 -14.210938 18.8125 -12.703125 C 22.289062 -11.203125 25.972656 -10.453125 29.859375 -10.453125 C 33.859375 -10.453125 37.0625 -11.1875 39.46875 -12.65625 C 41.875 -14.132812 43.078125 -16.109375 43.078125 -18.578125 C 43.078125 -20.796875 42.257812 -22.519531 40.625 -23.75 C 38.988281 -24.988281 36.265625 -25.914062 32.453125 -26.53125 L 19.59375 -28.75 C 14.050781 -29.675781 9.847656 -31.617188 6.984375 -34.578125 C 4.117188 -37.535156 2.6875 -41.351562 2.6875 -46.03125 C 2.6875 -52.070312 4.976562 -56.847656 9.5625 -60.359375 C 14.15625 -63.867188 20.363281 -65.625 28.1875 -65.625 C 32.875 -65.625 37.601562 -64.820312 42.375 -63.21875 C 47.15625 -61.625 51.332031 -59.410156 54.90625 -56.578125 L 47.703125 -46.59375 C 44.242188 -49.238281 40.847656 -51.191406 37.515625 -52.453125 C 34.191406 -53.722656 30.773438 -54.359375 27.265625 -54.359375 C 23.691406 -54.359375 20.828125 -53.691406 18.671875 -52.359375 C 16.515625 -51.035156 15.4375 -49.265625 15.4375 -47.046875 C 15.4375 -45.078125 16.144531 -43.535156 17.5625 -42.421875 C 18.976562 -41.316406 21.351562 -40.519531 24.6875 -40.03125 L 36.875 -37.984375 C 43.289062 -36.941406 48.113281 -34.894531 51.34375 -31.84375 C 54.582031 -28.789062 56.203125 -24.769531 56.203125 -19.78125 C 56.203125 -13.5 53.71875 -8.476562 48.75 -4.71875 C 43.789062 -0.957031 37.1875 0.921875 28.9375 0.921875 C 23.757812 0.921875 18.65625 -0.0625 13.625 -2.03125 C 8.601562 -4 4.15625 -6.742188 0.28125 -10.265625 Z M 0.28125 -10.265625 "/>
</symbol>
<symbol overflow="visible" id="glyph1-0">
<path style="stroke:none;" d="M 5.546875 9.25 L 5.546875 -69.328125 L 41.96875 -69.328125 L 41.96875 9.25 Z M 5.546875 9.25 "/>
</symbol>
<symbol overflow="visible" id="glyph1-1">
<path style="stroke:none;" d="M 7.125 0 L 7.125 -64.703125 L 28.46875 -64.703125 C 33.332031 -64.703125 37.859375 -63.882812 42.046875 -62.25 C 46.242188 -60.625 49.851562 -58.390625 52.875 -55.546875 C 55.894531 -52.710938 58.25 -49.304688 59.9375 -45.328125 C 61.632812 -41.359375 62.484375 -37.035156 62.484375 -32.359375 C 62.484375 -27.671875 61.632812 -23.335938 59.9375 -19.359375 C 58.25 -15.390625 55.910156 -11.988281 52.921875 -9.15625 C 49.929688 -6.320312 46.335938 -4.085938 42.140625 -2.453125 C 37.953125 -0.816406 33.394531 0 28.46875 0 Z M 28.84375 -58.234375 L 14.234375 -58.234375 L 14.234375 -6.46875 L 28.84375 -6.46875 C 32.539062 -6.46875 36.019531 -7.128906 39.28125 -8.453125 C 42.550781 -9.785156 45.351562 -11.601562 47.6875 -13.90625 C 50.03125 -16.21875 51.878906 -18.960938 53.234375 -22.140625 C 54.597656 -25.316406 55.28125 -28.722656 55.28125 -32.359375 C 55.28125 -35.992188 54.597656 -39.394531 53.234375 -42.5625 C 51.878906 -45.738281 50.03125 -48.484375 47.6875 -50.796875 C 45.351562 -53.109375 42.550781 -54.925781 39.28125 -56.25 C 36.019531 -57.570312 32.539062 -58.234375 28.84375 -58.234375 Z M 28.84375 -58.234375 "/>
</symbol>
<symbol overflow="visible" id="glyph1-2">
<path style="stroke:none;" d="M 44.828125 -4.90625 C 42.242188 -2.988281 39.546875 -1.550781 36.734375 -0.59375 C 33.929688 0.351562 30.867188 0.828125 27.546875 0.828125 C 24.222656 0.828125 21.09375 0.210938 18.15625 -1.015625 C 15.226562 -2.242188 12.703125 -3.9375 10.578125 -6.09375 C 8.453125 -8.257812 6.773438 -10.804688 5.546875 -13.734375 C 4.316406 -16.660156 3.703125 -19.816406 3.703125 -23.203125 C 3.703125 -26.523438 4.300781 -29.632812 5.5 -32.53125 C 6.695312 -35.425781 8.3125 -37.953125 10.34375 -40.109375 C 12.382812 -42.273438 14.804688 -43.972656 17.609375 -45.203125 C 20.410156 -46.429688 23.382812 -47.046875 26.53125 -47.046875 C 29.613281 -47.046875 32.492188 -46.429688 35.171875 -45.203125 C 37.847656 -43.972656 40.15625 -42.273438 42.09375 -40.109375 C 44.039062 -37.953125 45.582031 -35.425781 46.71875 -32.53125 C 47.863281 -29.632812 48.4375 -26.523438 48.4375 -23.203125 L 48.4375 -21.078125 L 10.453125 -21.078125 C 10.941406 -16.515625 12.816406 -12.722656 16.078125 -9.703125 C 19.347656 -6.679688 23.265625 -5.171875 27.828125 -5.171875 C 30.222656 -5.171875 32.5625 -5.539062 34.84375 -6.28125 C 37.125 -7.019531 39.035156 -8.066406 40.578125 -9.421875 Z M 26.34375 -41.046875 C 22.34375 -41.046875 18.878906 -39.6875 15.953125 -36.96875 C 13.023438 -34.257812 11.25 -30.78125 10.625 -26.53125 L 41.59375 -26.53125 C 40.976562 -30.59375 39.238281 -34.023438 36.375 -36.828125 C 33.507812 -39.640625 30.164062 -41.046875 26.34375 -41.046875 Z M 26.34375 -41.046875 "/>
</symbol>
<symbol overflow="visible" id="glyph1-3">
<path style="stroke:none;" d="M 1.109375 -6.375 L 5.265625 -10.8125 C 7.359375 -8.84375 9.710938 -7.316406 12.328125 -6.234375 C 14.953125 -5.160156 17.625 -4.625 20.34375 -4.625 C 24.03125 -4.625 27.046875 -5.394531 29.390625 -6.9375 C 31.734375 -8.476562 32.90625 -10.476562 32.90625 -12.9375 C 32.90625 -14.914062 32.210938 -16.472656 30.828125 -17.609375 C 29.441406 -18.742188 27.269531 -19.53125 24.3125 -19.96875 L 16.265625 -21.078125 C 11.648438 -21.753906 8.21875 -23.125 5.96875 -25.1875 C 3.71875 -27.25 2.59375 -30.039062 2.59375 -33.5625 C 2.59375 -37.4375 4.222656 -40.648438 7.484375 -43.203125 C 10.753906 -45.765625 14.914062 -47.046875 19.96875 -47.046875 C 23.289062 -47.046875 26.445312 -46.550781 29.4375 -45.5625 C 32.425781 -44.582031 35.335938 -43.046875 38.171875 -40.953125 L 34.578125 -36.328125 C 31.984375 -38.054688 29.46875 -39.347656 27.03125 -40.203125 C 24.601562 -41.066406 22.125 -41.5 19.59375 -41.5 C 16.445312 -41.5 13.875 -40.789062 11.875 -39.375 C 9.875 -37.957031 8.875 -36.109375 8.875 -33.828125 C 8.875 -31.859375 9.550781 -30.332031 10.90625 -29.25 C 12.257812 -28.175781 14.445312 -27.421875 17.46875 -26.984375 L 25.515625 -25.875 C 30.140625 -25.257812 33.601562 -23.890625 35.90625 -21.765625 C 38.21875 -19.640625 39.375 -16.820312 39.375 -13.3125 C 39.375 -11.34375 38.894531 -9.476562 37.9375 -7.71875 C 36.988281 -5.957031 35.664062 -4.445312 33.96875 -3.1875 C 32.269531 -1.925781 30.28125 -0.941406 28 -0.234375 C 25.726562 0.472656 23.265625 0.828125 20.609375 0.828125 C 16.785156 0.828125 13.195312 0.195312 9.84375 -1.0625 C 6.488281 -2.320312 3.578125 -4.09375 1.109375 -6.375 Z M 1.109375 -6.375 "/>
</symbol>
<symbol overflow="visible" id="glyph1-4">
<path style="stroke:none;" d="M 9.25 -55.1875 C 8.007812 -55.1875 6.925781 -55.644531 6 -56.5625 C 5.082031 -57.488281 4.625 -58.570312 4.625 -59.8125 C 4.625 -61.101562 5.082031 -62.191406 6 -63.078125 C 6.925781 -63.972656 8.007812 -64.421875 9.25 -64.421875 C 10.539062 -64.421875 11.628906 -63.972656 12.515625 -63.078125 C 13.410156 -62.191406 13.859375 -61.101562 13.859375 -59.8125 C 13.859375 -58.570312 13.410156 -57.488281 12.515625 -56.5625 C 11.628906 -55.644531 10.539062 -55.1875 9.25 -55.1875 Z M 12.65625 -46.3125 L 12.65625 0 L 5.828125 0 L 5.828125 -46.3125 Z M 12.65625 -46.3125 "/>
</symbol>
<symbol overflow="visible" id="glyph1-5">
<path style="stroke:none;" d="M 26.8125 0.375 C 23.601562 0.375 20.597656 -0.238281 17.796875 -1.46875 C 14.992188 -2.707031 12.539062 -4.390625 10.4375 -6.515625 C 8.34375 -8.640625 6.695312 -11.148438 5.5 -14.046875 C 4.300781 -16.941406 3.703125 -20.054688 3.703125 -23.390625 C 3.703125 -26.710938 4.300781 -29.820312 5.5 -32.71875 C 6.695312 -35.613281 8.34375 -38.125 10.4375 -40.25 C 12.539062 -42.382812 15.007812 -44.066406 17.84375 -45.296875 C 20.675781 -46.523438 23.722656 -47.140625 26.984375 -47.140625 C 29.640625 -47.140625 32.210938 -46.660156 34.703125 -45.703125 C 37.203125 -44.753906 39.5 -43.414062 41.59375 -41.6875 L 41.59375 -46.3125 L 48.34375 -46.3125 L 48.34375 1.109375 C 48.34375 7.023438 46.613281 11.566406 43.15625 14.734375 C 39.707031 17.910156 34.78125 19.5 28.375 19.5 C 25.175781 19.5 22.003906 19.082031 18.859375 18.25 C 15.710938 17.425781 12.847656 16.242188 10.265625 14.703125 L 13.21875 9.34375 C 15.988281 10.820312 18.5625 11.898438 20.9375 12.578125 C 23.3125 13.253906 25.695312 13.59375 28.09375 13.59375 C 32.476562 13.59375 35.804688 12.539062 38.078125 10.4375 C 40.359375 8.34375 41.5 5.265625 41.5 1.203125 L 41.5 -4.984375 C 39.40625 -3.265625 37.109375 -1.941406 34.609375 -1.015625 C 32.117188 -0.0859375 29.519531 0.375 26.8125 0.375 Z M 10.453125 -23.390625 C 10.453125 -20.921875 10.878906 -18.59375 11.734375 -16.40625 C 12.597656 -14.21875 13.785156 -12.335938 15.296875 -10.765625 C 16.804688 -9.191406 18.609375 -7.941406 20.703125 -7.015625 C 22.796875 -6.097656 25.015625 -5.640625 27.359375 -5.640625 C 30.316406 -5.640625 33.023438 -6.191406 35.484375 -7.296875 C 37.953125 -8.410156 39.957031 -9.984375 41.5 -12.015625 L 41.5 -34.75 C 39.957031 -36.726562 37.9375 -38.269531 35.4375 -39.375 C 32.945312 -40.488281 30.253906 -41.046875 27.359375 -41.046875 C 24.953125 -41.046875 22.71875 -40.597656 20.65625 -39.703125 C 18.59375 -38.804688 16.804688 -37.554688 15.296875 -35.953125 C 13.785156 -34.359375 12.597656 -32.476562 11.734375 -30.3125 C 10.878906 -28.15625 10.453125 -25.847656 10.453125 -23.390625 Z M 10.453125 -23.390625 "/>
</symbol>
<symbol overflow="visible" id="glyph1-6">
<path style="stroke:none;" d="M 5.828125 0 L 5.828125 -46.3125 L 12.65625 -46.3125 L 12.65625 -40.859375 C 14.445312 -42.953125 16.570312 -44.535156 19.03125 -45.609375 C 21.5 -46.691406 24.242188 -47.234375 27.265625 -47.234375 C 32.503906 -47.234375 36.785156 -45.566406 40.109375 -42.234375 C 43.441406 -38.910156 45.109375 -34.597656 45.109375 -29.296875 L 45.109375 0 L 38.359375 0 L 38.359375 -27.921875 C 38.359375 -31.984375 37.1875 -35.21875 34.84375 -37.625 C 32.507812 -40.03125 29.367188 -41.234375 25.421875 -41.234375 C 22.648438 -41.234375 20.171875 -40.613281 17.984375 -39.375 C 15.796875 -38.144531 14.019531 -36.390625 12.65625 -34.109375 L 12.65625 0 Z M 5.828125 0 "/>
</symbol>
<symbol overflow="visible" id="glyph2-0">
<path style="stroke:none;" d="M 2.015625 3.359375 L 2.015625 -25.234375 L 15.265625 -25.234375 L 15.265625 3.359375 Z M 2.015625 3.359375 "/>
</symbol>
<symbol overflow="visible" id="glyph2-1">
<path style="stroke:none;" d="M 0.375 -4.03125 L 2.078125 -5.8125 C 3.296875 -4.539062 4.59375 -3.570312 5.96875 -2.90625 C 7.351562 -2.25 8.804688 -1.921875 10.328125 -1.921875 C 12.171875 -1.921875 13.6875 -2.359375 14.875 -3.234375 C 16.0625 -4.109375 16.65625 -5.21875 16.65625 -6.5625 C 16.65625 -7.769531 16.234375 -8.695312 15.390625 -9.34375 C 14.546875 -10 13.160156 -10.484375 11.234375 -10.796875 L 7.84375 -11.34375 C 5.570312 -11.695312 3.898438 -12.359375 2.828125 -13.328125 C 1.753906 -14.304688 1.21875 -15.628906 1.21875 -17.296875 C 1.21875 -19.242188 1.976562 -20.820312 3.5 -22.03125 C 5.019531 -23.238281 7.015625 -23.84375 9.484375 -23.84375 C 11.117188 -23.84375 12.742188 -23.570312 14.359375 -23.03125 C 15.972656 -22.5 17.441406 -21.726562 18.765625 -20.71875 L 17.296875 -18.703125 C 16.015625 -19.671875 14.710938 -20.398438 13.390625 -20.890625 C 12.066406 -21.378906 10.734375 -21.625 9.390625 -21.625 C 7.703125 -21.625 6.335938 -21.238281 5.296875 -20.46875 C 4.253906 -19.695312 3.734375 -18.707031 3.734375 -17.5 C 3.734375 -16.394531 4.101562 -15.550781 4.84375 -14.96875 C 5.582031 -14.382812 6.804688 -13.957031 8.515625 -13.6875 L 11.875 -13.15625 C 14.425781 -12.726562 16.289062 -12 17.46875 -10.96875 C 18.65625 -9.9375 19.25 -8.507812 19.25 -6.6875 C 19.25 -5.65625 19.03125 -4.707031 18.59375 -3.84375 C 18.15625 -2.988281 17.535156 -2.25 16.734375 -1.625 C 15.941406 -1.007812 14.988281 -0.523438 13.875 -0.171875 C 12.769531 0.171875 11.554688 0.34375 10.234375 0.34375 C 8.367188 0.34375 6.578125 -0.03125 4.859375 -0.78125 C 3.140625 -1.539062 1.644531 -2.625 0.375 -4.03125 Z M 0.375 -4.03125 "/>
</symbol>
<symbol overflow="visible" id="glyph2-2">
<path style="stroke:none;" d="M 4.203125 -3.765625 L 4.203125 -14.734375 L 0.578125 -14.734375 L 0.578125 -16.859375 L 4.203125 -16.859375 L 4.203125 -21.125 L 6.65625 -21.765625 L 6.65625 -16.859375 L 11.734375 -16.859375 L 11.734375 -14.734375 L 6.65625 -14.734375 L 6.65625 -4.40625 C 6.65625 -3.507812 6.859375 -2.863281 7.265625 -2.46875 C 7.671875 -2.082031 8.332031 -1.890625 9.25 -1.890625 C 9.71875 -1.890625 10.132812 -1.921875 10.5 -1.984375 C 10.875 -2.046875 11.273438 -2.160156 11.703125 -2.328125 L 11.703125 -0.140625 C 11.273438 0.015625 10.796875 0.125 10.265625 0.1875 C 9.742188 0.257812 9.238281 0.296875 8.75 0.296875 C 7.289062 0.296875 6.164062 -0.046875 5.375 -0.734375 C 4.59375 -1.429688 4.203125 -2.441406 4.203125 -3.765625 Z M 4.203125 -3.765625 "/>
</symbol>
<symbol overflow="visible" id="glyph2-3">
<path style="stroke:none;" d="M 4.515625 -16.859375 L 4.515625 -6.6875 C 4.515625 -5.207031 4.9375 -4.03125 5.78125 -3.15625 C 6.632812 -2.28125 7.78125 -1.84375 9.21875 -1.84375 C 10.226562 -1.84375 11.128906 -2.070312 11.921875 -2.53125 C 12.722656 -3 13.367188 -3.644531 13.859375 -4.46875 L 13.859375 -16.859375 L 16.34375 -16.859375 L 16.34375 0 L 13.859375 0 L 13.859375 -1.953125 C 13.210938 -1.191406 12.445312 -0.617188 11.5625 -0.234375 C 10.675781 0.148438 9.679688 0.34375 8.578125 0.34375 C 6.648438 0.34375 5.078125 -0.257812 3.859375 -1.46875 C 2.648438 -2.6875 2.046875 -4.257812 2.046875 -6.1875 L 2.046875 -16.859375 Z M 4.515625 -16.859375 "/>
</symbol>
<symbol overflow="visible" id="glyph2-4">
<path style="stroke:none;" d="M 15.265625 0 L 15.265625 -1.78125 C 14.554688 -1.113281 13.734375 -0.601562 12.796875 -0.25 C 11.867188 0.09375 10.878906 0.265625 9.828125 0.265625 C 8.640625 0.265625 7.523438 0.0390625 6.484375 -0.40625 C 5.453125 -0.851562 4.554688 -1.460938 3.796875 -2.234375 C 3.035156 -3.003906 2.4375 -3.925781 2 -5 C 1.5625 -6.082031 1.34375 -7.226562 1.34375 -8.4375 C 1.34375 -9.65625 1.5625 -10.796875 2 -11.859375 C 2.4375 -12.921875 3.035156 -13.835938 3.796875 -14.609375 C 4.554688 -15.390625 5.457031 -16.003906 6.5 -16.453125 C 7.550781 -16.898438 8.671875 -17.125 9.859375 -17.125 C 10.816406 -17.125 11.757812 -16.957031 12.6875 -16.625 C 13.625 -16.300781 14.472656 -15.828125 15.234375 -15.203125 L 15.234375 -23.546875 L 17.734375 -24.125 L 17.734375 0 Z M 3.796875 -8.484375 C 3.796875 -7.554688 3.957031 -6.6875 4.28125 -5.875 C 4.613281 -5.070312 5.054688 -4.378906 5.609375 -3.796875 C 6.171875 -3.210938 6.832031 -2.753906 7.59375 -2.421875 C 8.363281 -2.085938 9.1875 -1.921875 10.0625 -1.921875 C 11.113281 -1.921875 12.09375 -2.125 13 -2.53125 C 13.90625 -2.945312 14.648438 -3.523438 15.234375 -4.265625 L 15.234375 -12.609375 C 14.648438 -13.328125 13.898438 -13.894531 12.984375 -14.3125 C 12.066406 -14.726562 11.09375 -14.9375 10.0625 -14.9375 C 8.3125 -14.9375 6.828125 -14.316406 5.609375 -13.078125 C 4.398438 -11.847656 3.796875 -10.316406 3.796875 -8.484375 Z M 3.796875 -8.484375 "/>
</symbol>
<symbol overflow="visible" id="glyph2-5">
<path style="stroke:none;" d="M 3.359375 -20.078125 C 2.910156 -20.078125 2.519531 -20.242188 2.1875 -20.578125 C 1.851562 -20.921875 1.6875 -21.316406 1.6875 -21.765625 C 1.6875 -22.234375 1.851562 -22.628906 2.1875 -22.953125 C 2.519531 -23.285156 2.910156 -23.453125 3.359375 -23.453125 C 3.835938 -23.453125 4.238281 -23.285156 4.5625 -22.953125 C 4.882812 -22.628906 5.046875 -22.234375 5.046875 -21.765625 C 5.046875 -21.316406 4.882812 -20.921875 4.5625 -20.578125 C 4.238281 -20.242188 3.835938 -20.078125 3.359375 -20.078125 Z M 4.609375 -16.859375 L 4.609375 0 L 2.125 0 L 2.125 -16.859375 Z M 4.609375 -16.859375 "/>
</symbol>
<symbol overflow="visible" id="glyph2-6">
<path style="stroke:none;" d="M 1.34375 -8.4375 C 1.34375 -9.65625 1.566406 -10.800781 2.015625 -11.875 C 2.460938 -12.945312 3.070312 -13.875 3.84375 -14.65625 C 4.625 -15.445312 5.539062 -16.066406 6.59375 -16.515625 C 7.644531 -16.960938 8.765625 -17.1875 9.953125 -17.1875 C 11.140625 -17.1875 12.253906 -16.960938 13.296875 -16.515625 C 14.347656 -16.066406 15.257812 -15.445312 16.03125 -14.65625 C 16.800781 -13.875 17.410156 -12.945312 17.859375 -11.875 C 18.304688 -10.800781 18.53125 -9.65625 18.53125 -8.4375 C 18.53125 -7.207031 18.304688 -6.050781 17.859375 -4.96875 C 17.410156 -3.894531 16.800781 -2.96875 16.03125 -2.1875 C 15.257812 -1.40625 14.347656 -0.785156 13.296875 -0.328125 C 12.253906 0.117188 11.140625 0.34375 9.953125 0.34375 C 8.765625 0.34375 7.644531 0.117188 6.59375 -0.328125 C 5.539062 -0.785156 4.625 -1.40625 3.84375 -2.1875 C 3.070312 -2.96875 2.460938 -3.894531 2.015625 -4.96875 C 1.566406 -6.050781 1.34375 -7.207031 1.34375 -8.4375 Z M 9.953125 -1.890625 C 10.804688 -1.890625 11.609375 -2.054688 12.359375 -2.390625 C 13.109375 -2.722656 13.757812 -3.1875 14.3125 -3.78125 C 14.863281 -4.375 15.296875 -5.066406 15.609375 -5.859375 C 15.921875 -6.660156 16.078125 -7.519531 16.078125 -8.4375 C 16.078125 -9.363281 15.921875 -10.222656 15.609375 -11.015625 C 15.296875 -11.816406 14.863281 -12.503906 14.3125 -13.078125 C 13.757812 -13.660156 13.109375 -14.117188 12.359375 -14.453125 C 11.609375 -14.796875 10.804688 -14.96875 9.953125 -14.96875 C 9.097656 -14.96875 8.296875 -14.796875 7.546875 -14.453125 C 6.796875 -14.117188 6.144531 -13.660156 5.59375 -13.078125 C 5.050781 -12.503906 4.613281 -11.816406 4.28125 -11.015625 C 3.957031 -10.222656 3.796875 -9.363281 3.796875 -8.4375 C 3.796875 -7.519531 3.953125 -6.660156 4.265625 -5.859375 C 4.585938 -5.066406 5.019531 -4.375 5.5625 -3.78125 C 6.113281 -3.1875 6.769531 -2.722656 7.53125 -2.390625 C 8.289062 -2.054688 9.097656 -1.890625 9.953125 -1.890625 Z M 9.953125 -1.890625 "/>
</symbol>
</g>
<clipPath id="clip1">
  <path d="M 439 340 L 642.574219 340 L 642.574219 500 L 439 500 Z M 439 340 "/>
</clipPath>
<clipPath id="clip2">
  <path d="M 167.074219 355 L 358 355 L 358 500 L 167.074219 500 Z M 167.074219 355 "/>
</clipPath>
<clipPath id="clip3">
  <path d="M 221 189.402344 L 498 189.402344 L 498 467 L 221 467 Z M 221 189.402344 "/>
</clipPath>
</defs>
<g id="surface1">
<g style="fill:rgb(100%,39.99939%,0%);fill-opacity:1;">
  <use xlink:href="#glyph0-1" x="144.774687" y="598.481807"/>
</g>
<g style="fill:rgb(100%,39.99939%,0%);fill-opacity:1;">
  <use xlink:href="#glyph0-2" x="218.164364" y="598.481807"/>
</g>
<g style="fill:rgb(100%,100%,100%);fill-opacity:1;">
  <use xlink:href="#glyph1-1" x="276.560142" y="598.481807"/>
</g>
<g style="fill:rgb(100%,100%,100%);fill-opacity:1;">
  <use xlink:href="#glyph1-2" x="343.109979" y="598.481807"/>
</g>
<g style="fill:rgb(100%,100%,100%);fill-opacity:1;">
  <use xlink:href="#glyph1-3" x="395.240694" y="598.481807"/>
</g>
<g style="fill:rgb(100%,100%,100%);fill-opacity:1;">
  <use xlink:href="#glyph1-4" x="436.464626" y="598.481807"/>
</g>
<g style="fill:rgb(100%,100%,100%);fill-opacity:1;">
  <use xlink:href="#glyph1-5" x="454.95069" y="598.481807"/>
</g>
<g style="fill:rgb(100%,100%,100%);fill-opacity:1;">
  <use xlink:href="#glyph1-6" x="509.114864" y="598.481807"/>
</g>
<g style="fill:rgb(100%,39.99939%,0%);fill-opacity:1;">
  <use xlink:href="#glyph2-1" x="567.859319" y="597.549429"/>
</g>
<g style="fill:rgb(100%,39.99939%,0%);fill-opacity:1;">
  <use xlink:href="#glyph2-2" x="588.043509" y="597.549429"/>
</g>
<g style="fill:rgb(100%,39.99939%,0%);fill-opacity:1;">
  <use xlink:href="#glyph2-3" x="600.322228" y="597.549429"/>
</g>
<g style="fill:rgb(100%,39.99939%,0%);fill-opacity:1;">
  <use xlink:href="#glyph2-4" x="618.790769" y="597.549429"/>
</g>
<g style="fill:rgb(100%,39.99939%,0%);fill-opacity:1;">
  <use xlink:href="#glyph2-5" x="638.638556" y="597.549429"/>
</g>
<g style="fill:rgb(100%,39.99939%,0%);fill-opacity:1;">
  <use xlink:href="#glyph2-6" x="645.366619" y="597.549429"/>
</g>
<g clip-path="url(#clip1)" clip-rule="nonzero">
<path style=" stroke:none;fill-rule:nonzero;fill:rgb(92.939758%,92.939758%,92.158508%);fill-opacity:1;" d="M 642.335938 421.128906 C 641.601562 464.777344 606.097656 499.597656 562.757812 499.597656 C 559.085938 499.597656 458.695312 498.863281 456.488281 498.863281 C 431.023438 498.863281 442.042969 470.171875 442.042969 470.171875 L 470.9375 418.679688 L 470.9375 418.433594 C 478.28125 407.644531 484.648438 397.34375 489.546875 388.269531 C 490.035156 387.289062 490.523438 386.308594 491.015625 385.574219 L 507.910156 407.152344 C 509.378906 409.113281 511.828125 409.605469 513.785156 408.625 C 515.253906 407.886719 516.234375 406.171875 516.234375 404.457031 L 516.480469 396.609375 L 518.195312 355.65625 C 518.195312 354.429688 518.929688 353.207031 520.152344 352.46875 C 532.886719 344.378906 547.574219 340.210938 562.757812 340.210938 C 607.074219 340.453125 642.824219 376.5 642.578125 420.886719 C 642.335938 420.886719 642.335938 420.886719 642.335938 421.128906 Z M 642.335938 421.128906 "/>
</g>
<g clip-path="url(#clip2)" clip-rule="nonzero">
<path style=" stroke:none;fill-rule:nonzero;fill:rgb(92.939758%,92.939758%,92.158508%);fill-opacity:1;" d="M 251.300781 498.863281 C 250.8125 498.863281 250.320312 499.109375 249.585938 499.109375 C 246.402344 499.355469 243.464844 499.597656 240.773438 499.597656 L 240.28125 499.597656 C 200.125 499.597656 167.316406 466.742188 167.5625 426.523438 C 167.5625 392.441406 191.066406 363.015625 224.367188 355.414062 C 237.101562 418.921875 292.191406 465.269531 357.078125 466.496094 C 324.023438 483.90625 288.273438 494.941406 251.300781 498.863281 Z M 251.300781 498.863281 "/>
</g>
<g clip-path="url(#clip3)" clip-rule="nonzero">
<path style=" stroke:none;fill-rule:nonzero;fill:rgb(100%,100%,100%);fill-opacity:1;" d="M 452.574219 378.707031 L 474.855469 378.953125 C 458.449219 395.136719 433.964844 415.246094 408.5 433.390625 C 399.683594 439.765625 390.867188 445.652344 382.300781 451.292969 C 373.730469 456.933594 365.160156 461.835938 356.832031 466.25 C 339.695312 466.003906 322.800781 462.328125 306.882812 455.949219 C 236.363281 426.769531 202.574219 345.847656 231.714844 274.980469 C 260.851562 204.113281 341.652344 170.765625 412.171875 199.699219 C 463.101562 220.789062 496.644531 270.078125 497.871094 325.25 C 497.871094 326.722656 497.136719 328.195312 496.15625 329.175781 L 449.144531 368.898438 C 447.675781 370.125 446.941406 371.84375 447.183594 373.804688 C 447.429688 376.5 449.878906 378.707031 452.574219 378.707031 Z M 452.574219 378.707031 "/>
</g>
</g>
</svg>
