<?xml version="1.0" encoding="UTF-8"?>
<svg xmlns="http://www.w3.org/2000/svg" xmlns:xlink="http://www.w3.org/1999/xlink" width="810pt" height="809.999993pt" viewBox="0 0 810 809.999993" version="1.2">
<defs>
<clipPath id="clip1">
  <path d="M 462 381 L 800.257812 381 L 800.257812 646 L 462 646 Z M 462 381 "/>
</clipPath>
<clipPath id="clip2">
  <path d="M 99 130.679688 L 560 130.679688 L 560 591 L 99 591 Z M 99 130.679688 "/>
</clipPath>
</defs>
<g id="surface1">
<g clip-path="url(#clip1)" clip-rule="nonzero">
<path style=" stroke:none;fill-rule:nonzero;fill:rgb(96.859741%,58.81958%,27.449036%);fill-opacity:1;" d="M 799.875 515.613281 C 798.65625 588.117188 739.628906 645.960938 667.578125 645.960938 C 661.472656 645.960938 494.574219 644.738281 490.914062 644.738281 C 448.578125 644.738281 466.894531 597.078125 466.894531 597.078125 L 514.929688 511.539062 L 514.929688 511.128906 C 527.140625 493.207031 537.726562 476.101562 545.867188 461.027344 C 546.679688 459.398438 547.496094 457.769531 548.308594 456.546875 L 576.394531 492.394531 C 578.839844 495.652344 582.910156 496.464844 586.164062 494.835938 C 588.609375 493.617188 590.238281 490.765625 590.238281 487.914062 L 590.644531 474.878906 L 593.492188 406.851562 C 593.492188 404.816406 594.714844 402.777344 596.75 401.558594 C 617.917969 388.113281 642.339844 381.191406 667.578125 381.191406 C 741.257812 381.597656 800.691406 441.476562 800.28125 515.203125 C 799.875 515.203125 799.875 515.203125 799.875 515.613281 Z M 799.875 515.613281 "/>
</g>
<path style=" stroke:none;fill-rule:nonzero;fill:rgb(95.689392%,52.938843%,14.509583%);fill-opacity:1;" d="M 149.789062 644.738281 C 148.976562 644.738281 148.164062 645.144531 146.941406 645.144531 C 141.648438 645.550781 136.765625 645.960938 132.285156 645.960938 L 131.472656 645.960938 C 64.714844 645.960938 10.167969 591.375 10.574219 524.574219 C 10.574219 467.953125 49.652344 419.074219 105.011719 406.445312 C 126.179688 511.945312 217.769531 588.933594 325.644531 590.96875 C 270.691406 619.890625 211.257812 638.21875 149.789062 644.738281 Z M 149.789062 644.738281 "/>
<g clip-path="url(#clip2)" clip-rule="nonzero">
<path style=" stroke:none;fill-rule:nonzero;fill:rgb(100%,39.99939%,0%);fill-opacity:1;" d="M 484.398438 445.140625 L 521.441406 445.550781 C 494.167969 472.433594 453.460938 505.835938 411.128906 535.976562 C 396.472656 546.570312 381.820312 556.34375 367.570312 565.714844 C 353.324219 575.082031 339.078125 583.230469 325.238281 590.5625 C 296.742188 590.152344 268.652344 584.042969 242.195312 573.453125 C 124.960938 524.980469 68.785156 390.558594 117.226562 272.839844 C 165.667969 155.117188 300 99.71875 417.234375 147.785156 C 501.902344 182.816406 557.671875 264.691406 559.707031 356.34375 C 559.707031 358.785156 558.484375 361.230469 556.855469 362.859375 L 478.699219 428.847656 C 476.257812 430.886719 475.035156 433.738281 475.445312 436.996094 C 475.851562 441.476562 479.921875 445.140625 484.398438 445.140625 Z M 484.398438 445.140625 "/>
</g>
</g>
</svg>
