<?xml version="1.0" encoding="UTF-8"?>
<svg xmlns="http://www.w3.org/2000/svg" xmlns:xlink="http://www.w3.org/1999/xlink" width="810pt" height="809.999993pt" viewBox="0 0 810 809.999993" version="1.2">
<defs>
<g>
<symbol overflow="visible" id="glyph0-0">
<path style="stroke:none;" d="M 8.453125 14.09375 L 8.453125 -105.75 L 64.015625 -105.75 L 64.015625 14.09375 Z M 8.453125 14.09375 "/>
</symbol>
<symbol overflow="visible" id="glyph0-1">
<path style="stroke:none;" d="M 106.875 -49.203125 C 106.875 -41.972656 105.628906 -35.226562 103.140625 -28.96875 C 100.648438 -22.71875 97.21875 -17.359375 92.84375 -12.890625 C 88.476562 -8.429688 83.238281 -4.910156 77.125 -2.328125 C 71.019531 0.253906 64.441406 1.546875 57.390625 1.546875 C 50.054688 1.546875 43.191406 0.234375 36.796875 -2.390625 C 30.410156 -5.023438 24.890625 -8.617188 20.234375 -13.171875 C 15.578125 -17.734375 11.882812 -23.117188 9.15625 -29.328125 C 6.4375 -35.535156 5.078125 -42.207031 5.078125 -49.34375 C 5.078125 -56.488281 6.414062 -63.160156 9.09375 -69.359375 C 11.769531 -75.566406 15.4375 -80.953125 20.09375 -85.515625 C 24.75 -90.078125 30.269531 -93.671875 36.65625 -96.296875 C 43.050781 -98.929688 49.867188 -100.25 57.109375 -100.25 C 65.285156 -100.25 72.992188 -98.601562 80.234375 -95.3125 C 87.472656 -92.019531 93.441406 -87.507812 98.140625 -81.78125 L 83.890625 -68.671875 C 80.410156 -72.804688 76.390625 -75.976562 71.828125 -78.1875 C 67.273438 -80.394531 62.367188 -81.5 57.109375 -81.5 C 52.691406 -81.5 48.578125 -80.675781 44.765625 -79.03125 C 40.960938 -77.382812 37.671875 -75.128906 34.890625 -72.265625 C 32.117188 -69.398438 29.957031 -66.015625 28.40625 -62.109375 C 26.851562 -58.210938 26.078125 -53.957031 26.078125 -49.34375 C 26.078125 -44.738281 26.875 -40.460938 28.46875 -36.515625 C 30.070312 -32.566406 32.285156 -29.160156 35.109375 -26.296875 C 37.929688 -23.429688 41.289062 -21.175781 45.1875 -19.53125 C 49.09375 -17.882812 53.253906 -17.0625 57.671875 -17.0625 C 64.628906 -17.0625 70.617188 -18.988281 75.640625 -22.84375 C 80.671875 -26.695312 83.796875 -31.628906 85.015625 -37.640625 L 55.84375 -37.640625 L 55.84375 -55.40625 L 106.875 -55.40625 Z M 106.875 -49.203125 "/>
</symbol>
<symbol overflow="visible" id="glyph0-2">
<path style="stroke:none;" d="M 0.421875 -15.65625 L 12.125 -30.3125 C 17.863281 -25.332031 23.382812 -21.691406 28.6875 -19.390625 C 34 -17.085938 39.617188 -15.9375 45.546875 -15.9375 C 51.648438 -15.9375 56.535156 -17.0625 60.203125 -19.3125 C 63.867188 -21.570312 65.703125 -24.582031 65.703125 -28.34375 C 65.703125 -31.726562 64.457031 -34.359375 61.96875 -36.234375 C 59.476562 -38.117188 55.316406 -39.53125 49.484375 -40.46875 L 29.890625 -43.84375 C 21.429688 -45.257812 15.015625 -48.222656 10.640625 -52.734375 C 6.273438 -57.242188 4.09375 -63.070312 4.09375 -70.21875 C 4.09375 -79.425781 7.59375 -86.707031 14.59375 -92.0625 C 21.59375 -97.425781 31.0625 -100.109375 43 -100.109375 C 50.144531 -100.109375 57.359375 -98.882812 64.640625 -96.4375 C 71.929688 -94 78.300781 -90.617188 83.75 -86.296875 L 72.75 -71.0625 C 67.488281 -75.101562 62.316406 -78.085938 57.234375 -80.015625 C 52.160156 -81.941406 46.945312 -82.90625 41.59375 -82.90625 C 36.144531 -82.90625 31.773438 -81.894531 28.484375 -79.875 C 25.191406 -77.851562 23.546875 -75.148438 23.546875 -71.765625 C 23.546875 -68.753906 24.625 -66.40625 26.78125 -64.71875 C 28.945312 -63.03125 32.566406 -61.804688 37.640625 -61.046875 L 56.265625 -57.953125 C 66.035156 -56.347656 73.390625 -53.21875 78.328125 -48.5625 C 83.265625 -43.914062 85.734375 -37.785156 85.734375 -30.171875 C 85.734375 -20.585938 81.945312 -12.925781 74.375 -7.1875 C 66.8125 -1.457031 56.734375 1.40625 44.140625 1.40625 C 36.234375 1.40625 28.453125 -0.09375 20.796875 -3.09375 C 13.140625 -6.101562 6.347656 -10.289062 0.421875 -15.65625 Z M 0.421875 -15.65625 "/>
</symbol>
<symbol overflow="visible" id="glyph1-0">
<path style="stroke:none;" d="M 8.453125 14.09375 L 8.453125 -105.75 L 64.015625 -105.75 L 64.015625 14.09375 Z M 8.453125 14.09375 "/>
</symbol>
<symbol overflow="visible" id="glyph1-1">
<path style="stroke:none;" d="M 10.859375 0 L 10.859375 -98.703125 L 43.421875 -98.703125 C 50.847656 -98.703125 57.757812 -97.457031 64.15625 -94.96875 C 70.550781 -92.476562 76.050781 -89.066406 80.65625 -84.734375 C 85.257812 -80.410156 88.851562 -75.21875 91.4375 -69.15625 C 94.019531 -63.09375 95.3125 -56.488281 95.3125 -49.34375 C 95.3125 -42.207031 94.019531 -35.601562 91.4375 -29.53125 C 88.851562 -23.46875 85.28125 -18.273438 80.71875 -13.953125 C 76.164062 -9.628906 70.691406 -6.222656 64.296875 -3.734375 C 57.898438 -1.242188 50.941406 0 43.421875 0 Z M 43.984375 -88.828125 L 21.71875 -88.828125 L 21.71875 -9.875 L 43.984375 -9.875 C 49.628906 -9.875 54.941406 -10.882812 59.921875 -12.90625 C 64.898438 -14.925781 69.175781 -17.695312 72.75 -21.21875 C 76.320312 -24.75 79.140625 -28.929688 81.203125 -33.765625 C 83.273438 -38.609375 84.3125 -43.800781 84.3125 -49.34375 C 84.3125 -54.894531 83.273438 -60.085938 81.203125 -64.921875 C 79.140625 -69.765625 76.320312 -73.945312 72.75 -77.46875 C 69.175781 -81 64.898438 -83.773438 59.921875 -85.796875 C 54.941406 -87.816406 49.628906 -88.828125 43.984375 -88.828125 Z M 43.984375 -88.828125 "/>
</symbol>
<symbol overflow="visible" id="glyph1-2">
<path style="stroke:none;" d="M 68.390625 -7.46875 C 64.441406 -4.5625 60.328125 -2.378906 56.046875 -0.921875 C 51.765625 0.535156 47.085938 1.265625 42.015625 1.265625 C 36.941406 1.265625 32.171875 0.328125 27.703125 -1.546875 C 23.242188 -3.429688 19.390625 -6.015625 16.140625 -9.296875 C 12.898438 -12.585938 10.335938 -16.46875 8.453125 -20.9375 C 6.578125 -25.40625 5.640625 -30.222656 5.640625 -35.390625 C 5.640625 -40.460938 6.554688 -45.207031 8.390625 -49.625 C 10.222656 -54.050781 12.6875 -57.90625 15.78125 -61.1875 C 18.882812 -64.476562 22.578125 -67.0625 26.859375 -68.9375 C 31.140625 -70.820312 35.675781 -71.765625 40.46875 -71.765625 C 45.164062 -71.765625 49.554688 -70.820312 53.640625 -68.9375 C 57.734375 -67.0625 61.257812 -64.476562 64.21875 -61.1875 C 67.1875 -57.90625 69.539062 -54.050781 71.28125 -49.625 C 73.019531 -45.207031 73.890625 -40.460938 73.890625 -35.390625 L 73.890625 -32.140625 L 15.9375 -32.140625 C 16.6875 -25.191406 19.550781 -19.410156 24.53125 -14.796875 C 29.507812 -10.191406 35.476562 -7.890625 42.4375 -7.890625 C 46.101562 -7.890625 49.675781 -8.453125 53.15625 -9.578125 C 56.632812 -10.710938 59.550781 -12.3125 61.90625 -14.375 Z M 40.1875 -62.609375 C 34.070312 -62.609375 28.78125 -60.539062 24.3125 -56.40625 C 19.851562 -52.269531 17.15625 -46.957031 16.21875 -40.46875 L 63.453125 -40.46875 C 62.515625 -46.664062 59.859375 -51.90625 55.484375 -56.1875 C 51.109375 -60.46875 46.007812 -62.609375 40.1875 -62.609375 Z M 40.1875 -62.609375 "/>
</symbol>
<symbol overflow="visible" id="glyph1-3">
<path style="stroke:none;" d="M 1.6875 -9.734375 L 8.03125 -16.5 C 11.226562 -13.488281 14.820312 -11.160156 18.8125 -9.515625 C 22.8125 -7.867188 26.878906 -7.046875 31.015625 -7.046875 C 36.660156 -7.046875 41.269531 -8.21875 44.84375 -10.5625 C 48.414062 -12.914062 50.203125 -15.972656 50.203125 -19.734375 C 50.203125 -22.742188 49.140625 -25.117188 47.015625 -26.859375 C 44.898438 -28.597656 41.585938 -29.796875 37.078125 -30.453125 L 24.8125 -32.140625 C 17.757812 -33.179688 12.519531 -35.273438 9.09375 -38.421875 C 5.664062 -41.566406 3.953125 -45.820312 3.953125 -51.1875 C 3.953125 -57.101562 6.441406 -62.007812 11.421875 -65.90625 C 16.398438 -69.8125 22.742188 -71.765625 30.453125 -71.765625 C 35.523438 -71.765625 40.34375 -71.007812 44.90625 -69.5 C 49.46875 -68 53.910156 -65.65625 58.234375 -62.46875 L 52.734375 -55.40625 C 48.785156 -58.039062 44.953125 -60.015625 41.234375 -61.328125 C 37.523438 -62.648438 33.742188 -63.3125 29.890625 -63.3125 C 25.097656 -63.3125 21.171875 -62.226562 18.109375 -60.0625 C 15.054688 -57.90625 13.53125 -55.085938 13.53125 -51.609375 C 13.53125 -48.597656 14.5625 -46.269531 16.625 -44.625 C 18.695312 -42.976562 22.039062 -41.828125 26.65625 -41.171875 L 38.921875 -39.484375 C 45.960938 -38.535156 51.242188 -36.441406 54.765625 -33.203125 C 58.296875 -29.960938 60.0625 -25.660156 60.0625 -20.296875 C 60.0625 -17.296875 59.332031 -14.453125 57.875 -11.765625 C 56.414062 -9.085938 54.394531 -6.785156 51.8125 -4.859375 C 49.226562 -2.929688 46.195312 -1.425781 42.71875 -0.34375 C 39.238281 0.726562 35.476562 1.265625 31.4375 1.265625 C 25.613281 1.265625 20.140625 0.300781 15.015625 -1.625 C 9.890625 -3.550781 5.445312 -6.253906 1.6875 -9.734375 Z M 1.6875 -9.734375 "/>
</symbol>
<symbol overflow="visible" id="glyph1-4">
<path style="stroke:none;" d="M 14.09375 -84.171875 C 12.21875 -84.171875 10.570312 -84.875 9.15625 -86.28125 C 7.75 -87.695312 7.046875 -89.347656 7.046875 -91.234375 C 7.046875 -93.203125 7.75 -94.867188 9.15625 -96.234375 C 10.570312 -97.597656 12.21875 -98.28125 14.09375 -98.28125 C 16.070312 -98.28125 17.742188 -97.597656 19.109375 -96.234375 C 20.472656 -94.867188 21.15625 -93.203125 21.15625 -91.234375 C 21.15625 -89.347656 20.472656 -87.695312 19.109375 -86.28125 C 17.742188 -84.875 16.070312 -84.171875 14.09375 -84.171875 Z M 19.3125 -70.640625 L 19.3125 0 L 8.890625 0 L 8.890625 -70.640625 Z M 19.3125 -70.640625 "/>
</symbol>
<symbol overflow="visible" id="glyph1-5">
<path style="stroke:none;" d="M 40.890625 0.5625 C 36.003906 0.5625 31.421875 -0.375 27.140625 -2.25 C 22.867188 -4.132812 19.132812 -6.695312 15.9375 -9.9375 C 12.738281 -13.1875 10.222656 -17.019531 8.390625 -21.4375 C 6.554688 -25.851562 5.640625 -30.597656 5.640625 -35.671875 C 5.640625 -40.742188 6.554688 -45.488281 8.390625 -49.90625 C 10.222656 -54.332031 12.738281 -58.164062 15.9375 -61.40625 C 19.132812 -64.644531 22.894531 -67.203125 27.21875 -69.078125 C 31.539062 -70.960938 36.191406 -71.90625 41.171875 -71.90625 C 45.210938 -71.90625 49.132812 -71.175781 52.9375 -69.71875 C 56.75 -68.257812 60.253906 -66.21875 63.453125 -63.59375 L 63.453125 -70.640625 L 73.75 -70.640625 L 73.75 1.6875 C 73.75 10.71875 71.113281 17.648438 65.84375 22.484375 C 60.582031 27.328125 53.0625 29.75 43.28125 29.75 C 38.394531 29.75 33.554688 29.113281 28.765625 27.84375 C 23.972656 26.570312 19.601562 24.765625 15.65625 22.421875 L 20.15625 14.234375 C 24.394531 16.492188 28.320312 18.140625 31.9375 19.171875 C 35.550781 20.210938 39.191406 20.734375 42.859375 20.734375 C 49.535156 20.734375 54.613281 19.132812 58.09375 15.9375 C 61.570312 12.738281 63.3125 8.035156 63.3125 1.828125 L 63.3125 -7.609375 C 60.113281 -4.984375 56.609375 -2.960938 52.796875 -1.546875 C 48.992188 -0.140625 45.023438 0.5625 40.890625 0.5625 Z M 15.9375 -35.671875 C 15.9375 -31.910156 16.59375 -28.359375 17.90625 -25.015625 C 19.21875 -21.679688 21.023438 -18.816406 23.328125 -16.421875 C 25.640625 -14.023438 28.390625 -12.117188 31.578125 -10.703125 C 34.773438 -9.296875 38.160156 -8.59375 41.734375 -8.59375 C 46.242188 -8.59375 50.378906 -9.4375 54.140625 -11.125 C 57.898438 -12.820312 60.957031 -15.222656 63.3125 -18.328125 L 63.3125 -53.015625 C 60.957031 -56.023438 57.875 -58.375 54.0625 -60.0625 C 50.257812 -61.757812 46.148438 -62.609375 41.734375 -62.609375 C 38.066406 -62.609375 34.660156 -61.925781 31.515625 -60.5625 C 28.367188 -59.195312 25.640625 -57.289062 23.328125 -54.84375 C 21.023438 -52.40625 19.21875 -49.539062 17.90625 -46.25 C 16.59375 -42.957031 15.9375 -39.429688 15.9375 -35.671875 Z M 15.9375 -35.671875 "/>
</symbol>
<symbol overflow="visible" id="glyph1-6">
<path style="stroke:none;" d="M 8.890625 0 L 8.890625 -70.640625 L 19.3125 -70.640625 L 19.3125 -62.328125 C 22.039062 -65.515625 25.285156 -67.929688 29.046875 -69.578125 C 32.804688 -71.222656 36.988281 -72.046875 41.59375 -72.046875 C 49.582031 -72.046875 56.113281 -69.507812 61.1875 -64.4375 C 66.269531 -59.363281 68.8125 -52.785156 68.8125 -44.703125 L 68.8125 0 L 58.515625 0 L 58.515625 -42.578125 C 58.515625 -48.785156 56.726562 -53.722656 53.15625 -57.390625 C 49.582031 -61.054688 44.789062 -62.890625 38.78125 -62.890625 C 34.550781 -62.890625 30.765625 -61.945312 27.421875 -60.0625 C 24.085938 -58.1875 21.382812 -55.507812 19.3125 -52.03125 L 19.3125 0 Z M 8.890625 0 "/>
</symbol>
<symbol overflow="visible" id="glyph2-0">
<path style="stroke:none;" d="M 2.234375 3.734375 L 2.234375 -27.984375 L 16.9375 -27.984375 L 16.9375 3.734375 Z M 2.234375 3.734375 "/>
</symbol>
<symbol overflow="visible" id="glyph2-1">
<path style="stroke:none;" d="M 2.875 0 L 2.875 -26.125 L 11.5 -26.125 C 13.457031 -26.125 15.28125 -25.789062 16.96875 -25.125 C 18.664062 -24.46875 20.125 -23.566406 21.34375 -22.421875 C 22.5625 -21.273438 23.507812 -19.898438 24.1875 -18.296875 C 24.875 -16.691406 25.21875 -14.945312 25.21875 -13.0625 C 25.21875 -11.164062 24.875 -9.414062 24.1875 -7.8125 C 23.507812 -6.207031 22.566406 -4.832031 21.359375 -3.6875 C 20.148438 -2.550781 18.703125 -1.648438 17.015625 -0.984375 C 15.328125 -0.328125 13.488281 0 11.5 0 Z M 11.640625 -23.5 L 5.75 -23.5 L 5.75 -2.609375 L 11.640625 -2.609375 C 13.128906 -2.609375 14.53125 -2.875 15.84375 -3.40625 C 17.164062 -3.945312 18.300781 -4.679688 19.25 -5.609375 C 20.195312 -6.546875 20.941406 -7.65625 21.484375 -8.9375 C 22.035156 -10.21875 22.3125 -11.59375 22.3125 -13.0625 C 22.3125 -14.53125 22.035156 -15.90625 21.484375 -17.1875 C 20.941406 -18.46875 20.195312 -19.570312 19.25 -20.5 C 18.300781 -21.4375 17.164062 -22.171875 15.84375 -22.703125 C 14.53125 -23.234375 13.128906 -23.5 11.640625 -23.5 Z M 11.640625 -23.5 "/>
</symbol>
<symbol overflow="visible" id="glyph2-2">
<path style="stroke:none;" d="M 3.734375 -22.28125 C 3.234375 -22.28125 2.796875 -22.460938 2.421875 -22.828125 C 2.046875 -23.203125 1.859375 -23.640625 1.859375 -24.140625 C 1.859375 -24.660156 2.046875 -25.097656 2.421875 -25.453125 C 2.796875 -25.816406 3.234375 -26 3.734375 -26 C 4.253906 -26 4.691406 -25.816406 5.046875 -25.453125 C 5.410156 -25.097656 5.59375 -24.660156 5.59375 -24.140625 C 5.59375 -23.640625 5.410156 -23.203125 5.046875 -22.828125 C 4.691406 -22.460938 4.253906 -22.28125 3.734375 -22.28125 Z M 5.109375 -18.6875 L 5.109375 0 L 2.34375 0 L 2.34375 -18.6875 Z M 5.109375 -18.6875 "/>
</symbol>
<symbol overflow="visible" id="glyph2-3">
<path style="stroke:none;" d="M 10.828125 0.15625 C 9.523438 0.15625 8.304688 -0.09375 7.171875 -0.59375 C 6.046875 -1.09375 5.0625 -1.769531 4.21875 -2.625 C 3.375 -3.488281 2.707031 -4.503906 2.21875 -5.671875 C 1.738281 -6.835938 1.5 -8.09375 1.5 -9.4375 C 1.5 -10.78125 1.738281 -12.035156 2.21875 -13.203125 C 2.707031 -14.378906 3.375 -15.394531 4.21875 -16.25 C 5.0625 -17.101562 6.054688 -17.78125 7.203125 -18.28125 C 8.347656 -18.78125 9.578125 -19.03125 10.890625 -19.03125 C 11.960938 -19.03125 13 -18.835938 14 -18.453125 C 15.007812 -18.066406 15.941406 -17.523438 16.796875 -16.828125 L 16.796875 -18.6875 L 19.515625 -18.6875 L 19.515625 0.453125 C 19.515625 2.835938 18.816406 4.671875 17.421875 5.953125 C 16.023438 7.234375 14.035156 7.875 11.453125 7.875 C 10.160156 7.875 8.878906 7.703125 7.609375 7.359375 C 6.335938 7.023438 5.179688 6.550781 4.140625 5.9375 L 5.328125 3.765625 C 6.453125 4.367188 7.492188 4.804688 8.453125 5.078125 C 9.410156 5.347656 10.375 5.484375 11.34375 5.484375 C 13.113281 5.484375 14.457031 5.0625 15.375 4.21875 C 16.289062 3.375 16.75 2.128906 16.75 0.484375 L 16.75 -2.015625 C 15.90625 -1.316406 14.976562 -0.78125 13.96875 -0.40625 C 12.96875 -0.03125 11.921875 0.15625 10.828125 0.15625 Z M 4.21875 -9.4375 C 4.21875 -8.445312 4.390625 -7.507812 4.734375 -6.625 C 5.085938 -5.738281 5.566406 -4.976562 6.171875 -4.34375 C 6.785156 -3.707031 7.515625 -3.203125 8.359375 -2.828125 C 9.203125 -2.460938 10.097656 -2.28125 11.046875 -2.28125 C 12.234375 -2.28125 13.328125 -2.503906 14.328125 -2.953125 C 15.328125 -3.398438 16.132812 -4.03125 16.75 -4.84375 L 16.75 -14.03125 C 16.132812 -14.820312 15.320312 -15.441406 14.3125 -15.890625 C 13.300781 -16.335938 12.210938 -16.5625 11.046875 -16.5625 C 10.078125 -16.5625 9.175781 -16.378906 8.34375 -16.015625 C 7.507812 -15.660156 6.785156 -15.160156 6.171875 -14.515625 C 5.566406 -13.867188 5.085938 -13.109375 4.734375 -12.234375 C 4.390625 -11.367188 4.21875 -10.4375 4.21875 -9.4375 Z M 4.21875 -9.4375 "/>
</symbol>
<symbol overflow="visible" id="glyph2-4">
<path style="stroke:none;" d="M 4.671875 -4.171875 L 4.671875 -16.34375 L 0.640625 -16.34375 L 0.640625 -18.6875 L 4.671875 -18.6875 L 4.671875 -23.4375 L 7.390625 -24.140625 L 7.390625 -18.6875 L 13.015625 -18.6875 L 13.015625 -16.34375 L 7.390625 -16.34375 L 7.390625 -4.890625 C 7.390625 -3.890625 7.613281 -3.171875 8.0625 -2.734375 C 8.507812 -2.304688 9.242188 -2.09375 10.265625 -2.09375 C 10.785156 -2.09375 11.25 -2.128906 11.65625 -2.203125 C 12.070312 -2.273438 12.515625 -2.398438 12.984375 -2.578125 L 12.984375 -0.15625 C 12.515625 0.0195312 11.984375 0.144531 11.390625 0.21875 C 10.804688 0.289062 10.242188 0.328125 9.703125 0.328125 C 8.085938 0.328125 6.84375 -0.0546875 5.96875 -0.828125 C 5.101562 -1.597656 4.671875 -2.710938 4.671875 -4.171875 Z M 4.671875 -4.171875 "/>
</symbol>
<symbol overflow="visible" id="glyph2-5">
<path style="stroke:none;" d="M 8.25 0.328125 C 6.207031 0.328125 4.546875 -0.191406 3.265625 -1.234375 C 1.984375 -2.273438 1.34375 -3.628906 1.34375 -5.296875 C 1.34375 -7.035156 2.015625 -8.421875 3.359375 -9.453125 C 4.703125 -10.484375 6.519531 -11 8.8125 -11 C 9.800781 -11 10.757812 -10.882812 11.6875 -10.65625 C 12.625 -10.4375 13.492188 -10.128906 14.296875 -9.734375 L 14.296875 -12.203125 C 14.296875 -13.691406 13.867188 -14.816406 13.015625 -15.578125 C 12.171875 -16.335938 10.941406 -16.71875 9.328125 -16.71875 C 8.410156 -16.71875 7.484375 -16.585938 6.546875 -16.328125 C 5.617188 -16.066406 4.59375 -15.648438 3.46875 -15.078125 L 2.421875 -17.203125 C 3.765625 -17.847656 5.007812 -18.316406 6.15625 -18.609375 C 7.300781 -18.910156 8.445312 -19.0625 9.59375 -19.0625 C 11.957031 -19.0625 13.78125 -18.5 15.0625 -17.375 C 16.34375 -16.257812 16.984375 -14.660156 16.984375 -12.578125 L 16.984375 0 L 14.296875 0 L 14.296875 -1.828125 C 13.441406 -1.109375 12.507812 -0.566406 11.5 -0.203125 C 10.5 0.148438 9.414062 0.328125 8.25 0.328125 Z M 4 -5.375 C 4 -4.332031 4.4375 -3.476562 5.3125 -2.8125 C 6.195312 -2.15625 7.335938 -1.828125 8.734375 -1.828125 C 9.847656 -1.828125 10.863281 -2 11.78125 -2.34375 C 12.707031 -2.695312 13.546875 -3.25 14.296875 -4 L 14.296875 -7.5 C 13.523438 -8.019531 12.695312 -8.398438 11.8125 -8.640625 C 10.925781 -8.878906 9.945312 -9 8.875 -9 C 7.382812 -9 6.195312 -8.664062 5.3125 -8 C 4.4375 -7.34375 4 -6.46875 4 -5.375 Z M 4 -5.375 "/>
</symbol>
<symbol overflow="visible" id="glyph2-6">
<path style="stroke:none;" d="M 5.109375 -26.75 L 5.109375 0 L 2.34375 0 L 2.34375 -26.125 Z M 5.109375 -26.75 "/>
</symbol>
<symbol overflow="visible" id="glyph2-7">
<path style="stroke:none;" d=""/>
</symbol>
<symbol overflow="visible" id="glyph2-8">
<path style="stroke:none;" d="M 15.78125 -1.859375 L 5.5625 -22.796875 L 5.5625 0 L 2.875 0 L 2.875 -26.125 L 6.90625 -26.125 L 15.828125 -7.578125 L 24.703125 -26.125 L 28.734375 -26.125 L 28.734375 0 L 26 0 L 26 -22.828125 Z M 15.78125 -1.859375 "/>
</symbol>
<symbol overflow="visible" id="glyph2-9">
<path style="stroke:none;" d="M 2.34375 0 L 2.34375 -18.6875 L 5.109375 -18.6875 L 5.109375 -16.046875 C 5.660156 -17.015625 6.382812 -17.765625 7.28125 -18.296875 C 8.175781 -18.835938 9.191406 -19.109375 10.328125 -19.109375 C 10.679688 -19.109375 10.992188 -19.085938 11.265625 -19.046875 C 11.535156 -19.003906 11.8125 -18.9375 12.09375 -18.84375 L 12.09375 -16.3125 C 11.769531 -16.40625 11.445312 -16.484375 11.125 -16.546875 C 10.800781 -16.609375 10.476562 -16.640625 10.15625 -16.640625 C 9.007812 -16.640625 8 -16.304688 7.125 -15.640625 C 6.257812 -14.984375 5.585938 -14.035156 5.109375 -12.796875 L 5.109375 0 Z M 2.34375 0 "/>
</symbol>
<symbol overflow="visible" id="glyph2-10">
<path style="stroke:none;" d="M 2.34375 0 L 2.34375 -26.125 L 5.109375 -26.75 L 5.109375 -10.265625 L 14.890625 -18.6875 L 18.25 -18.6875 L 7.984375 -9.8125 L 18.734375 0 L 14.96875 0 L 5.109375 -8.953125 L 5.109375 0 Z M 2.34375 0 "/>
</symbol>
<symbol overflow="visible" id="glyph2-11">
<path style="stroke:none;" d="M 18.09375 -1.984375 C 17.050781 -1.210938 15.960938 -0.632812 14.828125 -0.25 C 13.703125 0.132812 12.46875 0.328125 11.125 0.328125 C 9.78125 0.328125 8.515625 0.0820312 7.328125 -0.40625 C 6.148438 -0.90625 5.128906 -1.585938 4.265625 -2.453125 C 3.410156 -3.328125 2.734375 -4.351562 2.234375 -5.53125 C 1.742188 -6.71875 1.5 -7.992188 1.5 -9.359375 C 1.5 -10.703125 1.738281 -11.957031 2.21875 -13.125 C 2.707031 -14.300781 3.359375 -15.320312 4.171875 -16.1875 C 4.992188 -17.0625 5.972656 -17.742188 7.109375 -18.234375 C 8.242188 -18.734375 9.441406 -18.984375 10.703125 -18.984375 C 11.953125 -18.984375 13.117188 -18.734375 14.203125 -18.234375 C 15.285156 -17.742188 16.21875 -17.0625 17 -16.1875 C 17.78125 -15.320312 18.398438 -14.300781 18.859375 -13.125 C 19.316406 -11.957031 19.546875 -10.703125 19.546875 -9.359375 L 19.546875 -8.5 L 4.21875 -8.5 C 4.414062 -6.664062 5.171875 -5.140625 6.484375 -3.921875 C 7.804688 -2.703125 9.390625 -2.09375 11.234375 -2.09375 C 12.203125 -2.09375 13.144531 -2.238281 14.0625 -2.53125 C 14.988281 -2.832031 15.757812 -3.257812 16.375 -3.8125 Z M 10.640625 -16.5625 C 9.015625 -16.5625 7.613281 -16.015625 6.4375 -14.921875 C 5.257812 -13.828125 4.546875 -12.421875 4.296875 -10.703125 L 16.796875 -10.703125 C 16.546875 -12.347656 15.84375 -13.734375 14.6875 -14.859375 C 13.53125 -15.992188 12.179688 -16.5625 10.640625 -16.5625 Z M 10.640625 -16.5625 "/>
</symbol>
<symbol overflow="visible" id="glyph2-12">
<path style="stroke:none;" d="M 2.34375 0 L 2.34375 -18.6875 L 5.109375 -18.6875 L 5.109375 -16.484375 C 5.828125 -17.335938 6.679688 -17.976562 7.671875 -18.40625 C 8.671875 -18.84375 9.78125 -19.0625 11 -19.0625 C 13.113281 -19.0625 14.84375 -18.390625 16.1875 -17.046875 C 17.53125 -15.703125 18.203125 -13.960938 18.203125 -11.828125 L 18.203125 0 L 15.484375 0 L 15.484375 -11.265625 C 15.484375 -12.910156 15.007812 -14.21875 14.0625 -15.1875 C 13.125 -16.15625 11.859375 -16.640625 10.265625 -16.640625 C 9.140625 -16.640625 8.132812 -16.390625 7.25 -15.890625 C 6.375 -15.398438 5.660156 -14.691406 5.109375 -13.765625 L 5.109375 0 Z M 2.34375 0 "/>
</symbol>
</g>
</defs>
<g id="surface1">
<g style="fill:rgb(100%,100%,100%);fill-opacity:1;">
  <use xlink:href="#glyph0-1" x="88.411621" y="438.200082"/>
</g>
<g style="fill:rgb(100%,100%,100%);fill-opacity:1;">
  <use xlink:href="#glyph0-2" x="200.368125" y="438.200082"/>
</g>
<g style="fill:rgb(100%,100%,100%);fill-opacity:1;">
  <use xlink:href="#glyph1-1" x="289.451323" y="438.200082"/>
</g>
<g style="fill:rgb(100%,100%,100%);fill-opacity:1;">
  <use xlink:href="#glyph1-2" x="390.973599" y="438.200082"/>
</g>
<g style="fill:rgb(100%,100%,100%);fill-opacity:1;">
  <use xlink:href="#glyph1-3" x="470.499397" y="438.200082"/>
</g>
<g style="fill:rgb(100%,100%,100%);fill-opacity:1;">
  <use xlink:href="#glyph1-4" x="533.386814" y="438.200082"/>
</g>
<g style="fill:rgb(100%,100%,100%);fill-opacity:1;">
  <use xlink:href="#glyph1-5" x="561.587444" y="438.200082"/>
</g>
<g style="fill:rgb(100%,100%,100%);fill-opacity:1;">
  <use xlink:href="#glyph1-6" x="644.215297" y="438.200082"/>
</g>
<g style="fill:rgb(100%,100%,100%);fill-opacity:1;">
  <use xlink:href="#glyph2-1" x="442.932365" y="497.238571"/>
</g>
<g style="fill:rgb(100%,100%,100%);fill-opacity:1;">
  <use xlink:href="#glyph2-2" x="469.797415" y="497.238571"/>
</g>
<g style="fill:rgb(100%,100%,100%);fill-opacity:1;">
  <use xlink:href="#glyph2-3" x="477.259924" y="497.238571"/>
</g>
<g style="fill:rgb(100%,100%,100%);fill-opacity:1;">
  <use xlink:href="#glyph2-2" x="499.125084" y="497.238571"/>
</g>
<g style="fill:rgb(100%,100%,100%);fill-opacity:1;">
  <use xlink:href="#glyph2-4" x="506.587593" y="497.238571"/>
</g>
<g style="fill:rgb(100%,100%,100%);fill-opacity:1;">
  <use xlink:href="#glyph2-5" x="520.20668" y="497.238571"/>
</g>
<g style="fill:rgb(100%,100%,100%);fill-opacity:1;">
  <use xlink:href="#glyph2-6" x="539.459967" y="497.238571"/>
</g>
<g style="fill:rgb(100%,100%,100%);fill-opacity:1;">
  <use xlink:href="#glyph2-7" x="546.922476" y="497.238571"/>
</g>
<g style="fill:rgb(100%,100%,100%);fill-opacity:1;">
  <use xlink:href="#glyph2-8" x="554.944681" y="497.238571"/>
</g>
<g style="fill:rgb(100%,100%,100%);fill-opacity:1;">
  <use xlink:href="#glyph2-5" x="586.54842" y="497.238571"/>
</g>
<g style="fill:rgb(100%,100%,100%);fill-opacity:1;">
  <use xlink:href="#glyph2-9" x="605.801707" y="497.238571"/>
</g>
<g style="fill:rgb(100%,100%,100%);fill-opacity:1;">
  <use xlink:href="#glyph2-10" x="618.711855" y="497.238571"/>
</g>
<g style="fill:rgb(100%,100%,100%);fill-opacity:1;">
  <use xlink:href="#glyph2-11" x="637.144268" y="497.238571"/>
</g>
<g style="fill:rgb(100%,100%,100%);fill-opacity:1;">
  <use xlink:href="#glyph2-4" x="658.188556" y="497.238571"/>
</g>
<g style="fill:rgb(100%,100%,100%);fill-opacity:1;">
  <use xlink:href="#glyph2-2" x="671.807643" y="497.238571"/>
</g>
<g style="fill:rgb(100%,100%,100%);fill-opacity:1;">
  <use xlink:href="#glyph2-12" x="679.270152" y="497.238571"/>
</g>
<g style="fill:rgb(100%,100%,100%);fill-opacity:1;">
  <use xlink:href="#glyph2-3" x="699.754754" y="497.238571"/>
</g>
</g>
</svg>
